-1,,,0.0,59.2007999897,94.1785070206,304.3387755498,0.292,25.769,0.1821256676,0.2897312784,0.9362694875,0.0008983104,0.0792758937
0,eu-central-1,c4.xlarge,0.9985968066914607,70.6010000706,93.6674111905,370.2752060952,0.227,25.769,0.1813708164,0.2406273965,0.9512204692,0.0005831529,0.0661994102
1,eu-central-1,r4.xlarge,0.9947460419566575,59.2007999897,91.2584320228,426.2580266944,0.3201,25.769,0.1343417243,0.2070886731,0.9672882513,0.0007263886,0.0584764377
2,us-east-1,r4.xlarge,0.9827330849895918,70.6010000706,93.394974374,428.1535979969,0.266,110.648,0.1543340852,0.2041618095,0.9359455786,0.0005814771,0.2418769966
3,eu-central-1,t2.large,0.9804525701176012,116.4010000229,98.9166463275,276.0414371305,0.108,25.769,0.3677309363,0.3124948322,0.8720627496,0.0003411907,0.0814087379
4,eu-central-1,t2.medium,0.9794744227853441,114.4010000229,98.8067165467,268.0652525474,0.054,25.769,0.3704385997,0.3199431973,0.8680144122,0.0001748559,0.0834418604
5,us-east-1,c4.xlarge,0.979395721804962,79.4008000374,94.1785070206,371.6509843992,0.199,110.648,0.1951512634,0.2314719073,0.913443682,0.0004891021,0.2719506224
6,eu-central-1,c4.large,0.9599450235833356,147.4009999752,98.4943898422,276.1978758338,0.114,25.769,0.4477450819,0.2991864279,0.8389783011,0.0003462862,0.0782758802
7,us-east-1,t2.large,0.9584620707231675,87.0009999752,98.364500872,276.2510536885,0.094,110.648,0.2674708888,0.3024061847,0.849290409,0.0002889882,0.3401698705
8,us-east-1,t2.medium,0.9540755646597144,90.0008000374,98.4717692308,267.1883275253,0.047,110.648,0.2825949545,0.3091930864,0.8389489119,0.0001475761,0.3474254286
9,eu-central-1,r4.large,0.950300609574033,174.8008000374,96.9127093636,304.1331218884,0.16005,25.769,0.4791159829,0.2656305234,0.8336062512,0.0004386851,0.0706309111
10,us-east-1,r4.large,0.9427859163695232,152.4005999565,97.4574088278,304.3387755498,0.133,110.648,0.41086094,0.2627380903,0.8204752175,0.0003585583,0.2982989654
11,eu-central-1,m3.large,0.9412222182423676,171.4009999752,98.7054921989,277.4303556388,0.158,25.769,0.5016257248,0.2888735426,0.8119334382,0.0004624061,0.0754160904
12,us-east-1,c4.large,0.9318730212840838,146.6010000229,98.3927496691,275.3340346152,0.1,110.648,0.4245742185,0.2849572977,0.7974006491,0.0002896121,0.3204499841
13,us-east-1,m3.large,0.9304470273548285,150.8009999275,98.8575385587,277.4077348629,0.133,110.648,0.432252857,0.2833631972,0.7951557748,0.0003812284,0.3171591312
14,eu-central-1,t2.small,0.8767729488964429,179.8007999897,99.7853024692,204.8351152456,0.027,25.769,0.6170496713,0.3424483544,0.7029637273,0.00009266,0.088435385
15,eu-central-1,t2.micro,0.8634260251203681,186.8010000706,99.785976312,200.7631346115,0.014,25.769,0.6376473488,0.3406205706,0.6853072546,0.0000477892,0.087962776
16,us-east-1,t2.small,0.84102551038447,182.0009999752,99.674943236,204.0754162875,0.023,110.648,0.5845230306,0.320120768,0.6554182714,0.0000738679,0.3553623568
17,us-east-1,t2.micro,0.8321842557592171,186.601199913,99.7346917982,200.7198786299,0.012,110.648,0.5982206974,0.3197372628,0.6434834601,0.0000384705,0.3547239984
18,eu-central-1,m3.medium,0.6852219998954509,353.2036000252,99.6119489707,207.3492345843,0.079,25.769,0.8363906535,0.2358823723,0.491005646,0.000187073,0.0610213224
19,us-east-1,m3.medium,0.6844009724097089,349.2023999691,99.6633113739,208.4463152629,0.067,110.648,0.8063023258,0.2301208691,0.481298951,0.0001547018,0.2554843259
