-1,ideal,,0.0,16.8574285643,13.1344017094,28.7571835133,0.0022857143,69.3985714286,16.8574285643,13.1344017094,28.7571835133,0.0022857143,69.3985714286
-1,antiIdeal,,0.0,100.4009142876,14.2556383933,60.9898922591,0.0457142857,90.0462857143,100.4009142876,14.2556383933,60.9898922591,0.0457142857,90.0462857143
0,ap-northeast-1,t2.large,0.8567908583515558,87.8009999275,98.3489401515,276.2932010925,0.128,242.895,25.0859999793,14.0498485931,39.4704572989,0.0182857143,69.3985714286
1,ap-northeast-1,t2.medium,0.8564859469252588,92.0012000084,98.5127228975,268.0333982657,0.064,242.895,26.2860571453,14.0732461282,38.2904854665,0.0091428571,69.3985714286
2,ap-northeast-1,c4.xlarge,0.7739691487382502,70.0008000374,94.0518564561,370.3676227169,0.252,242.895,20.0002285821,13.4359794937,52.9096603881,0.036,69.3985714286
3,ap-southeast-2,t2.medium,0.7590748444975182,91.8012000084,98.3536076945,268.1062316834,0.064,315.162,26.2289142881,14.0505153849,38.3008902405,0.0091428571,90.0462857143
4,ap-southeast-2,t2.large,0.755333785172821,91.6007999897,98.3807157341,275.7553672363,0.128,315.162,26.1716571399,14.054387962,39.3936238909,0.0182857143,90.0462857143
5,ap-northeast-1,r4.xlarge,0.7275275672676996,59.0009999752,91.9408119657,426.9292458138,0.32,242.895,16.8574285643,13.1344017094,60.9898922591,0.0457142857,69.3985714286
6,ap-southeast-2,c4.xlarge,0.7176713365998332,68.6009999275,93.7798079089,370.827677501,0.261,315.162,19.6002856936,13.3971154156,52.9753825001,0.0372857143,90.0462857143
7,ap-southeast-2,r4.xlarge,0.679607292298515,66.8010000229,92.8052544859,426.8781726517,0.3192,315.162,19.0860000065,13.257893498,60.9825960931,0.0456,90.0462857143
8,ap-northeast-1,r4.large,0.6636895230079491,156.2010000229,97.5864882045,304.0424623565,0.16,242.895,44.6288571494,13.9409268864,43.4346374795,0.0228571429,69.3985714286
9,ap-northeast-1,c4.large,0.6613914749688111,162.800799942,98.1288490696,276.1067952434,0.126,242.895,46.5145142691,14.0184070099,39.4438278919,0.018,69.3985714286
10,ap-southeast-2,c4.large,0.6457078615578059,146.8010000706,98.2987598639,275.6853949776,0.13,315.162,41.9431428773,14.0426799806,39.3836278539,0.0185714286,90.0462857143
11,ap-northeast-1,m3.large,0.6423984391489987,169.2011999607,98.4861886672,277.9739242726,0.193,242.895,48.3431999888,14.0694555239,39.7105606104,0.0275714286,69.3985714286
12,ap-southeast-2,r4.large,0.6313277426576939,146.8005999565,97.3897020224,303.8457813074,0.1596,315.162,41.943028559,13.9128145746,43.4065401868,0.0228,90.0462857143
13,ap-southeast-2,m3.large,0.6297005257551579,153.2011999607,98.6689195239,276.8141651974,0.186,315.162,43.7717714173,14.095559932,39.5448807425,0.0265714286,90.0462857143
14,ap-northeast-1,t2.micro,0.6229707658617654,187.2009999275,99.7355008282,201.3002845932,0.016,242.895,53.4859999793,14.2479286897,28.7571835133,0.0022857143,69.3985714286
15,ap-southeast-2,t2.small,0.594109165496332,179.0006000042,99.6617323552,204.6184035275,0.032,315.162,51.1430285726,14.2373903365,29.2312005039,0.0045714286,90.0462857143
16,ap-southeast-2,t2.micro,0.5833608800500631,183.8011999607,99.7033620734,201.4374139811,0.016,315.162,52.5146285602,14.2433374391,28.7767734259,0.0022857143,90.0462857143
17,ap-northeast-1,t2.small,0.5150647742856278,229.0012001514,99.7894687533,204.0611356653,0.032,242.895,65.428914329,14.2556383933,29.1515908093,0.0045714286,69.3985714286
18,ap-northeast-1,m3.medium,0.309489954751338,351.4032000065,99.6981303607,208.2185702191,0.096,242.895,100.4009142876,14.2425900515,29.7455100313,0.0137142857,69.3985714286
19,ap-southeast-2,m3.medium,0.2660989268262248,351.0036000252,99.6043172773,208.7585213681,0.093,315.162,100.2867428643,14.2291881825,29.8226459097,0.0132857143,90.0462857143
