-1,ideal,,0.0,18.4002285685,13.2244019129,28.7284305187,0.0017142857,7.5011428571,18.4002285685,13.2244019129,28.7284305187,0.0017142857,7.5011428571
-1,antiIdeal,,0.0,99.3151428495,14.2594693205,61.1909954014,0.0457285714,30.5185714286,99.3151428495,14.2594693205,61.1909954014,0.0457285714,30.5185714286
0,eu-central-1,t2.medium,0.8623801616637486,93.6010001183,98.541309476,267.7591279675,0.054,26.254,26.7431428909,14.0773299251,38.2513039954,0.0077142857,7.5011428571
1,eu-central-1,t2.large,0.8516329767152739,94.4010000706,98.5949446217,276.1827540154,0.108,26.254,26.9717143059,14.0849920888,39.4546791451,0.0154285714,7.5011428571
2,eu-central-1,c4.xlarge,0.7732500613657893,70.8009999752,93.7753865471,370.5444142569,0.227,26.254,20.2288571358,13.3964837924,52.9349163224,0.0324285714,7.5011428571
3,us-east-1,t2.medium,0.7459477017674266,91.6010000229,98.4133018934,267.7644264542,0.047,106.815,26.1717142923,14.0590431276,38.252060922,0.0067142857,30.5185714286
4,eu-central-1,r4.xlarge,0.7185083784804109,68.8010000229,92.5708133905,428.3369678096,0.3201,26.254,19.657428578,13.2244019129,61.1909954014,0.0457285714,7.5011428571
5,eu-central-1,c4.large,0.7154134703227116,147.4009999752,98.6018194812,275.7328387436,0.114,26.254,42.1145714215,14.0859742116,39.3904055348,0.0162857143,7.5011428571
6,us-east-1,t2.large,0.7094213595554275,112.4009999752,98.701330501,276.9618340934,0.094,106.815,32.1145714215,14.1001900716,39.5659762991,0.0134285714,30.5185714286
7,us-east-1,c4.xlarge,0.6988921834287076,76.0008000374,92.6120405708,371.0716950308,0.199,106.815,21.7145142964,13.2302915101,53.0102421473,0.0284285714,30.5185714286
8,eu-central-1,m3.large,0.6903855110662273,155.800799942,98.9957139631,277.9606242392,0.158,26.254,44.5145142691,14.1422448519,39.7086606056,0.0225714286,7.5011428571
9,eu-central-1,r4.large,0.6897575785504093,150.0012000084,97.5095125828,304.2155947232,0.16005,26.254,42.8574857167,13.929930369,43.4593706747,0.0228642857,7.5011428571
10,us-east-1,r4.xlarge,0.6708958418093653,64.4007999897,93.2369620861,427.4802165754,0.266,106.815,18.4002285685,13.3195660123,61.0686023679,0.038,30.5185714286
11,eu-central-1,t2.small,0.6467866646037278,182.0010000229,99.6441805944,204.6304824248,0.027,26.254,52.0002857208,14.2348829421,29.2329260607,0.0038571429,7.5011428571
12,eu-central-1,t2.micro,0.6417576679740264,184.2009999752,99.7623478673,201.1013734377,0.014,26.254,52.6288571358,14.251763981,28.728767634,0.002,7.5011428571
13,us-east-1,c4.large,0.6410782003369724,146.0008000374,98.3060482881,275.9887408892,0.1,106.815,41.7145142964,14.043721184,39.4269629842,0.0142857143,30.5185714286
14,us-east-1,m3.large,0.6320767658898979,149.6012000084,98.8903972539,277.3801152232,0.133,106.815,42.7432000024,14.1271996077,39.6257307462,0.019,30.5185714286
15,us-east-1,r4.large,0.6205726943956116,148.6008000851,97.7082874631,304.214847149,0.133,106.815,42.4573714529,13.9583267804,43.4592638784,0.019,30.5185714286
16,us-east-1,t2.small,0.4739814927749788,227.6010000229,99.7025953805,204.6656823853,0.023,106.815,65.0288571494,14.2432279115,29.2379546265,0.0032857143,30.5185714286
17,us-east-1,t2.micro,0.4578791947632114,235.4010001183,99.8162852435,201.0990136309,0.012,106.815,67.2574286052,14.2594693205,28.7284305187,0.0017142857,30.5185714286
18,eu-central-1,m3.medium,0.3253255752106896,347.0024000645,99.6514297285,208.473481698,0.079,26.254,99.1435428756,14.2359185326,29.7819259569,0.0112857143,7.5011428571
19,us-east-1,m3.medium,0.2716458102692603,347.6029999733,99.6364617729,208.6771671741,0.067,106.815,99.3151428495,14.2337802533,29.811023882,0.0095714286,30.5185714286
