-1,ideal,,0.0,19.0288571766,12.9301398109,28.7227548218,0.0017142857,7.3917142857,19.0288571766,12.9301398109,28.7227548218,0.0017142857,7.3917142857
-1,antiIdeal,,0.0,132.9157714163,14.2556646429,61.2909133521,0.0457285714,31.4022857143,132.9157714163,14.2556646429,61.2909133521,0.0457285714,31.4022857143
0,eu-central-1,t2.large,0.8921753425530815,94.0010001183,98.4951129367,276.7882398091,0.108,25.871,26.8574286052,14.0707304195,39.5411771156,0.0154285714,7.3917142857
1,eu-central-1,t2.medium,0.8798686759434478,105.8009999752,98.7279500208,267.6172496941,0.054,25.871,30.2288571358,14.1039928601,38.2310356706,0.0077142857,7.3917142857
2,eu-central-1,c4.xlarge,0.8238687890254079,74.8009999752,93.4775945019,371.4436594664,0.227,25.871,21.3717142786,13.3539420717,53.0633799238,0.0324285714,7.3917142857
3,us-east-1,t2.medium,0.8044259556006862,89.6007999897,98.4439683105,267.8687839548,0.047,109.908,25.6002285685,14.0634240444,38.2669691364,0.0067142857,31.4022857143
4,us-east-1,t2.large,0.8005731810238932,90.6011999607,98.5442161252,276.3023958353,0.094,109.908,25.8860571316,14.0777451607,39.4717708336,0.0134285714,31.4022857143
5,eu-central-1,c4.large,0.7889406790614197,148.6010000229,98.5143416465,274.9302789681,0.114,25.871,42.457428578,14.0734773781,39.2757541383,0.0162857143,7.3917142857
6,eu-central-1,r4.xlarge,0.7734174438740027,81.8011999607,90.5109786764,429.0363934646,0.3201,25.871,23.3717714173,12.9301398109,61.2909133521,0.0457285714,7.3917142857
7,eu-central-1,m3.large,0.7686138830953757,157.4007999897,98.957506668,278.0179136035,0.158,25.871,44.9716571399,14.1367866669,39.7168448005,0.0225714286,7.3917142857
8,us-east-1,c4.xlarge,0.7683452379903799,70.6009999752,93.6149606774,370.2138374129,0.199,109.908,20.1717142786,13.3735658111,52.887691059,0.0284285714,31.4022857143
9,eu-central-1,r4.large,0.7576395522032959,157.200799942,97.3858757853,303.3248575861,0.16005,25.871,44.9145142691,13.9122679693,43.3321225123,0.0228642857,7.3917142857
10,us-east-1,r4.xlarge,0.7388550557737267,66.6010001183,93.7885364647,427.1994829902,0.266,109.908,19.0288571766,13.3983623521,61.02849757,0.038,31.4022857143
11,eu-central-1,t2.small,0.7345696454734101,181.0009999275,99.7453798331,204.6437173323,0.027,25.871,51.7145714079,14.2493399762,29.2348167618,0.0038571429,7.3917142857
12,us-east-1,m3.large,0.7239512652412329,149.2008000851,98.7750838372,277.3169570087,0.133,109.908,42.6288000243,14.1107262625,39.6167081441,0.019,31.4022857143
13,us-east-1,c4.large,0.7054438609470052,160.2012000084,97.8735942858,275.9822831136,0.1,109.908,45.771771431,13.9819420408,39.4260404448,0.0142857143,31.4022857143
14,us-east-1,r4.large,0.7002876170565248,157.8009999275,97.2756896667,303.7627483547,0.133,109.908,45.0859999793,13.8965270952,43.3946783364,0.019,31.4022857143
15,us-east-1,t2.micro,0.6789936707036456,183.2009999752,99.7330202287,201.0592837527,0.012,109.908,52.3431428501,14.2475743184,28.7227548218,0.0017142857,31.4022857143
16,us-east-1,t2.small,0.6736234335972106,185.8010000229,99.7363240332,204.1356070207,0.023,109.908,53.0860000065,14.2480462905,29.1622295744,0.0032857143,31.4022857143
17,eu-central-1,t2.micro,0.611265380212067,237.2007999897,99.7896525,201.2807627288,0.014,25.871,67.7716571399,14.2556646429,28.7543946755,0.002,7.3917142857
18,us-east-1,m3.medium,0.348186815298891,351.4039999485,99.6859029307,207.9534334361,0.067,109.908,100.4011428424,14.2408432758,29.707633348,0.0095714286,31.4022857143
19,eu-central-1,m3.medium,0.2580219728383322,465.2051999569,99.6849296958,208.5290236989,0.079,25.871,132.9157714163,14.2407042423,29.7898605284,0.0112857143,7.3917142857
