{
  "matrix_mul_mpi": {
    "1000": {
      "1": {
        "sum": 116.317,
        "count": 5,
        "avg": 23.263,
        "speedup": 1.0,
        "efficiency": 1.0
      },
      "2": {
        "sum": 60.091,
        "count": 5,
        "avg": 12.018,
        "speedup": 1.936,
        "efficiency": 0.968
      },
      "4": {
        "sum": 56.798,
        "count": 5,
        "avg": 11.36,
        "speedup": 2.048,
        "efficiency": 0.512
      }
    }
  },
  "sieve_mpi": {
    "40000000": {
      "1": {
        "sum": 4.873,
        "count": 5,
        "avg": 0.975,
        "speedup": 1.0,
        "efficiency": 1.0
      },
      "2": {
        "sum": 3.603,
        "count": 5,
        "avg": 0.721,
        "speedup": 1.352,
        "efficiency": 0.676
      },
      "4": {
        "sum": 4.896,
        "count": 5,
        "avg": 0.979,
        "speedup": 0.995,
        "efficiency": 0.249
      }
    }
  },
  "bubble_sort_mpi": {
    "50000": {
      "1": {
        "sum": 77.924,
        "count": 5,
        "avg": 15.585,
        "speedup": 1.0,
        "efficiency": 1.0
      },
      "2": {
        "sum": 48.471,
        "count": 5,
        "avg": 9.694,
        "speedup": 1.608,
        "efficiency": 0.804
      },
      "4": {
        "sum": 82.164,
        "count": 5,
        "avg": 16.433,
        "speedup": 0.948,
        "efficiency": 0.237
      }
    }
  }
}
