-1,ideal,,0.0,20.3335999966,15.2308306452,33.4332674074,0.0026666667,44.3475,20.3335999966,15.2308306452,33.4332674074,0.0026666667,44.3475
-1,antiIdeal,,0.0,120.1342666626,16.6313888959,71.3322756202,0.0533333333,54.487,120.1342666626,16.6313888959,71.3322756202,0.0533333333,54.487
0,ap-southeast-2,c4.xlarge,0.5519027652897041,69.2007999897,93.1471099365,370.8236789443,0.261,326.922,23.0669333299,15.5245183228,61.8039464907,0.0435,54.487
1,ap-southeast-2,r4.xlarge,0.5493928433579489,71.8010000229,91.6620117446,427.9936537211,0.3192,326.922,23.9336666743,15.2770019574,71.3322756202,0.0532,54.487
2,ap-northeast-1,r4.xlarge,0.5475688578529803,61.0007999897,91.384983871,427.3448629677,0.32,266.085,20.3335999966,15.2308306452,71.224143828,0.0533333333,44.3475
3,ap-northeast-1,c4.xlarge,0.5423642233689308,70.2010000229,94.0551602988,370.533546563,0.252,266.085,23.400333341,15.6758600498,61.7555910938,0.042,44.3475
4,ap-southeast-2,t2.large,0.5387270326237352,92.2010000229,98.4405900512,277.0961702804,0.128,326.922,30.7336666743,16.4067650085,46.1826950467,0.0213333333,54.487
5,ap-southeast-2,t2.medium,0.5381194129070959,93.2010001183,98.4386440783,268.3028114288,0.064,326.922,31.0670000394,16.4064406797,44.7171352381,0.0106666667,54.487
6,ap-northeast-1,t2.medium,0.5281628730165218,92.2012000561,98.4909605184,268.0988872038,0.064,266.085,30.733733352,16.4151600864,44.6831478673,0.0106666667,44.3475
7,ap-northeast-1,t2.large,0.514645731531106,114.6007999897,98.8318066249,276.80521648,0.128,266.085,38.2002666632,16.4719677708,46.1342027467,0.0213333333,44.3475
8,ap-southeast-2,r4.large,0.5109727964272224,143.6010000229,97.3555338145,303.2702807523,0.1596,326.922,47.8670000076,16.2259223024,50.545046792,0.0266,54.487
9,ap-southeast-2,c4.large,0.5087783166619426,146.8007999897,98.4175284862,276.0586892926,0.13,326.922,48.9335999966,16.4029214144,46.0097815488,0.0216666667,54.487
10,ap-southeast-2,m3.large,0.5065438495670644,151.6009999752,98.7582968438,276.9853574208,0.186,326.922,50.5336666584,16.4597161406,46.1642262368,0.031,54.487
11,ap-northeast-1,c4.large,0.4970460274238304,147.8009999275,98.5575957827,275.2265059047,0.126,266.085,49.2669999758,16.4262659638,45.8710843175,0.021,44.3475
12,ap-northeast-1,r4.large,0.4933458787234878,158.2008000851,97.5742471959,303.7103467569,0.16,266.085,52.7336000284,16.2623745326,50.6183911261,0.0266666667,44.3475
13,ap-southeast-2,t2.small,0.48831112957054457,186.0010000706,99.6320366517,204.7371965747,0.032,326.922,62.0003333569,16.605339442,34.1228660958,0.0053333333,54.487
14,ap-southeast-2,t2.micro,0.48791160812204826,186.600399971,99.7195093377,201.6618897374,0.016,326.922,62.2001333237,16.6199182229,33.6103149562,0.0026666667,54.487
15,ap-northeast-1,m3.large,0.486698581034813,170.4009999275,98.2951471581,277.0142342485,0.193,266.085,56.8003333092,16.3825245263,46.1690390414,0.0321666667,44.3475
16,ap-northeast-1,t2.small,0.47838540100774307,180.2009999752,99.7883333756,204.5858313365,0.032,266.085,60.0669999917,16.6313888959,34.0976385561,0.0053333333,44.3475
17,ap-northeast-1,t2.micro,0.4762057506475448,184.6008000374,99.7462223083,200.5996044444,0.016,266.085,61.5336000125,16.6243703847,33.4332674074,0.0026666667,44.3475
18,ap-southeast-2,m3.medium,0.43737287189648366,348.4032000542,99.681235325,207.6539400099,0.093,326.922,116.1344000181,16.6135392208,34.6089900016,0.0155,54.487
19,ap-northeast-1,m3.medium,0.4232792274771744,360.4027999878,99.666128203,208.2617883047,0.096,266.085,120.1342666626,16.6110213672,34.7102980508,0.016,44.3475
