-1,ideal,,0.0,21.2002666791,15.1656763935,33.5018694379,0.0026666667,46.295,21.2002666791,15.1656763935,33.5018694379,0.0026666667,46.295
-1,antiIdeal,,0.0,116.66753335,16.6384714671,71.3562467295,0.0533333333,52.6903333333,116.66753335,16.6384714671,71.3562467295,0.0533333333,52.6903333333
0,ap-southeast-2,r4.xlarge,0.5498174984875976,63.6008000374,90.994058361,427.8097359605,0.3192,316.142,21.2002666791,15.1656763935,71.3016226601,0.0532,52.6903333333
1,ap-southeast-2,c4.xlarge,0.548719456285595,68.2010000229,93.7127224362,370.711478748,0.261,316.142,22.7336666743,15.6187870727,61.785246458,0.0435,52.6903333333
2,ap-northeast-1,r4.xlarge,0.541931274578549,67.4009999752,92.3976276452,428.1374803772,0.32,277.77,22.4669999917,15.3996046075,71.3562467295,0.0533333333,46.295
3,ap-southeast-2,t2.large,0.5377328451382632,89.6006000519,98.399628249,275.8561891912,0.128,316.142,29.866866684,16.3999380415,45.9760315319,0.0213333333,52.6903333333
4,ap-southeast-2,t2.medium,0.5363631873130184,92.0009999275,98.4308961008,267.568819188,0.064,316.142,30.6669999758,16.4051493501,44.594803198,0.0106666667,52.6903333333
5,ap-northeast-1,c4.xlarge,0.535352348519947,80.2010000706,94.4323213716,370.8384808793,0.252,277.77,26.7336666902,15.7387202286,61.8064134799,0.042,46.295
6,ap-northeast-1,t2.medium,0.5293318243233567,92.0007999897,98.5360756876,267.7897032963,0.064,277.77,30.6669333299,16.4226792813,44.631617216,0.0106666667,46.295
7,ap-northeast-1,t2.large,0.5292721965791287,92.0009999752,98.4600242549,276.7711214646,0.128,277.77,30.6669999917,16.4100040425,46.1285202441,0.0213333333,46.295
8,ap-southeast-2,r4.large,0.5074082232157588,146.2009999275,97.3789378983,303.9254599192,0.1596,316.142,48.7336666425,16.2298229831,50.6542433199,0.0266,52.6903333333
9,ap-southeast-2,c4.large,0.5054926057588623,149.4010000229,98.5257801148,276.1440576899,0.13,316.142,49.800333341,16.4209633525,46.024009615,0.0216666667,52.6903333333
10,ap-northeast-1,r4.large,0.5018702507252586,142.8012000084,97.4074728849,304.1474733391,0.16,277.77,47.6004000028,16.2345788141,50.6912455565,0.0266666667,46.295
11,ap-southeast-2,m3.large,0.4959346983477694,171.0010000229,98.7703254518,277.2574325597,0.186,316.142,57.000333341,16.4617209086,46.2095720933,0.031,52.6903333333
12,ap-northeast-1,m3.large,0.49285591334787227,161.0006000042,98.5143594367,277.3243301633,0.193,277.77,53.6668666681,16.4190599061,46.2207216939,0.0321666667,46.295
13,ap-southeast-2,t2.micro,0.48633331128030255,188.0009999752,99.7021060893,201.0112166271,0.016,316.142,62.6669999917,16.6170176816,33.5018694379,0.0026666667,52.6903333333
14,ap-northeast-1,c4.large,0.4837296393185835,182.401199913,97.9450651225,276.7107553417,0.126,277.77,60.800399971,16.3241775204,46.1184592236,0.021,46.295
15,ap-northeast-1,t2.small,0.47973377898144154,184.8009999752,99.7830514645,204.5868681297,0.032,277.77,61.6003333251,16.6305085774,34.097811355,0.0053333333,46.295
16,ap-northeast-1,t2.micro,0.4788123571005719,186.6012000561,99.7246646855,201.2577434632,0.016,277.77,62.2004000187,16.6207774476,33.5429572439,0.0026666667,46.295
17,ap-southeast-2,t2.small,0.4737286799368844,220.8009999275,99.8308288025,204.6413758816,0.032,316.142,73.6003333092,16.6384714671,34.1068959803,0.0053333333,52.6903333333
18,ap-southeast-2,m3.medium,0.43701341098948077,350.00260005,99.6455731706,207.9472041293,0.093,316.142,116.66753335,16.6075955284,34.6578673549,0.0155,52.6903333333
19,ap-northeast-1,m3.medium,0.42982787170846437,349.0034000397,99.6535695141,207.9793688937,0.096,277.77,116.3344666799,16.6089282524,34.6632281489,0.016,46.295
