-1,ideal,,0.0,20.7335999966,15.2356258355,33.5003562731,0.0026666667,44.3048333333,20.7335999966,15.2356258355,33.5003562731,0.0026666667,44.3048333333
-1,antiIdeal,,0.0,117.068266662,16.6147183492,71.4245304954,0.0533333333,52.0785,117.068266662,16.6147183492,71.4245304954,0.0533333333,52.0785
0,ap-southeast-2,r4.xlarge,0.5491323407748174,67.2006000042,92.5118817233,427.8427505028,0.3192,312.471,22.4002000014,15.4186469539,71.3071250838,0.0532,52.0785
1,ap-southeast-2,c4.xlarge,0.5491281202286362,69.2009999752,92.9889498195,369.5626100576,0.261,312.471,23.0669999917,15.4981583032,61.5937683429,0.0435,52.0785
2,ap-northeast-1,r4.xlarge,0.5453329363459318,62.2007999897,91.4137550131,428.5471829727,0.32,265.829,20.7335999966,15.2356258355,71.4245304954,0.0533333333,44.3048333333
3,ap-northeast-1,c4.xlarge,0.5419445916768809,69.2012000561,93.7444766197,370.7910337674,0.252,265.829,23.0670666854,15.6240794366,61.7985056279,0.042,44.3048333333
4,ap-southeast-2,t2.medium,0.5373949046784763,90.8007999897,98.3905843582,267.7318604756,0.064,312.471,30.2669333299,16.3984307264,44.6219767459,0.0106666667,52.0785
5,ap-southeast-2,t2.large,0.5360929767769425,92.8007999897,98.4732283731,275.7178795077,0.128,312.471,30.9335999966,16.4122047288,45.9529799179,0.0213333333,52.0785
6,ap-northeast-1,t2.medium,0.5305291072881636,88.401199913,98.4484297835,267.6646056276,0.064,265.829,29.4670666377,16.4080716306,44.6107676046,0.0106666667,44.3048333333
7,ap-northeast-1,t2.large,0.5301524100803687,89.0007999897,98.5720603854,276.5878699294,0.128,265.829,29.6669333299,16.4286767309,46.0979783216,0.0213333333,44.3048333333
8,ap-southeast-2,c4.large,0.5053919160072682,149.8006000996,98.3261635996,275.822107911,0.13,312.471,49.9335333665,16.3876939333,45.9703513185,0.0216666667,52.0785
9,ap-southeast-2,m3.large,0.5051038256179435,150.6009999752,98.8054919484,277.8742156537,0.186,312.471,50.2003333251,16.4675819914,46.3123692756,0.031,52.0785
10,ap-southeast-2,r4.large,0.5035167247168946,155.4010000706,97.4723577182,303.5546506494,0.1596,312.471,51.8003333569,16.245392953,50.5924417749,0.0266,52.0785
11,ap-northeast-1,r4.large,0.498210610120405,148.2010001183,97.4809878747,303.5801615578,0.16,265.829,49.4003333728,16.2468313125,50.596693593,0.0266666667,44.3048333333
12,ap-northeast-1,c4.large,0.4969310063990985,149.0012000084,98.5088177092,276.2306022364,0.126,265.829,49.6670666695,16.4181362849,46.0384337061,0.021,44.3048333333
13,ap-southeast-2,t2.small,0.48834806228273475,182.4009999752,99.6862244675,204.6433842853,0.032,312.471,60.8003333251,16.6143707446,34.1072307142,0.0053333333,52.0785
14,ap-northeast-1,m3.large,0.48692725960656635,171.4007999897,98.6332094222,277.6006503556,0.193,265.829,57.1335999966,16.438868237,46.2667750593,0.0321666667,44.3048333333
15,ap-southeast-2,t2.micro,0.4858147690463641,188.000799942,99.6381586899,201.2733800304,0.016,312.471,62.666933314,16.6063597817,33.5455633384,0.0026666667,52.0785
16,ap-northeast-1,t2.small,0.47856861372992465,182.4012000084,99.6608383558,204.4092380333,0.032,265.829,60.8004000028,16.610139726,34.0682063389,0.0053333333,44.3048333333
17,ap-northeast-1,t2.micro,0.4774340246925748,184.6010000706,99.6771876896,201.0021376387,0.016,265.829,61.5336666902,16.6128646149,33.5003562731,0.0026666667,44.3048333333
18,ap-southeast-2,m3.medium,0.4362869425999095,350.8033999443,99.6081635761,208.3151155169,0.093,312.471,116.9344666481,16.601360596,34.7191859195,0.0155,52.0785
19,ap-northeast-1,m3.medium,0.4273289586185648,351.2047999859,99.6883100954,208.6646826487,0.096,265.829,117.068266662,16.6147183492,34.7774471081,0.016,44.3048333333
