-1,ideal,,0.0,20.2004000028,14.8849692725,33.4686805028,0.002,4.2105,20.2004000028,14.8849692725,33.4686805028,0.002,4.2105
-1,antiIdeal,,0.0,117.1343333562,16.6297836542,71.3422308116,0.05335,18.4321666667,117.1343333562,16.6297836542,71.3422308116,0.05335,18.4321666667
0,us-east-1,r4.xlarge,0.5607932211973901,60.6012000084,91.6869672263,427.4608060254,0.266,110.593,20.2004000028,15.2811612044,71.2434676709,0.0443333333,18.4321666667
1,eu-central-1,r4.xlarge,0.5570073914287177,71.0010000229,89.3098156349,428.0533848695,0.3201,25.263,23.6670000076,14.8849692725,71.3422308116,0.05335,4.2105
2,eu-central-1,c4.xlarge,0.5533408933955304,69.4010000229,93.9463128773,370.752749601,0.227,25.263,23.1336666743,15.6577188129,61.7921249335,0.0378333333,4.2105
3,us-east-1,c4.xlarge,0.5491564796341879,70.8008000374,93.8648825117,371.1433072576,0.199,110.593,23.6002666791,15.6441470853,61.8572178763,0.0331666667,18.4321666667
4,us-east-1,t2.large,0.5256359406992837,88.600799942,98.3728529748,276.0181127865,0.094,110.593,29.5335999807,16.3954754958,46.0030187978,0.0156666667,18.4321666667
5,eu-central-1,t2.medium,0.5242504963440577,93.0008000374,98.5661331809,267.5962384634,0.054,25.263,31.0002666791,16.4276888635,44.5993730772,0.009,4.2105
6,us-east-1,t2.medium,0.5229710232120423,90.4006000519,98.4733047943,266.8082402088,0.047,110.593,30.1335333506,16.4122174657,44.4680400348,0.0078333333,18.4321666667
7,eu-central-1,t2.large,0.5137879331936502,113.2009999752,98.8015131685,277.2520983385,0.108,25.263,37.7336666584,16.4669188614,46.2086830564,0.018,4.2105
8,us-east-1,r4.large,0.496755400883519,154.8009999275,97.4788951213,303.9778825922,0.133,110.593,51.6003333092,16.2464825202,50.662980432,0.0221666667,18.4321666667
9,eu-central-1,c4.large,0.4967480027145974,147.0007999897,98.3738614144,275.5686680105,0.114,25.263,49.0002666632,16.3956435691,45.9281113351,0.019,4.2105
10,us-east-1,m3.large,0.49433640311750127,149.8011999607,98.8989922208,277.092019365,0.133,110.593,49.9337333202,16.4831653701,46.1820032275,0.0221666667,18.4321666667
11,eu-central-1,m3.large,0.48676467150050695,172.8008000374,98.8197120058,277.6380841969,0.158,25.263,57.6002666791,16.469952001,46.2730140328,0.0263333333,4.2105
12,us-east-1,c4.large,0.4866937773512481,168.4010000229,98.138907889,275.7504033996,0.1,110.593,56.1336666743,16.3564846482,45.9584005666,0.0166666667,18.4321666667
13,eu-central-1,r4.large,0.4858666226618321,187.8010000229,96.8364247436,304.4219758638,0.16005,25.263,62.600333341,16.1394041239,50.7369959773,0.026675,4.2105
14,us-east-1,t2.small,0.4667925978051535,184.6009999275,99.6876337037,204.2646110832,0.023,110.593,61.5336666425,16.6146056173,34.0441018472,0.0038333333,18.4321666667
15,eu-central-1,t2.micro,0.4646297695905781,191.8012000561,99.6768765078,201.4085238193,0.014,25.263,63.933733352,16.6128127513,33.5680873032,0.0023333333,4.2105
16,eu-central-1,t2.small,0.45720836770488826,219.2010000706,99.778701925,204.6447909681,0.027,25.263,73.0670000235,16.6297836542,34.1074651613,0.0045,4.2105
17,us-east-1,t2.micro,0.4554229199011347,220.6010000229,99.6765355857,200.812083017,0.012,110.593,73.5336666743,16.6127559309,33.4686805028,0.002,18.4321666667
18,us-east-1,m3.medium,0.43180450378483914,351.4030000687,99.6248584579,208.730288558,0.067,110.593,117.1343333562,16.6041430763,34.7883814263,0.0111666667,18.4321666667
19,eu-central-1,m3.medium,0.4317767018353259,350.4025999546,99.6464805144,207.7152109979,0.079,25.263,116.8008666515,16.6077467524,34.619201833,0.0131666667,4.2105
