-1,ideal,,0.0,10.9667999903,15.2885277283,33.5040064646,0.0053333333,45.657,10.9667999903,15.2885277283,33.5040064646,0.0053333333,45.657
-1,antiIdeal,,0.0,58.9671333392,16.6288487082,71.2435965562,0.1066666667,54.2763333333,58.9671333392,16.6288487082,71.2435965562,0.1066666667,54.2763333333
0,ap-northeast-1,t2.medium,0.8103363813610286,93.2009999752,98.458250815,267.8560981538,0.064,273.942,15.5334999959,16.4097084692,44.6426830256,0.0213333333,45.657
1,ap-northeast-1,t2.large,0.795753869542505,90.8010000706,98.4283996894,275.7242220491,0.128,273.942,15.1335000118,16.4047332816,45.9540370082,0.0426666667,45.657
2,ap-southeast-2,t2.medium,0.7761233591818552,91.8007999897,98.4198856112,267.6664368178,0.064,325.658,15.3001333316,16.4033142685,44.611072803,0.0213333333,54.2763333333
3,ap-southeast-2,t2.large,0.7620537424587175,91.000799942,98.4421922746,275.9681426232,0.128,325.658,15.1667999903,16.4070320458,45.9946904372,0.0426666667,54.2763333333
4,ap-northeast-1,c4.large,0.7019689971869835,147.2007999897,98.4600956557,276.0927601628,0.126,273.942,24.533466665,16.4100159426,46.0154600271,0.042,45.657
5,ap-northeast-1,t2.micro,0.698239105166101,188.6012000084,99.773092249,201.3661428124,0.016,273.942,31.4335333347,16.6288487082,33.5610238021,0.0053333333,45.657
6,ap-northeast-1,m3.large,0.6950340021376773,149.4009999275,98.7336194349,277.5086619171,0.193,273.942,24.9001666546,16.4556032391,46.2514436529,0.0643333333,45.657
7,ap-southeast-2,t2.small,0.6887331221800584,181.6009999752,99.6735367256,205.0191695973,0.032,325.658,30.2668333292,16.6122561209,34.1698615995,0.0106666667,54.2763333333
8,ap-southeast-2,c4.large,0.6797837935385745,145.6007999897,98.4062368994,276.0041478597,0.13,325.658,24.2667999983,16.4010394832,46.0006913099,0.0433333333,54.2763333333
9,ap-southeast-2,t2.micro,0.6781931187250035,188.2012000084,99.6678721471,201.0240387874,0.016,325.658,31.3668666681,16.6113120245,33.5040064646,0.0053333333,54.2763333333
10,ap-southeast-2,m3.large,0.6675964026205646,150.6010000706,98.7758866678,277.7120512089,0.186,325.658,25.1001666784,16.462647778,46.2853418682,0.062,54.2763333333
11,ap-northeast-1,r4.large,0.660531791327995,143.0009999752,97.4778306472,303.5343026759,0.16,273.942,23.8334999959,16.2463051079,50.589050446,0.0533333333,45.657
12,ap-northeast-1,t2.small,0.637500072946632,217.200799942,99.7295211619,204.3282116488,0.032,273.942,36.2001333237,16.6215868603,34.0547019415,0.0106666667,45.657
13,ap-southeast-2,r4.large,0.6328652244134537,146.4008000374,97.4388599534,303.3075109243,0.1596,325.658,24.4001333396,16.2398099922,50.5512518207,0.0532,54.2763333333
14,ap-northeast-1,c4.xlarge,0.6267641215041978,76.4008000374,94.5073330669,371.9590242632,0.252,273.942,12.7334666729,15.7512221778,61.9931707105,0.084,45.657
15,ap-southeast-2,c4.xlarge,0.615964714879178,73.4008000374,92.7315205904,371.5098655745,0.261,325.658,12.2334666729,15.4552534317,61.9183109291,0.087,54.2763333333
16,ap-northeast-1,r4.xlarge,0.5645599478602437,65.800799942,91.73116637,426.7953011996,0.32,273.942,10.9667999903,15.2885277283,71.1325501999,0.1066666667,45.657
17,ap-southeast-2,r4.xlarge,0.5505069484070784,69.4009999752,92.2494758551,427.4615793371,0.3192,325.658,11.5668333292,15.3749126425,71.2435965562,0.1064,54.2763333333
18,ap-northeast-1,m3.medium,0.43904041198242705,353.8028000355,99.6071684102,207.9145903853,0.096,273.942,58.9671333392,16.601194735,34.6524317309,0.032,45.657
19,ap-southeast-2,m3.medium,0.43107581498831676,350.60260005,99.5708830688,208.0168403648,0.093,325.658,58.433766675,16.5951471781,34.6694733941,0.031,54.2763333333
