-1,ideal,,0.0,11.433466657,15.4510387496,33.6014096155,0.0053333333,43.4018333333,11.433466657,15.4510387496,33.6014096155,0.0053333333,43.4018333333
-1,antiIdeal,,0.0,62.5672333241,16.6169387252,71.302755955,0.1066666667,52.4838333333,62.5672333241,16.6169387252,71.302755955,0.1066666667,52.4838333333
0,ap-northeast-1,t2.medium,0.8232274428656907,92.8010000706,98.5400669179,267.7939855455,0.064,260.411,15.4668333451,16.4233444863,44.6323309242,0.0213333333,43.4018333333
1,ap-southeast-2,t2.medium,0.7864075701427137,91.0009999275,98.39913234,267.6136631786,0.064,314.903,15.1668333213,16.39985539,44.6022771964,0.0213333333,52.4838333333
2,ap-northeast-1,t2.large,0.7786026068743965,113.2007999897,98.8191281536,276.5864218098,0.128,260.411,18.8667999983,16.4698546923,46.0977369683,0.0426666667,43.4018333333
3,ap-southeast-2,t2.large,0.7750321554165472,88.600799942,98.3343893633,275.640706691,0.128,314.903,14.7667999903,16.3890648939,45.9401177818,0.0426666667,52.4838333333
4,ap-northeast-1,c4.large,0.7225544383364859,146.4009999752,98.4068823405,275.7353187336,0.126,260.411,24.4001666625,16.4011470568,45.9558864556,0.042,43.4018333333
5,ap-northeast-1,t2.small,0.72172960889117,183.8010000706,99.6451963703,204.2894765033,0.032,260.411,30.6335000118,16.6075327284,34.0482460839,0.0106666667,43.4018333333
6,ap-northeast-1,t2.micro,0.7149503473483234,187.6012001038,99.6948406448,201.6452335094,0.016,260.411,31.266866684,16.6158067741,33.6075389182,0.0053333333,43.4018333333
7,ap-northeast-1,m3.large,0.7104850194521602,150.600799942,98.873027832,278.0676394027,0.193,260.411,25.1001333237,16.478837972,46.3446065671,0.0643333333,43.4018333333
8,ap-southeast-2,t2.micro,0.6967092676503954,185.0007999897,99.6820189397,201.6084576932,0.016,314.903,30.833466665,16.6136698233,33.6014096155,0.0053333333,52.4838333333
9,ap-southeast-2,c4.large,0.6878928359211276,150.4009999752,98.4266782067,275.7120450788,0.13,314.903,25.0668333292,16.4044463678,45.9520075131,0.0433333333,52.4838333333
10,ap-northeast-1,c4.xlarge,0.6515251188678272,68.600799942,93.8186473712,371.0419273849,0.252,260.411,11.433466657,15.6364412285,61.8403212308,0.084,43.4018333333
11,ap-southeast-2,m3.large,0.6426217104496842,172.6009999752,98.8416116526,278.0131486497,0.186,314.903,28.7668333292,16.4736019421,46.3355247749,0.062,52.4838333333
12,ap-southeast-2,r4.large,0.6422030026937199,149.0009999275,97.5180613333,306.5760044373,0.1596,314.903,24.8334999879,16.2530102222,51.0960007396,0.0532,52.4838333333
13,ap-southeast-2,c4.xlarge,0.6340778126602105,72.0010000706,94.5226944283,371.1674863257,0.261,314.903,12.0001666784,15.7537824047,61.861247721,0.087,52.4838333333
14,ap-southeast-2,t2.small,0.6144322775533609,227.4007999897,99.7016323513,204.607683839,0.032,314.903,37.9001333316,16.6169387252,34.1012806398,0.0106666667,52.4838333333
15,ap-northeast-1,r4.large,0.6023774531350498,184.000799942,97.7370850694,304.3554264115,0.16,260.411,30.6667999903,16.2895141782,50.7259044019,0.0533333333,43.4018333333
16,ap-northeast-1,r4.xlarge,0.5786577587639733,71.400799942,92.7062324978,426.5333940244,0.32,260.411,11.9001333237,15.4510387496,71.0888990041,0.1066666667,43.4018333333
17,ap-southeast-2,r4.xlarge,0.5680990849331364,69.4014000893,93.777834004,427.8165357302,0.3192,314.903,11.5669000149,15.6296390007,71.302755955,0.1064,52.4838333333
18,ap-northeast-1,m3.medium,0.44745521577444,350.0032000065,99.6898202024,207.8774589463,0.096,260.411,58.3338666677,16.6149700337,34.6462431577,0.032,43.4018333333
19,ap-southeast-2,m3.medium,0.412959448231337,375.4033999443,99.5781749597,208.5089083719,0.093,314.903,62.5672333241,16.5963624933,34.7514847287,0.031,52.4838333333
