-1,ideal,,0.0,10.6668666681,15.2255596596,33.5178038446,0.0053333333,42.3278333333,10.6668666681,15.2255596596,33.5178038446,0.0053333333,42.3278333333
-1,antiIdeal,,0.0,58.4674666643,16.6320017494,71.3639689754,0.1066666667,52.6135,58.4674666643,16.6320017494,71.3639689754,0.1066666667,52.6135
0,ap-northeast-1,t2.medium,0.8122322700370929,91.6010000229,98.4642526414,267.1904979598,0.064,253.967,15.2668333371,16.4107087736,44.53174966,0.0213333333,42.3278333333
1,ap-northeast-1,t2.large,0.7761946512326385,103.8009999752,98.7008694862,276.3847170579,0.128,253.967,17.3001666625,16.4501449144,46.0641195097,0.0426666667,42.3278333333
2,ap-southeast-2,t2.medium,0.7650869717068216,89.0011999607,98.3958745038,267.5286775163,0.064,315.681,14.8335333268,16.3993124173,44.5881129194,0.0213333333,52.6135
3,ap-northeast-1,t2.small,0.7133869529127667,179.6011999607,99.7920104965,204.1972167221,0.032,253.967,29.9335333268,16.6320017494,34.0328694537,0.0106666667,42.3278333333
4,ap-southeast-2,t2.large,0.712585130648348,116.2009999752,98.7523702897,278.6041227746,0.128,315.681,19.3668333292,16.4587283816,46.4340204624,0.0426666667,52.6135
5,ap-northeast-1,t2.micro,0.7039835205142047,184.8009999275,99.7377496528,201.1068230677,0.016,253.967,30.8001666546,16.6229582755,33.5178038446,0.0053333333,42.3278333333
6,ap-northeast-1,m3.large,0.6938661035370308,148.600799942,98.6979017808,277.8458585377,0.193,253.967,24.7667999903,16.4496502968,46.3076430896,0.0643333333,42.3278333333
7,ap-southeast-2,t2.small,0.6735963015729572,184.0007999897,99.6161921085,204.4406995813,0.032,315.681,30.6667999983,16.6026986847,34.0734499302,0.0106666667,52.6135
8,ap-southeast-2,c4.large,0.6730823476677457,143.0009999752,98.2590916667,275.7510200889,0.13,315.681,23.8334999959,16.3765152778,45.9585033481,0.0433333333,52.6135
9,ap-northeast-1,c4.large,0.6730020411493388,160.0009999275,98.0096183831,276.418532036,0.126,253.967,26.6668333213,16.3349363972,46.0697553393,0.042,42.3278333333
10,ap-northeast-1,r4.large,0.6596427563541745,142.2009999275,96.9664948635,303.9006054486,0.16,253.967,23.7001666546,16.1610824772,50.6501009081,0.0533333333,42.3278333333
11,ap-southeast-2,m3.large,0.6560705043180212,149.2009999752,98.7701700486,279.4030003596,0.186,315.681,24.8668333292,16.4616950081,46.5671667266,0.062,52.6135
12,ap-southeast-2,t2.micro,0.6335357250295437,206.4012000084,99.6533821149,201.6000000065,0.016,315.681,34.4002000014,16.6088970191,33.6000000011,0.0053333333,52.6135
13,ap-northeast-1,c4.xlarge,0.6223488868100723,80.2009999752,93.9113273111,372.1765451513,0.252,253.967,13.3668333292,15.6518878852,62.0294241919,0.084,42.3278333333
14,ap-southeast-2,r4.large,0.6185915267605278,148.4012000561,97.35664964,303.6142271346,0.1596,315.681,24.7335333427,16.2261082733,50.6023711891,0.0532,52.6135
15,ap-southeast-2,c4.xlarge,0.6137573259279511,69.4010000229,92.9494883363,370.9223371522,0.261,315.681,11.5668333371,15.4915813894,61.8203895254,0.087,52.6135
16,ap-northeast-1,r4.xlarge,0.5573176861555982,71.6010000229,92.2209549033,428.1838138524,0.32,253.967,11.9335000038,15.3701591506,71.3639689754,0.1066666667,42.3278333333
17,ap-southeast-2,r4.xlarge,0.5502073532492571,64.0012000084,91.3533579575,427.405203203,0.3192,315.681,10.6668666681,15.2255596596,71.2342005338,0.1064,52.6135
18,ap-northeast-1,m3.medium,0.4437863371172524,350.8047999859,99.598116716,207.670833563,0.096,253.967,58.4674666643,16.5996861193,34.6118055938,0.032,42.3278333333
19,ap-southeast-2,m3.medium,0.42914036239901654,350.2006000519,99.677814226,207.942388801,0.093,315.681,58.3667666753,16.6129690377,34.6570648002,0.031,52.6135
