-1,ideal,,0.0,10.8667999983,15.2405242682,33.546796439,0.0053333333,43.1143333333,10.8667999983,15.2405242682,33.546796439,0.0053333333,43.1143333333
-1,antiIdeal,,0.0,58.0339333216,16.6244394186,71.3483850802,0.1066666667,74.724,58.0339333216,16.6244394186,71.3483850802,0.1066666667,74.724
0,ap-northeast-1,t2.large,0.822666660281912,85.2009999752,98.408607647,275.5636504556,0.128,258.686,14.2001666625,16.4014346078,45.9272750759,0.0426666667,43.1143333333
1,ap-northeast-1,t2.medium,0.8208960581082485,102.2008000374,98.6851486525,267.5971562697,0.064,258.686,17.0334666729,16.4475247754,44.5995260449,0.0213333333,43.1143333333
2,ap-northeast-1,c4.large,0.742315193724821,145.8006000519,98.4295265399,275.6271122608,0.126,258.686,24.3001000086,16.40492109,45.9378520435,0.042,43.1143333333
3,ap-northeast-1,m3.large,0.7357751676263463,148.0007999897,98.7857409396,277.5679305879,0.193,258.686,24.6667999983,16.4642901566,46.2613217647,0.0643333333,43.1143333333
4,ap-northeast-1,t2.small,0.7319604880328339,187.4009999752,99.7073247357,204.2487429473,0.032,258.686,31.2334999959,16.617887456,34.0414571579,0.0106666667,43.1143333333
5,ap-northeast-1,t2.micro,0.7309354409550083,188.6012001038,99.7466365113,201.2807786341,0.016,258.686,31.4335333506,16.6244394186,33.546796439,0.0053333333,43.1143333333
6,ap-northeast-1,r4.large,0.7168572735776544,133.800799942,97.2258560972,303.5717944575,0.16,258.686,22.3001333237,16.2043093495,50.5952990762,0.0533333333,43.1143333333
7,ap-northeast-1,c4.xlarge,0.6607802137887302,80.0012000561,94.4909685945,371.7292057531,0.252,258.686,13.3335333427,15.7484947658,61.9548676255,0.084,43.1143333333
8,ap-northeast-1,r4.xlarge,0.6003796321704417,65.2010000229,92.3536121714,428.0903104809,0.32,258.686,10.8668333371,15.3922686952,71.3483850802,0.1066666667,43.1143333333
9,ap-southeast-2,t2.large,0.5940755923504719,89.0012000084,98.3855397358,276.0021647241,0.128,448.344,14.8335333347,16.397589956,46.0003607874,0.0426666667,74.724
10,ap-southeast-2,t2.medium,0.584866163940623,106.8007999897,98.6800501643,268.2292422298,0.064,448.344,17.8001333316,16.4466750274,44.704873705,0.0213333333,74.724
11,ap-southeast-2,t2.micro,0.5572725138848804,182.2008000374,99.5981423928,201.7544818192,0.016,448.344,30.3668000062,16.5996903988,33.6257469699,0.0053333333,74.724
12,ap-southeast-2,t2.small,0.5572517551477731,180.4011999607,99.7067405224,204.5474428,0.032,448.344,30.0668666601,16.6177900871,34.0912404667,0.0106666667,74.724
13,ap-southeast-2,m3.large,0.5289963284345743,150.0011999607,98.6379993702,277.7540375199,0.186,448.344,25.0001999935,16.4396665617,46.2923395866,0.062,74.724
14,ap-southeast-2,c4.xlarge,0.5267700992603208,70.4008000374,93.2478904393,371.3314153754,0.261,448.344,11.7334666729,15.5413150732,61.8885692292,0.087,74.724
15,ap-southeast-2,c4.large,0.5220163434769669,157.0006000042,98.2909604527,276.0482893283,0.13,448.344,26.1667666674,16.3818267421,46.0080482214,0.0433333333,74.724
16,ap-northeast-1,m3.medium,0.5072966950766482,347.202200079,99.6960775995,207.9682335634,0.096,258.686,57.8670333465,16.6160129332,34.6613722606,0.032,43.1143333333
17,ap-southeast-2,r4.large,0.5045821981056008,148.6007999897,97.3836552167,303.4253986828,0.1596,448.344,24.7667999983,16.2306092028,50.5708997805,0.0532,74.724
18,ap-southeast-2,r4.xlarge,0.4902204296095116,65.2007999897,91.4431456095,426.482744888,0.3192,448.344,10.8667999983,15.2405242682,71.0804574813,0.1064,74.724
19,ap-southeast-2,m3.medium,0.3920266998720745,348.2035999298,99.6393631481,208.3089422359,0.093,448.344,58.0339333216,16.6065605247,34.7181570393,0.031,74.724
