-1,ideal,,0.0,10.0336000045,15.2893209782,33.5035901397,0.004,4.3131666667,10.0336000045,15.2893209782,33.5035901397,0.004,4.3131666667
-1,antiIdeal,,0.0,58.8001666625,16.6210566157,71.4320120155,0.1067,18.0883333333,58.8001666625,16.6210566157,71.4320120155,0.1067,18.0883333333
0,eu-central-1,t2.medium,0.8147045753338836,89.4013999462,98.3484876679,267.2925495701,0.054,25.879,14.9002333244,16.3914146113,44.5487582617,0.018,4.3131666667
1,eu-central-1,t2.large,0.7959996386028474,90.4012000084,98.5031451027,275.5331208501,0.108,25.879,15.0668666681,16.4171908505,45.9221868083,0.036,4.3131666667
2,us-east-1,t2.medium,0.7365990783154096,89.6009999275,98.2718341588,267.6101584635,0.047,108.53,14.9334999879,16.3786390265,44.6016930773,0.0156666667,18.0883333333
3,us-east-1,t2.large,0.7252326786946434,89.6010000229,98.3786080344,275.6111820918,0.094,108.53,14.9335000038,16.3964346724,45.9351970153,0.0313333333,18.0883333333
4,eu-central-1,t2.micro,0.6966189083528167,187.6009999752,99.7150930931,201.021540838,0.014,25.879,31.2668333292,16.6191821822,33.5035901397,0.0046666667,4.3131666667
5,eu-central-1,c4.large,0.6954631918742445,149.4007999897,98.3719335629,276.4098299682,0.114,25.879,24.9001333316,16.3953222605,46.0683049947,0.038,4.3131666667
6,eu-central-1,m3.large,0.6915647628800866,150.8006000042,98.7771606309,277.0750910148,0.158,25.879,25.133433334,16.4628601051,46.1791818358,0.0526666667,4.3131666667
7,us-east-1,t2.micro,0.6547918358226771,184.2012000084,99.6609487968,201.2204518592,0.012,108.53,30.7002000014,16.6101581328,33.5367419765,0.004,18.0883333333
8,eu-central-1,r4.large,0.6532103007255072,148.2007999897,97.7028126306,302.9710930658,0.16005,25.879,24.7001333316,16.2838021051,50.4951821776,0.05335,4.3131666667
9,us-east-1,t2.small,0.6499873033492701,185.6010000706,99.726339694,204.7630145902,0.023,108.53,30.9335000118,16.6210566157,34.1271690984,0.0076666667,18.0883333333
10,us-east-1,c4.large,0.6431156735776771,147.6010000229,98.4065114277,276.0064440166,0.1,108.53,24.6001666705,16.4010852379,46.0010740028,0.0333333333,18.0883333333
11,eu-central-1,t2.small,0.6427498961727747,213.6009999752,99.6951642687,204.522795665,0.027,25.879,35.6001666625,16.6158607114,34.0871326108,0.009,4.3131666667
12,eu-central-1,c4.xlarge,0.6400659815801715,69.6008000374,93.7395609837,369.9276703896,0.227,25.879,11.6001333396,15.6232601639,61.6546117316,0.0756666667,4.3131666667
13,us-east-1,m3.large,0.6365715783370673,150.0014000416,98.6887231788,277.7150226649,0.133,108.53,25.0002333403,16.4481205298,46.2858371108,0.0443333333,18.0883333333
14,us-east-1,r4.large,0.6061736225304019,146.6012001038,97.6249788936,302.6011201092,0.133,108.53,24.4335333506,16.2708298156,50.4335200182,0.0443333333,18.0883333333
15,us-east-1,c4.xlarge,0.604977953202336,69.600799942,93.5259444668,370.5088594208,0.199,108.53,11.6001333237,15.5876574111,61.7514765701,0.0663333333,18.0883333333
16,eu-central-1,r4.xlarge,0.5751985361078794,60.2016000271,91.7359258693,425.6577915096,0.3201,25.879,10.0336000045,15.2893209782,70.9429652516,0.1067,4.3131666667
17,us-east-1,r4.xlarge,0.5344984612251455,74.4010000706,92.9363331579,428.5920720932,0.266,108.53,12.4001666784,15.4893888596,71.4320120155,0.0886666667,18.0883333333
18,eu-central-1,m3.medium,0.44554936708309606,352.8009999752,99.7102263236,208.2978681125,0.079,25.879,58.8001666625,16.6183710539,34.7163113521,0.0263333333,4.3131666667
19,us-east-1,m3.medium,0.4210818967131344,351.203799963,99.618906052,208.4228506477,0.067,108.53,58.5339666605,16.6031510087,34.7371417746,0.0223333333,18.0883333333
