-1,ideal,,0.0,10.0001333396,15.2569377083,33.5507152872,0.004,4.4331666667,10.0001333396,15.2569377083,33.5507152872,0.004,4.4331666667
-1,antiIdeal,,0.0,58.633766667,16.6197813362,71.2188771174,0.1067,17.8355,58.633766667,16.6197813362,71.2188771174,0.1067,17.8355
0,eu-central-1,t2.medium,0.7949826583694953,102.2009999752,98.6799762715,267.8798384085,0.054,26.599,17.0334999959,16.4466627119,44.6466397348,0.018,4.4331666667
1,eu-central-1,t2.large,0.7585832546551846,113.4010000229,98.7790328218,277.3616995824,0.108,26.599,18.9001666705,16.463172137,46.2269499304,0.036,4.4331666667
2,us-east-1,t2.medium,0.7361931322265144,92.0010000229,98.4534745283,267.6543480014,0.047,107.013,15.3335000038,16.4089124214,44.6090580002,0.0156666667,17.8355
3,us-east-1,t2.large,0.7272035639657926,89.2010000706,98.2373915109,275.9120822516,0.094,107.013,14.8668333451,16.3728985851,45.9853470419,0.0313333333,17.8355
4,eu-central-1,t2.small,0.706825263147589,180.8013999939,99.7186880174,204.6731830766,0.027,26.599,30.1335666656,16.6197813362,34.1121971794,0.009,4.4331666667
5,eu-central-1,c4.large,0.693844572782857,149.8010000706,98.4751895276,275.8557127081,0.114,26.599,24.9668333451,16.4125315879,45.975952118,0.038,4.4331666667
6,eu-central-1,t2.micro,0.693277745400733,188.2011999607,99.7102008045,201.3164906802,0.014,26.599,31.3668666601,16.6183668008,33.5527484467,0.0046666667,4.4331666667
7,eu-central-1,m3.large,0.6890318371974069,150.6010001183,98.7918477693,277.8153844445,0.158,26.599,25.1001666864,16.4653079615,46.3025640741,0.0526666667,4.4331666667
8,us-east-1,t2.small,0.656301550349557,182.4009999752,99.6382852272,204.2014002408,0.023,107.013,30.4001666625,16.6063808712,34.0335667068,0.0076666667,17.8355
9,us-east-1,t2.micro,0.6473133871900019,188.601199913,99.6586577166,201.304291723,0.012,107.013,31.4335333188,16.6097762861,33.5507152872,0.004,17.8355
10,eu-central-1,r4.large,0.6366786649586228,155.2012000084,97.3949769699,304.007713997,0.16005,26.599,25.8668666681,16.2324961616,50.6679523328,0.05335,4.4331666667
11,eu-central-1,c4.xlarge,0.636530639620349,69.6012000561,93.7039040644,371.6033920464,0.227,26.599,11.6002000093,15.6173173441,61.9338986744,0.0756666667,4.4331666667
12,us-east-1,c4.large,0.6364883847544323,152.0010000229,98.407745098,275.7294254013,0.1,107.013,25.3335000038,16.4012908497,45.9549042336,0.0333333333,17.8355
13,us-east-1,c4.xlarge,0.6008685707079412,73.8006000042,93.4236709633,371.1560286026,0.199,107.013,12.3001000007,15.5706118272,61.8593381004,0.0663333333,17.8355
14,us-east-1,m3.large,0.5960138321109515,173.0008000374,98.8878492505,277.171173946,0.133,107.013,28.8334666729,16.4813082084,46.1951956577,0.0443333333,17.8355
15,us-east-1,r4.large,0.5831660618172816,159.2010000229,97.4175748447,303.5044618812,0.133,107.013,26.5335000038,16.2362624741,50.5840769802,0.0443333333,17.8355
16,eu-central-1,r4.xlarge,0.5725982496860793,60.0008000374,91.54162625,427.3132627041,0.3201,26.599,10.0001333396,15.2569377083,71.2188771174,0.1067,4.4331666667
17,us-east-1,r4.xlarge,0.5406388637649919,70.4007999897,92.96474241,426.3023531067,0.266,107.013,11.733466665,15.494123735,71.0503921845,0.0886666667,17.8355
18,eu-central-1,m3.medium,0.44373329058453015,351.8026000023,99.659551979,208.6995683278,0.079,26.599,58.633766667,16.6099253298,34.783261388,0.0263333333,4.4331666667
19,us-east-1,m3.medium,0.4196676750294086,351.4022000313,99.631937642,208.5693206313,0.067,107.013,58.5670333385,16.6053229403,34.7615534385,0.0223333333,17.8355
