-1,ideal,,0.0,22.7695384576,17.5500426545,38.7814263751,0.0006153846,50.0155769231,22.7695384576,17.5500426545,38.7814263751,0.0006153846,50.0155769231
-1,antiIdeal,,0.0,134.693846134,19.190317699,82.2395810548,0.0123076923,62.8236538462,134.693846134,19.190317699,82.2395810548,0.0123076923,62.8236538462
0,ap-northeast-1,t2.medium,0.8531673555195544,92.2010000229,98.5718964152,267.7379061299,0.064,260.081,35.4619230857,18.956133926,51.4880588711,0.0024615385,50.0155769231
1,ap-northeast-1,t2.large,0.8516101092037641,89.2007999897,98.4172066601,275.5496665846,0.128,260.081,34.307999996,18.9263858962,52.990320497,0.0049230769,50.0155769231
2,ap-southeast-2,t2.medium,0.826664886575375,91.0009999752,98.4559223921,268.0205901593,0.064,326.683,35.0003846058,18.9338312293,51.5424211845,0.0024615385,62.8236538462
3,ap-southeast-2,t2.large,0.8158837813080316,93.0010000229,98.3734169183,276.3912422933,0.128,326.683,35.7696153934,18.917964792,53.1521619795,0.0049230769,62.8236538462
4,ap-northeast-1,c4.xlarge,0.7708088239119862,67.8010000706,93.8217869991,370.7275960634,0.252,260.081,26.0773077195,18.042651346,71.2937684737,0.0096923077,50.0155769231
5,ap-southeast-2,c4.xlarge,0.756614359105053,68.2007999897,93.1561306637,370.4696350068,0.261,326.683,26.2310769191,17.9146405123,71.2441605782,0.0100384615,62.8236538462
6,ap-northeast-1,r4.xlarge,0.7225668112081415,59.2007999897,91.2602218033,426.6103262986,0.32,260.081,22.7695384576,17.5500426545,82.0404473651,0.0123076923,50.0155769231
7,ap-southeast-2,r4.xlarge,0.7058024417506527,67.0006000042,92.6361461807,427.6458214851,0.3192,326.683,25.7694615401,17.8146434963,82.2395810548,0.0122769231,62.8236538462
8,ap-northeast-1,c4.large,0.6898711368425128,149.4008000374,98.3344240265,276.0906177113,0.126,260.081,57.4618461682,18.9104661589,53.0943495599,0.0048461538,50.0155769231
9,ap-southeast-2,c4.large,0.6887946365003752,144.6009999275,98.4591633275,276.120534646,0.13,326.683,55.6157692029,18.9344544861,53.1001028165,0.005,62.8236538462
10,ap-southeast-2,r4.large,0.6654635245922343,147.0012000561,97.278600791,303.3448678003,0.1596,326.683,56.5389230985,18.707423229,58.3355515001,0.0061384615,62.8236538462
11,ap-northeast-1,r4.large,0.659185514495922,154.2010001183,97.5240114174,303.0352067613,0.16,260.081,59.3080769686,18.7546175803,58.2760013003,0.0061538462,50.0155769231
12,ap-northeast-1,m3.large,0.6219279079740844,172.2009999752,98.8511540365,277.2027329139,0.193,260.081,66.2311538366,19.0098373147,53.308217868,0.0074230769,50.0155769231
13,ap-northeast-1,t2.micro,0.6216693258990812,183.4009999275,99.7538457227,201.6634171503,0.016,260.081,70.538846126,19.1834318697,38.7814263751,0.0006153846,50.0155769231
14,ap-northeast-1,t2.small,0.6167671250032,184.8009999752,99.7833419585,204.5299245637,0.032,260.081,71.0773076828,19.1891042228,39.3326778007,0.0012307692,50.0155769231
15,ap-southeast-2,t2.micro,0.6124481049975805,182.6010000229,99.6642277814,201.8015573349,0.016,326.683,70.231153855,19.1661976503,38.8079917952,0.0006153846,62.8236538462
16,ap-southeast-2,t2.small,0.6097987734862069,183.2001999855,99.7896520347,204.7510294774,0.032,326.683,70.461615379,19.190317699,39.3751979764,0.0012307692,62.8236538462
17,ap-southeast-2,m3.large,0.6052416186522873,173.8007999897,98.7842421215,276.6608415611,0.186,326.683,66.8464615345,18.9969696388,53.2040079925,0.0071538462,62.8236538462
18,ap-northeast-1,m3.medium,0.2837825130996542,349.2051999569,99.6655835673,207.6660507354,0.096,260.081,134.3096922911,19.1664583783,39.9357789876,0.0036923077,50.0155769231
19,ap-southeast-2,m3.medium,0.2724299222711546,350.2039999485,99.6457465316,208.261876723,0.093,326.683,134.693846134,19.1626435638,40.0503609083,0.0035769231,62.8236538462
