-1,ideal,,0.0,25.0772307653,17.5852203095,38.707842045,0.0006153846,49.7473076923,25.0772307653,17.5852203095,38.707842045,0.0006153846,49.7473076923
-1,antiIdeal,,0.0,133.9244615115,19.1820454829,82.3250597079,0.0123076923,86.22,133.9244615115,19.1820454829,82.3250597079,0.0123076923,86.22
0,ap-northeast-1,t2.large,0.8725532312084457,85.2009999752,98.408607647,275.5636504556,0.128,258.686,32.7696153751,18.9247322398,52.993009703,0.0049230769,49.7473076923
1,ap-northeast-1,t2.medium,0.846912608192904,102.2008000374,98.6851486525,267.5971562697,0.064,258.686,39.3080000144,18.9779132024,51.4609915903,0.0024615385,49.7473076923
2,ap-northeast-1,c4.xlarge,0.7676817278649749,80.0012000561,94.4909685945,371.7292057531,0.252,258.686,30.7696923293,18.1713401143,71.4863857217,0.0096923077,49.7473076923
3,ap-northeast-1,r4.large,0.7391203137790621,133.800799942,97.2258560972,303.5717944575,0.16,258.686,51.4618461315,18.6972800187,58.3791912418,0.0061538462,49.7473076923
4,ap-northeast-1,c4.large,0.72667286788117,145.8006000519,98.4295265399,275.6271122608,0.126,258.686,56.0771538661,18.9287551038,53.0052138963,0.0048461538,49.7473076923
5,ap-northeast-1,r4.xlarge,0.7246742171306888,65.2010000229,92.3536121714,428.0903104809,0.32,258.686,25.0773077011,17.760310033,82.3250597079,0.0123076923,49.7473076923
6,ap-southeast-2,t2.large,0.7206278879985413,89.0012000084,98.3855397358,276.0021647241,0.128,448.344,34.2312307725,18.920296103,53.07733937,0.0049230769,86.22
7,ap-northeast-1,m3.large,0.7194417450098944,148.0007999897,98.7857409396,277.5679305879,0.193,258.686,56.9233846114,18.997257873,53.37844819,0.0074230769,49.7473076923
8,ap-southeast-2,t2.medium,0.7001807717207666,106.8007999897,98.6800501643,268.2292422298,0.064,448.344,41.0772307653,18.9769327239,51.5825465827,0.0024615385,86.22
9,ap-southeast-2,c4.xlarge,0.6865965123289888,70.4008000374,93.2478904393,371.3314153754,0.261,448.344,27.0772307836,17.9322866229,71.4098875722,0.0100384615,86.22
10,ap-southeast-2,r4.xlarge,0.6578417987258732,65.2007999897,91.4431456095,426.482744888,0.3192,448.344,25.0772307653,17.5852203095,82.0159124785,0.0122769231,86.22
11,ap-northeast-1,t2.small,0.6402922377672995,187.4009999752,99.7073247357,204.2487429473,0.032,258.686,72.0773076828,19.1744855261,39.278604413,0.0012307692,49.7473076923
12,ap-northeast-1,t2.micro,0.6379340833242912,188.6012001038,99.7466365113,201.2807786341,0.016,258.686,72.5389231168,19.1820454829,38.707842045,0.0006153846,49.7473076923
13,ap-southeast-2,m3.large,0.6146718930557947,150.0011999607,98.6379993702,277.7540375199,0.186,448.344,57.6927692157,18.9688460327,53.4142379846,0.0071538462,86.22
14,ap-southeast-2,r4.large,0.6054789310271211,148.6007999897,97.3836552167,303.4253986828,0.1596,448.344,57.1541538422,18.7276260032,58.3510382082,0.0061384615,86.22
15,ap-southeast-2,c4.large,0.59992359942106,157.0006000042,98.2909604527,276.0482893283,0.13,448.344,60.3848461555,18.9021077794,53.0862094862,0.005,86.22
16,ap-southeast-2,t2.small,0.5745853526466616,180.4011999607,99.7067405224,204.5474428,0.032,448.344,69.385076908,19.1743731774,39.3360466923,0.0012307692,86.22
17,ap-southeast-2,t2.micro,0.5714635214263868,182.2008000374,99.5981423928,201.7544818192,0.016,448.344,70.0772307836,19.1534889217,38.7989388114,0.0006153846,86.22
18,ap-northeast-1,m3.medium,0.33997403363992734,347.202200079,99.6960775995,207.9682335634,0.096,258.686,133.5393077227,19.1723226153,39.9938910699,0.0036923077,49.7473076923
19,ap-southeast-2,m3.medium,0.26907122256167637,348.2035999298,99.6393631481,208.3089422359,0.093,448.344,133.9244615115,19.16141599,40.0594119684,0.0035769231,86.22
