-1,,,0.0,187.2009999275,97.3897020224,304.0424623565,0.292,25.528,0.5046187247,0.2625235295,0.8195763894,0.0007871147,0.0688132372
0,ap-northeast-1,r4.large,0.8601854120514426,156.2010000229,97.5864882045,304.0424623565,0.16,242.895,0.3628054542,0.2266625064,0.7061943497,0.0003716293,0.5641681601
1,ap-northeast-1,m3.large,0.8514419474907499,169.2011999607,98.4861886672,277.9739242726,0.193,242.895,0.4049358,0.2356991771,0.6652529263,0.0004618916,0.5813013216
2,ap-northeast-1,c4.large,0.8477027563698877,162.800799942,98.1288490696,276.1067952434,0.126,242.895,0.3932726871,0.2370467232,0.6669823572,0.0003043742,0.5867536853
3,ap-northeast-1,r4.xlarge,0.8357177438602265,59.0009999752,91.9408119657,426.9292458138,0.32,242.895,0.1172537534,0.182715637,0.848444205,0.0006359418,0.4827096227
4,ap-northeast-1,c4.xlarge,0.829991068150404,70.0008000374,94.0518564561,370.3676227169,0.252,242.895,0.1527847984,0.2052789956,0.8083699405,0.000550019,0.5301462781
5,ap-northeast-1,t2.small,0.8066604437587299,229.0012001514,99.7894687533,204.0611356653,0.032,242.895,0.5671432709,0.2471381184,0.5053768271,0.000079251,0.6015525888
6,ap-northeast-1,m3.medium,0.804959815185758,351.4032000065,99.6981303607,208.2185702191,0.096,242.895,0.7236942052,0.2053224308,0.4288138887,0.0001977063,0.5002279546
7,ap-northeast-1,t2.large,0.8016637155797915,87.8009999275,98.3489401515,276.2932010925,0.128,242.895,0.2246751891,0.2516664587,0.707010481,0.000327541,0.6215473638
8,ap-northeast-1,t2.medium,0.7996435151904985,92.0012000084,98.5127228975,268.0333982657,0.064,242.895,0.2383347884,0.2552032905,0.6943570656,0.000165796,0.6292344929
9,ap-northeast-1,t2.micro,0.7953344558150254,187.2009999275,99.7355008282,201.3002845932,0.016,242.895,0.4924446857,0.2623608708,0.5295337921,0.0000420891,0.6389514585
10,ap-southeast-2,r4.xlarge,0.7914935725874256,66.8010000229,92.8052544859,426.8781726517,0.3192,315.162,0.1230683657,0.1709763475,0.7864433022,0.0005880664,0.5806271201
11,ap-southeast-2,r4.large,0.7848313344489966,146.8005999565,97.3897020224,303.8457813074,0.1596,315.162,0.3110876687,0.2063801876,0.6438848055,0.0003382111,0.6678651986
12,ap-southeast-2,c4.xlarge,0.769167272862424,68.6009999275,93.7798079089,370.827677501,0.261,315.162,0.1371085044,0.1874318045,0.7411499588,0.0005216443,0.6298944698
13,ap-southeast-2,m3.large,0.7691637586080228,153.2011999607,98.6689195239,276.8141651974,0.186,315.162,0.3349835713,0.215745484,0.6052707007,0.0004067001,0.6891205312
14,ap-southeast-2,c4.large,0.764664665946944,146.8010000706,98.2987598639,275.6853949776,0.13,315.162,0.3230160248,0.216293313,0.6066089492,0.0002860477,0.6934719543
15,ap-southeast-2,m3.medium,0.7538295073304829,351.0036000252,99.6043172773,208.7585213681,0.093,315.162,0.6680854933,0.1895826693,0.3973421917,0.0001770123,0.5998660988
16,ap-southeast-2,t2.large,0.7269884797567961,91.6007999897,98.3807157341,275.7553672363,0.128,315.162,0.2082710096,0.2236863761,0.6269797726,0.0002910312,0.7165778895
17,ap-southeast-2,t2.medium,0.720680747215973,91.8012000084,98.3536076945,268.1062316834,0.064,315.162,0.2109904522,0.2260501188,0.6161995165,0.0001470938,0.7243497132
18,ap-southeast-2,t2.small,0.7146974399237243,179.0006000042,99.6617323552,204.6184035275,0.032,315.162,0.4182423068,0.2328637605,0.4780993645,0.0000747693,0.7363890506
19,ap-southeast-2,t2.micro,0.7133997046842883,183.8011999607,99.7033620734,201.4374139811,0.016,315.162,0.4289228415,0.2326701315,0.470079129,0.000037338,0.7354695215
