-1,,,0.0,230.8012000561,95.2989992497,304.363865069,0.292,26.253,0.5849581207,0.2415322082,0.771400298,0.0007400645,0.066537373
0,ap-northeast-1,r4.large,0.8382121808939467,148.6009999752,97.4596237315,303.8921194787,0.16,249.047,0.3446015528,0.2260061351,0.7047173053,0.0003710355,0.5775330108
1,ap-northeast-1,m3.large,0.8268224245703285,149.4009999752,98.8291658543,278.0956696775,0.193,249.047,0.3608156618,0.2386805368,0.6716238385,0.0004661108,0.6014689201
2,ap-northeast-1,c4.large,0.8253037059195574,149.0009999275,98.626427919,275.7815486197,0.126,249.047,0.3613716244,0.2391983442,0.6688520631,0.0003055874,0.6040128522
3,ap-northeast-1,m3.medium,0.822035793511737,462.0021999836,99.6893362542,207.8317814788,0.096,249.047,0.8059509958,0.1739054918,0.3625572156,0.0001674695,0.4344561079
4,ap-northeast-1,r4.xlarge,0.8044512556707362,68.200399971,92.9637179929,427.2512333202,0.32,249.047,0.1343054148,0.1830712241,0.8413756244,0.0006301683,0.4904422943
5,ap-northeast-1,c4.xlarge,0.800207922491662,76.8006000042,95.2989992497,371.2433288695,0.252,249.047,0.1656993772,0.2056101753,0.8009675497,0.0005436968,0.5373256563
6,ap-northeast-1,t2.small,0.7970752670136056,184.6010000229,99.6968953573,204.8209328503,0.032,249.047,0.4798587599,0.2591558473,0.5324192113,0.000083182,0.6473821082
7,ap-northeast-1,t2.micro,0.7927656607214808,183.8009999752,99.7828698827,200.5695367788,0.016,249.047,0.4810424204,0.261150882,0.5249288929,0.0000418751,0.6518036991
8,ap-southeast-2,r4.large,0.783473023841927,174.4004000187,97.6158054108,304.363865069,0.1596,324.165,0.3577380656,0.2002339983,0.6243250607,0.0003273788,0.664942053
9,ap-southeast-2,m3.medium,0.7747200191908562,347.0016000748,99.599296024,207.8186995544,0.093,324.165,0.6574149832,0.1886967366,0.3937247749,0.000176194,0.6141496984
10,ap-northeast-1,t2.large,0.7725286867291642,88.4012000084,98.4671030377,275.4385096441,0.128,249.047,0.2242491374,0.2497835201,0.6987105173,0.0003247002,0.6317626335
11,ap-northeast-1,t2.medium,0.768787591211075,89.4010000229,98.3843074237,267.5472699577,0.064,249.047,0.2298553096,0.2529519294,0.6878800075,0.0001645478,0.6403147087
12,ap-southeast-2,c4.large,0.761559409201048,168.000799942,98.1780923077,276.0850050272,0.13,324.165,0.3588572187,0.2097127939,0.5897299123,0.0002776858,0.6924309309
13,ap-southeast-2,r4.xlarge,0.7503546260617872,64.6009999752,92.4509412358,427.0048450497,0.3192,324.165,0.1179178965,0.1687531234,0.7794231226,0.0005826441,0.5917068611
14,ap-southeast-2,m3.large,0.7498714346082179,150.2009999752,98.8809582433,277.0668366968,0.186,324.165,0.3245461598,0.213656602,0.5986709668,0.0004018987,0.700438119
15,ap-southeast-2,c4.xlarge,0.7388115777470428,75.6009999752,94.1158819502,371.1910757896,0.261,324.165,0.1490013666,0.1854921897,0.7315773279,0.0005144027,0.6388940359
16,ap-southeast-2,t2.small,0.7383083734475452,230.8012000561,99.6696020688,204.5411590782,0.032,324.165,0.5035017683,0.217433102,0.4462144705,0.0000698092,0.7071785184
17,ap-southeast-2,t2.large,0.7199179885573125,114.200799942,98.7737830803,276.2136349534,0.128,324.165,0.2527364285,0.2185950814,0.6112851016,0.0002832753,0.7174056958
18,ap-southeast-2,t2.micro,0.7102787552408479,185.8014000416,99.671422839,201.3931624748,0.016,324.165,0.4261469668,0.2286025537,0.4619076353,0.000036697,0.7434924144
19,ap-southeast-2,t2.medium,0.7017125634628801,101.8012000084,98.5460546795,267.3751935266,0.064,324.165,0.2295667329,0.2222262194,0.6029442642,0.0001443232,0.731008082
