-1,,,0.0,187.8009999275,94.3337673483,304.4578884245,0.292,49.265,0.5031972195,0.2527595138,0.8157696869,0.0007823898,0.1320014858
0,ap-northeast-1,r4.large,0.8804260679792918,144.0006000519,97.3751273942,303.2936718158,0.16,247.643,0.3361306707,0.2272960451,0.7079575036,0.000373477,0.578055978
1,ap-northeast-1,c4.large,0.8731647801500416,157.8008000374,98.2848558873,276.4473636425,0.126,247.643,0.3801477462,0.2367717175,0.6659715427,0.0003035385,0.596580805
2,ap-northeast-1,m3.large,0.8707656955481013,150.6009999752,98.8692705211,277.5891199554,0.193,247.643,0.3643634839,0.2392039353,0.6715980561,0.0004669435,0.5991465279
3,ap-northeast-1,c4.xlarge,0.8612317050656993,77.6012000084,94.3337673483,371.5699223764,0.252,247.643,0.1676274192,0.203771668,0.8026332988,0.0005443487,0.5349370496
4,ap-northeast-1,r4.xlarge,0.8594121588256339,60.4009999752,91.723519555,426.9040506931,0.32,247.643,0.1194629864,0.181413645,0.8443441802,0.000632906,0.4897960689
5,ap-northeast-1,t2.large,0.834424286567102,93.000799942,98.5599401544,275.4775730528,0.128,247.643,0.2357829227,0.249876891,0.6984123508,0.0003245156,0.627843958
6,ap-northeast-1,t2.medium,0.8285632592176457,91.8010000229,98.4556618174,267.4441689936,0.064,247.643,0.2362630352,0.2533897615,0.6883059129,0.0001647132,0.6373447655
7,ap-northeast-1,t2.small,0.828213272988144,187.8009999275,99.7606754183,203.9318240814,0.032,247.643,0.4879402405,0.2591958934,0.5298509769,0.0000831417,0.6434203493
8,ap-northeast-1,m3.medium,0.8281540328108163,357.2009999752,99.5975171124,208.4268716205,0.096,247.643,0.7256930213,0.2023432832,0.423442057,0.0001950345,0.5031139243
9,ap-northeast-1,t2.micro,0.8255712252169605,187.400799942,99.7391061147,201.3647550351,0.016,247.643,0.4888761019,0.2601913408,0.5253041425,0.0000417395,0.6460310978
10,ap-southeast-2,r4.large,0.8146741701680127,154.4004000187,97.5133371236,304.4578884245,0.1596,328.553,0.3191903374,0.2015883053,0.6294026188,0.0003299394,0.6792141918
11,ap-southeast-2,r4.xlarge,0.8116776485327595,63.0008000374,91.6726709336,426.7653622027,0.3192,328.553,0.1145565987,0.1666916828,0.7760026588,0.0005804127,0.5974196224
12,ap-southeast-2,m3.large,0.7998515592139553,162.2013999939,97.8972744449,276.8463265088,0.186,328.553,0.3454346461,0.2084883999,0.5895899346,0.0003961177,0.6997078279
13,ap-southeast-2,c4.xlarge,0.7937412039868271,68.600799942,93.6211530697,370.1310693465,0.261,328.553,0.1349491652,0.1841683546,0.7281092766,0.0005134303,0.6463183099
14,ap-southeast-2,c4.large,0.7906416474524399,145.4008000374,98.5678957413,275.9629841463,0.13,328.553,0.3136088361,0.2125969255,0.595212889,0.0002803915,0.70864207
15,ap-southeast-2,m3.medium,0.7781580475559435,352.8014000416,99.6055171227,208.2068145115,0.093,328.553,0.6600622157,0.1863536775,0.3895377152,0.0001739953,0.6146954664
16,ap-southeast-2,t2.large,0.751589440995947,86.8011999607,98.3048689394,276.5150946307,0.128,328.553,0.1933187688,0.2189390957,0.6158389246,0.0002850744,0.7317348316
17,ap-southeast-2,t2.medium,0.7491915562061031,92.4014000416,98.4758357068,267.9783299508,0.064,328.553,0.2076593406,0.2213107929,0.6022441571,0.0001438311,0.7383773329
18,ap-southeast-2,t2.small,0.7436812383663163,180.2009999752,99.6953525697,204.3860405097,0.032,328.553,0.4111090286,0.2274441294,0.4662845744,0.0000730045,0.7495580197
19,ap-southeast-2,t2.micro,0.7435354386377915,187.800799942,99.6089193606,201.1828620556,0.016,328.553,0.4268060062,0.2263764854,0.4572187866,0.0000363624,0.746686882
