-1,,,0.0,223.4005999565,97.1984383902,304.0351387664,0.292,26.671,0.5720625179,0.2488963029,0.7785435985,0.0007477252,0.0682965015
0,ap-northeast-1,m3.medium,0.8023179572915637,350.203799963,99.6532939938,208.4461300301,0.096,284.89,0.6905538288,0.1965026186,0.4110271596,0.0001892988,0.5617639795
1,ap-northeast-1,r4.large,0.798520125094933,137.0007999897,97.1984383902,304.0351387664,0.16,284.89,0.3049613576,0.2163620046,0.6767768412,0.0003561572,0.634160101
2,ap-northeast-1,m3.large,0.7972097688053964,157.2010000229,98.3757958791,277.1736859315,0.193,284.89,0.3584083393,0.2242905937,0.6319384766,0.0004400278,0.6495311848
3,ap-northeast-1,c4.large,0.7882817441279191,145.4012000084,98.4817219924,275.7387566018,0.126,284.89,0.3353122316,0.2271104088,0.6358859337,0.0002905708,0.656989775
4,ap-northeast-1,r4.xlarge,0.7814461649695269,62.0010000229,91.9787517137,427.9041754118,0.32,284.89,0.1178955055,0.1748984923,0.8136639576,0.0006084831,0.54172111
5,ap-northeast-1,t2.micro,0.7767930168283955,237.8010000229,99.763786829,201.1335978453,0.016,284.89,0.5482733733,0.23001513,0.4637331053,0.0000368896,0.6568416504
6,ap-northeast-1,c4.xlarge,0.7746440053658795,73.8007999897,93.7148204324,371.5815650805,0.252,284.89,0.1527393246,0.1939537022,0.7690311935,0.0005215433,0.5896129337
7,ap-southeast-2,r4.large,0.7683729087590625,155.8008000374,97.523209693,303.2830001168,0.1596,329.65,0.3217799809,0.2014175572,0.6263793124,0.0003296266,0.6808358538
8,ap-southeast-2,m3.medium,0.76733011687792,348.4032000065,99.5826442854,207.6371590748,0.093,329.65,0.6548240421,0.187165645,0.3902541762,0.0001747936,0.6195773904
9,ap-southeast-2,m3.large,0.7613720261208818,171.4006000519,98.7156751983,276.9203472553,0.186,329.65,0.3617648994,0.2083532163,0.5844790597,0.000392579,0.6957723546
10,ap-northeast-1,t2.small,0.7577262025764623,186.8011999607,99.6460172087,204.6594797009,0.032,284.89,0.4559222064,0.2432041766,0.4995085768,0.0000781018,0.695325712
11,ap-southeast-2,r4.xlarge,0.7522950333424838,64.0012000084,91.6186414481,427.3538919176,0.3192,329.65,0.1161183559,0.1662251022,0.7753547011,0.0005791294,0.5980890359
12,ap-southeast-2,c4.large,0.7438445091020329,146.6007999897,98.318271401,275.9479639404,0.13,329.65,0.3154531767,0.2115596303,0.5937802648,0.0002797318,0.7093354178
13,ap-northeast-1,t2.medium,0.7365503111879306,91.2014000416,98.4566087892,267.3109344344,0.064,284.89,0.2207879017,0.2383519118,0.6471284463,0.0001549365,0.689685304
14,ap-southeast-2,c4.xlarge,0.7348694459231532,70.0007999897,93.3159071887,371.1138800158,0.261,329.65,0.1372821578,0.1830066099,0.7278104571,0.0005118605,0.6464935161
15,ap-northeast-1,t2.large,0.7315704357918315,80.4007999897,98.2944598853,275.6518658673,0.128,284.89,0.1931504451,0.2361371862,0.6622108311,0.0003075001,0.6844040148
16,ap-southeast-2,t2.micro,0.7313631270299593,236.0013999462,99.698458107,201.1393882405,0.016,329.65,0.5092549193,0.2151340214,0.4340280309,0.0000345256,0.7113342725
17,ap-southeast-2,t2.small,0.7287205595389915,223.4005999565,99.7765332702,204.1973692803,0.032,329.65,0.4872346358,0.2176116933,0.4453525679,0.0000697917,0.7189635916
18,ap-southeast-2,t2.large,0.7004007545140987,94.6010000706,98.4360172787,275.8148275075,0.128,329.65,0.209768135,0.2182718972,0.6115914411,0.000283827,0.7309654828
19,ap-southeast-2,t2.medium,0.6898516084664893,90.4007999897,98.4289268224,267.6189630413,0.064,329.65,0.2030839865,0.2211190482,0.6012018245,0.000143775,0.7405535811
