-1,ideal,,0.0,16.4501999855,22.9327915925,14.3588599134,0.0028571429,68.4855,16.4501999855,22.9327915925,14.3588599134,0.0028571429,68.4855
-1,antiIdeal,,0.0,88.4507000089,24.9432730623,30.5329699527,0.0571428571,81.4145,88.4507000089,24.9432730623,30.5329699527,0.0571428571,81.4145
0,ap-northeast-1,t2.large,0.8900363344410589,90.8010000706,98.4283996894,275.7242220491,0.128,273.942,22.7002500176,24.6070999224,19.6945872892,0.0228571429,68.4855
1,ap-northeast-1,t2.medium,0.8878008853514577,93.2009999752,98.458250815,267.8560981538,0.064,273.942,23.3002499938,24.6145627038,19.1325784396,0.0114285714,68.4855
2,ap-northeast-1,c4.xlarge,0.8495682258043024,76.4008000374,94.5073330669,371.9590242632,0.252,273.942,19.1002000093,23.6268332667,26.5685017331,0.045,68.4855
3,ap-northeast-1,r4.xlarge,0.8194237155575932,65.800799942,91.73116637,426.7953011996,0.32,273.942,16.4501999855,22.9327915925,30.4853786571,0.0571428571,68.4855
4,ap-southeast-2,t2.medium,0.8126806571776899,91.8007999897,98.4198856112,267.6664368178,0.064,325.658,22.9501999974,24.6049714028,19.1190312013,0.0114285714,81.4145
5,ap-southeast-2,t2.large,0.8117915482702079,91.000799942,98.4421922746,275.9681426232,0.128,325.658,22.7501999855,24.6105480686,19.7120101874,0.0228571429,81.4145
6,ap-southeast-2,c4.xlarge,0.7972303362303819,73.4008000374,92.7315205904,371.5098655745,0.261,325.658,18.3502000093,23.1828801476,26.5364189696,0.0466071429,81.4145
7,ap-southeast-2,r4.xlarge,0.7743479346945109,69.4009999752,92.2494758551,427.4615793371,0.3192,325.658,17.3502499938,23.0623689638,30.5329699527,0.057,81.4145
8,ap-northeast-1,r4.large,0.7265665733897548,143.0009999752,97.4778306472,303.5343026759,0.16,273.942,35.7502499938,24.3694576618,21.6810216197,0.0285714286,68.4855
9,ap-northeast-1,c4.large,0.7201652466861478,147.2007999897,98.4600956557,276.0927601628,0.126,273.942,36.8001999974,24.6150239139,19.7209114402,0.0225,68.4855
10,ap-northeast-1,m3.large,0.7127929521562819,149.4009999275,98.7336194349,277.5086619171,0.193,273.942,37.3502499819,24.6834048587,19.8220472798,0.0344642857,68.4855
11,ap-southeast-2,c4.large,0.6851911708804838,145.6007999897,98.4062368994,276.0041478597,0.13,325.658,36.4001999974,24.6015592248,19.71458199,0.0232142857,81.4145
12,ap-southeast-2,r4.large,0.677236056637506,146.4008000374,97.4388599534,303.3075109243,0.1596,325.658,36.6002000093,24.3597149884,21.6648222089,0.0285,81.4145
13,ap-southeast-2,m3.large,0.6706981166752264,150.6010000706,98.7758866678,277.7120512089,0.186,325.658,37.6502500176,24.693971667,19.8365750864,0.0332142857,81.4145
14,ap-northeast-1,t2.micro,0.6002242930298735,188.6012000084,99.773092249,201.3661428124,0.016,273.942,47.1503000021,24.9432730623,14.3832959152,0.0028571429,68.4855
15,ap-southeast-2,t2.small,0.5909089365161674,181.6009999752,99.6735367256,205.0191695973,0.032,325.658,45.4002499938,24.9183841814,14.6442263998,0.0057142857,81.4145
16,ap-southeast-2,t2.micro,0.5718492881996613,188.2012000084,99.6678721471,201.0240387874,0.016,325.658,47.0503000021,24.9169680368,14.3588599134,0.0028571429,81.4145
17,ap-northeast-1,t2.small,0.5124712929719868,217.200799942,99.7295211619,204.3282116488,0.032,273.942,54.3001999855,24.9323802905,14.5948722606,0.0057142857,68.4855
18,ap-northeast-1,m3.medium,0.22007261457021612,353.8028000355,99.6071684102,207.9145903853,0.096,273.942,88.4507000089,24.9017921026,14.8510421704,0.0171428571,68.4855
19,ap-southeast-2,m3.medium,0.17817550658420842,350.60260005,99.5708830688,208.0168403648,0.093,325.658,87.6506500125,24.8927207672,14.8583457403,0.0166071429,81.4145
