-1,ideal,,0.0,15.6002000093,22.7708090526,14.3441853159,0.0028571429,70.4365,15.6002000093,22.7708090526,14.3441853159,0.0028571429,70.4365
-1,antiIdeal,,0.0,90.6004500031,24.9339966655,30.5328230697,0.0571428571,83.08075,90.6004500031,24.9339966655,30.5328230697,0.0571428571,83.08075
0,ap-northeast-1,t2.medium,0.8833725068670942,93.0008000851,98.475670737,266.8006500892,0.064,281.746,23.2502000213,24.6189176843,19.0571892921,0.0114285714,70.4365
1,ap-northeast-1,t2.large,0.8780092205796824,93.4009999275,98.489269314,276.405088467,0.128,281.746,23.3502499819,24.6223173285,19.7432206048,0.0228571429,70.4365
2,ap-northeast-1,c4.xlarge,0.857633870337387,71.2009999752,92.4720044844,370.0037752308,0.252,281.746,17.8002499938,23.1180011211,26.4288410879,0.045,70.4365
3,ap-northeast-1,r4.xlarge,0.8229934075146976,65.400399971,91.0832362106,427.4595229754,0.32,281.746,16.3500999928,22.7708090526,30.5328230697,0.0571428571,70.4365
4,ap-southeast-2,t2.large,0.8209747829388715,87.4009999752,98.2961334017,275.1637017013,0.128,332.323,21.8502499938,24.5740333504,19.6545501215,0.0228571429,83.08075
5,ap-southeast-2,t2.medium,0.8203974592526408,89.0010000229,98.36616,267.5819042133,0.064,332.323,22.2502500057,24.59154,19.1129931581,0.0114285714,83.08075
6,ap-southeast-2,c4.xlarge,0.8070858314522135,68.4011999607,93.1457430718,370.7594218698,0.261,332.323,17.1002999902,23.286435768,26.4828158478,0.0466071429,83.08075
7,ap-southeast-2,r4.xlarge,0.7854237430277234,62.4008000374,91.6479016529,426.6670493886,0.3192,332.323,15.6002000093,22.9119754132,30.4762178135,0.057,83.08075
8,ap-northeast-1,r4.large,0.74739145579463,135.8005999565,96.953621706,304.5162380781,0.16,281.746,33.9501499891,24.2384054265,21.7511598627,0.0285714286,70.4365
9,ap-northeast-1,c4.large,0.7313919695842924,143.4006000042,98.3234780268,275.4842895497,0.126,281.746,35.850150001,24.5808695067,19.6774492536,0.0225,70.4365
10,ap-northeast-1,m3.large,0.7107416123556433,150.0008000374,98.8292543046,276.6851526358,0.193,281.746,37.5002000093,24.7073135762,19.7632251883,0.0344642857,70.4365
11,ap-southeast-2,r4.large,0.6857230261008351,144.6008000851,97.3738704442,304.1564714779,0.1596,332.323,36.1502000213,24.3434676111,21.7254622484,0.0285,83.08075
12,ap-southeast-2,c4.large,0.68418356223432,147.2009999752,98.3532098206,276.2081735278,0.13,332.323,36.8002499938,24.5883024551,19.729155252,0.0232142857,83.08075
13,ap-southeast-2,m3.large,0.6789434608928426,149.0010000229,98.6744242245,277.4312186577,0.186,332.323,37.2502500057,24.6686060561,19.8165156184,0.0332142857,83.08075
14,ap-northeast-1,t2.small,0.6111277171534503,185.8009999275,99.7359866621,204.7159016046,0.032,281.746,46.4502499819,24.9339966655,14.6225644003,0.0057142857,70.4365
15,ap-northeast-1,t2.micro,0.6019348659112292,189.0009999752,99.7130463266,200.818594423,0.016,281.746,47.2502499938,24.9282615817,14.3441853159,0.0028571429,70.4365
16,ap-southeast-2,t2.small,0.5910868067756634,183.4005999565,99.7192349769,204.6130022959,0.032,332.323,45.8501499891,24.9298087442,14.6152144497,0.0057142857,83.08075
17,ap-southeast-2,t2.micro,0.5822515337191221,186.6009999752,99.6585074057,201.3702823115,0.016,332.323,46.6502499938,24.9146268514,14.3835915937,0.0028571429,83.08075
18,ap-northeast-1,m3.medium,0.22104926720958315,349.4057999611,99.6669617221,208.5267859994,0.096,281.746,87.3514499903,24.9167404305,14.8947704285,0.0171428571,70.4365
19,ap-southeast-2,m3.medium,0.17049842537239532,362.4018000126,99.6596736955,208.5010866276,0.093,332.323,90.6004500031,24.9149184239,14.8929347591,0.0166071429,83.08075
