-1,ideal,,0.0,17.5503000021,22.751738251,14.3950464704,0.0028571429,68.4405,17.5503000021,22.751738251,14.3950464704,0.0028571429,68.4405
-1,antiIdeal,,0.0,103.2005999923,24.9399651701,30.5934072796,0.0571428571,80.21725,103.2005999923,24.9399651701,30.5934072796,0.0571428571,80.21725
0,ap-northeast-1,t2.large,0.9239621240739492,86.0009999752,98.4523312664,275.4614082519,0.128,273.762,21.5002499938,24.6130828166,19.6758148751,0.0228571429,68.4405
1,ap-northeast-1,t2.medium,0.9112988903623678,94.4006000042,98.535732574,267.8583527666,0.064,273.762,23.600150001,24.6339331435,19.1327394833,0.0114285714,68.4405
2,ap-northeast-1,c4.xlarge,0.8773550077619343,70.2012000084,93.5314843081,370.7171079681,0.252,273.762,17.5503000021,23.382871077,26.4797934263,0.045,68.4405
3,ap-southeast-2,t2.medium,0.8573698917412098,88.600799942,98.3595614981,267.5307173042,0.064,320.869,22.1501999855,24.5898903745,19.1093369503,0.0114285714,80.21725
4,ap-southeast-2,t2.large,0.8522954485228397,91.0009999752,98.3554955973,276.6698775435,0.128,320.869,22.7502499938,24.5888738993,19.7621341102,0.0228571429,80.21725
5,ap-northeast-1,r4.xlarge,0.8405586820570983,74.0004000664,91.0069530039,428.3077019142,0.32,273.762,18.5001000166,22.751738251,30.5934072796,0.0571428571,68.4405
6,ap-southeast-2,c4.xlarge,0.8315737394674326,76.8006000996,94.2927251565,371.9095553654,0.261,320.869,19.2001500249,23.5731812891,26.5649682404,0.0466071429,80.21725
7,ap-southeast-2,r4.xlarge,0.8102885298540745,71.000399971,93.4025701868,427.8376837423,0.3192,320.869,17.7500999928,23.3506425467,30.559834553,0.057,80.21725
8,ap-northeast-1,c4.large,0.7681902944962808,149.0007999897,98.468352,275.5724520107,0.126,273.762,37.2501999974,24.617088,19.6837465722,0.0225,68.4405
9,ap-northeast-1,m3.large,0.7649451079634283,150.000799942,98.8206384106,277.9093032689,0.193,273.762,37.5001999855,24.7051596026,19.8506645192,0.0344642857,68.4405
10,ap-northeast-1,r4.large,0.7645555372182329,148.2010000229,97.5219178881,303.2793834993,0.16,273.762,37.0502500057,24.380479472,21.6628131071,0.0285714286,68.4405
11,ap-southeast-2,c4.large,0.7440817641359951,146.8006000042,98.3598636974,276.0675037688,0.13,320.869,36.700150001,24.5899659243,19.7191074121,0.0232142857,80.21725
12,ap-southeast-2,m3.large,0.7357387211866896,150.2006000042,98.7798590711,276.5667268038,0.186,320.869,37.550150001,24.6949647678,19.7547662003,0.0332142857,80.21725
13,ap-southeast-2,r4.large,0.7270496458782583,151.8012000084,97.2809341447,304.2897658958,0.1596,320.869,37.9503000021,24.3202335362,21.7349832783,0.0285,80.21725
14,ap-northeast-1,t2.small,0.6802477020135353,183.8010000229,99.6929396711,204.4587315951,0.032,273.762,45.9502500057,24.9232349178,14.6041951139,0.0057142857,68.4405
15,ap-northeast-1,t2.micro,0.6798966492099476,184.000799942,99.7402119651,201.5306505858,0.016,273.762,46.0001999855,24.9350529913,14.3950464704,0.0028571429,68.4405
16,ap-southeast-2,t2.micro,0.6467671458761652,188.4006000996,99.7409819879,202.0830043927,0.016,320.869,47.1001500249,24.935245497,14.4345003138,0.0028571429,80.21725
17,ap-southeast-2,t2.small,0.5857372720370203,211.6008000374,99.7598606805,204.7307544458,0.032,320.869,52.9002000093,24.9399651701,14.6236253176,0.0057142857,80.21725
18,ap-northeast-1,m3.medium,0.2622535932335134,351.0048000813,99.7412007979,208.7223093333,0.096,273.762,87.7512000203,24.9353001995,14.908736381,0.0171428571,68.4405
19,ap-southeast-2,m3.medium,0.15359427418321714,412.8023999691,99.6483801196,208.5919680227,0.093,320.869,103.2005999923,24.9120950299,14.8994262873,0.0166071429,80.21725
