-1,ideal,,0.0,17.1501999855,23.331850559,14.3326229614,0.0028571429,66.0425,17.1501999855,23.331850559,14.3326229614,0.0028571429,66.0425
-1,antiIdeal,,0.0,87.4505999923,24.9440296871,30.5305187464,0.0571428571,78.80375,87.4505999923,24.9440296871,30.5305187464,0.0571428571,78.80375
0,ap-northeast-1,t2.large,0.9014096583370194,88.2010000706,98.4465128021,275.8783293008,0.128,264.17,22.0502500176,24.6116282005,19.7055949501,0.0228571429,66.0425
1,ap-northeast-1,c4.xlarge,0.8549127682601251,69.4009999275,93.8654418109,370.2280183759,0.252,264.17,17.3502499819,23.4663604527,26.4448584554,0.045,66.0425
2,ap-northeast-1,t2.medium,0.832427438795651,113.8012001038,98.7435367143,268.3429424451,0.064,264.17,28.4503000259,24.6858841786,19.1673530318,0.0114285714,66.0425
3,ap-southeast-2,t2.medium,0.8198874496196535,88.6009999752,98.3817365657,267.2949324541,0.064,315.215,22.1502499938,24.5954341414,19.0924951753,0.0114285714,78.80375
4,ap-southeast-2,t2.large,0.8115047956482663,92.4009999752,98.4155825212,277.0545676885,0.128,315.215,23.1002499938,24.6038956303,19.7896119777,0.0228571429,78.80375
5,ap-southeast-2,c4.xlarge,0.7997055192354385,68.600799942,93.327402236,371.1736433,0.261,315.215,17.1501999855,23.331850559,26.5124030929,0.0466071429,78.80375
6,ap-northeast-1,r4.xlarge,0.798252399821612,87.800799942,94.5236764896,427.0183236726,0.32,264.17,21.9501999855,23.6309191224,30.5013088338,0.0571428571,66.0425
7,ap-southeast-2,r4.xlarge,0.7731132853794037,68.8011999607,93.7154167554,427.427262449,0.3192,315.215,17.2002999902,23.4288541888,30.5305187464,0.057,78.80375
8,ap-southeast-2,r4.large,0.7405408908420732,123.2009999752,97.044202427,303.1918217105,0.1596,315.215,30.8002499938,24.2610506067,21.6565586936,0.0285,78.80375
9,ap-northeast-1,c4.large,0.7278684697404678,145.8010000229,98.4326979871,275.6211708278,0.126,264.17,36.4502500057,24.6081744968,19.6872264877,0.0225,66.0425
10,ap-northeast-1,r4.large,0.7205853449368169,145.8009999752,97.3286267878,303.463737423,0.16,264.17,36.4502499938,24.3321566969,21.6759812445,0.0285714286,66.0425
11,ap-southeast-2,m3.large,0.6743613028245325,150.0007999897,98.7053417219,277.1832750623,0.186,315.215,37.5001999974,24.6763354305,19.7988053616,0.0332142857,78.80375
12,ap-northeast-1,m3.large,0.6396859854178473,172.8006000042,98.9345744293,276.4105382103,0.193,264.17,43.200150001,24.7336436073,19.7436098722,0.0344642857,66.0425
13,ap-northeast-1,t2.micro,0.612538626417083,185.0012000084,99.6696595664,200.6567214592,0.016,264.17,46.2503000021,24.9174148916,14.3326229614,0.0028571429,66.0425
14,ap-northeast-1,t2.small,0.612103055431132,185.0011999607,99.7761187486,203.8905472165,0.032,264.17,46.2502999902,24.9440296871,14.5636105155,0.0057142857,66.0425
15,ap-southeast-2,c4.large,0.6115435891972958,171.2012000084,98.0895158623,276.3812741489,0.13,315.215,42.8003000021,24.5223789656,19.7415195821,0.0232142857,78.80375
16,ap-southeast-2,t2.small,0.6000416570893418,178.8010000229,99.6098123477,204.7264646899,0.032,315.215,44.7002500057,24.9024530869,14.6233189064,0.0057142857,78.80375
17,ap-southeast-2,t2.micro,0.5762968212992665,186.8009999752,99.6689856521,201.3588969455,0.016,315.215,46.7002499938,24.917246413,14.3827783533,0.0028571429,78.80375
18,ap-northeast-1,m3.medium,0.22543980430396593,346.2026000023,99.5929823003,208.4780336039,0.096,264.17,86.5506500006,24.8982455751,14.8912881146,0.0171428571,66.0425
19,ap-southeast-2,m3.medium,0.17955710430744637,349.8023999691,99.6140831503,208.4518863906,0.093,315.215,87.4505999923,24.9035207876,14.8894204565,0.0166071429,78.80375
