-1,ideal,,0.0,15.6002499819,22.9148117912,14.3564098965,0.0021428571,6.266,15.6002499819,22.9148117912,14.3564098965,0.0021428571,6.266
-1,antiIdeal,,0.0,114.3014000177,24.9399903105,30.5854226993,0.0571607143,26.75425,114.3014000177,24.9399903105,30.5854226993,0.0571607143,26.75425
0,eu-central-1,t2.medium,0.9118813336259979,92.6010000229,98.4955313336,267.8509563147,0.054,25.064,23.1502500057,24.6238828334,19.1322111653,0.0096428571,6.266
1,eu-central-1,t2.large,0.9005343200467287,96.8012001038,98.5971591626,275.9061182559,0.108,25.064,24.2003000259,24.6492897907,19.7075798754,0.0192857143,6.266
2,eu-central-1,c4.xlarge,0.8837469123835657,77.2009999275,95.2833990263,372.0113899477,0.227,25.064,19.3002499819,23.8208497566,26.5722421391,0.0405357143,6.266
3,eu-central-1,r4.xlarge,0.8585827732106782,69.8009999752,91.7616781377,427.8364637455,0.3201,25.064,17.4502499938,22.9404195344,30.5597474104,0.0571607143,6.266
4,us-east-1,t2.large,0.8035596639372884,91.8009999752,98.4302636861,276.4902627141,0.094,107.017,22.9502499938,24.6075659215,19.7493044796,0.0167857143,26.75425
5,us-east-1,t2.medium,0.8034349809377223,93.0012000084,98.2823576248,268.1664350128,0.047,107.017,23.2503000021,24.5705894062,19.1547453581,0.0083928571,26.75425
6,us-east-1,c4.xlarge,0.8009397525882751,72.4010000706,92.7221271381,370.6127315643,0.199,107.017,18.1002500176,23.1805317845,26.4723379689,0.0355357143,26.75425
7,us-east-1,r4.xlarge,0.7906667138129817,62.4009999275,91.6592471646,428.1959177897,0.266,107.017,15.6002499819,22.9148117912,30.5854226993,0.0475,26.75425
8,eu-central-1,r4.large,0.7786728022673721,148.6007999897,97.5706265145,304.3991439108,0.16005,25.064,37.1501999974,24.3926566286,21.7427959936,0.0285803571,6.266
9,eu-central-1,c4.large,0.7723236432376948,153.4010000706,98.3752693341,274.8615571252,0.114,25.064,38.3502500176,24.5938173335,19.6329683661,0.0203571429,6.266
10,eu-central-1,m3.large,0.7503697769004234,162.6012001038,98.2323084561,277.0476395647,0.158,25.064,40.6503000259,24.558077114,19.7891171118,0.0282142857,6.266
11,us-east-1,c4.large,0.723181815515132,147.0009999752,98.4830189189,275.8137081081,0.1,107.017,36.7502499938,24.6207547297,19.7009791506,0.0178571429,26.75425
12,us-east-1,m3.large,0.7174558804234017,150.0009999275,98.862707517,277.7653563668,0.133,107.017,37.5002499819,24.7156768793,19.8403825976,0.02375,26.75425
13,eu-central-1,t2.small,0.7080952987078228,183.0012001038,99.759961242,204.8070089932,0.027,25.064,45.7503000259,24.9399903105,14.6290720709,0.0048214286,6.266
14,eu-central-1,t2.micro,0.7073088401454268,183.4010000229,99.7248182105,201.4935675463,0.014,25.064,45.8502500057,24.9312045526,14.3923976819,0.0025,6.266
15,us-east-1,r4.large,0.6995854101158125,158.0008000374,97.4836981132,303.2933794616,0.133,107.017,39.5002000093,24.3709245283,21.6638128187,0.02375,26.75425
16,us-east-1,t2.small,0.651063701422295,186.6006000519,99.7118729261,204.4488827105,0.023,107.017,46.650150013,24.9279682315,14.6034916222,0.0041071429,26.75425
17,us-east-1,t2.micro,0.643380474922409,190.4008000374,99.7310423946,200.9897385516,0.012,107.017,47.6002000093,24.9327605986,14.3564098965,0.0021428571,26.75425
18,us-east-1,m3.medium,0.29323049496044445,350.2029998779,99.6410781647,207.5076981606,0.067,107.017,87.5507499695,24.9102695412,14.82197844,0.0119642857,26.75425
19,eu-central-1,m3.medium,0.20702500418818792,457.205600071,99.4240411911,209.2813964478,0.079,25.064,114.3014000177,24.8560102978,14.9486711748,0.0141071429,6.266
