-1,ideal,,0.0,15.4502000213,22.8849893339,14.36512288,0.0028571429,64.69975,15.4502000213,22.8849893339,14.36512288,0.0028571429,64.69975
-1,antiIdeal,,0.0,87.9501999855,24.9423212897,30.4877897986,0.0571428571,86.32775,87.9501999855,24.9423212897,30.4877897986,0.0571428571,86.32775
0,ap-northeast-1,t2.medium,0.8846670803314389,91.800799942,98.4076059607,267.8918451822,0.064,258.799,22.9501999855,24.6019014902,19.1351317987,0.0114285714,64.69975
1,ap-northeast-1,t2.large,0.8740166975842187,94.2010000229,98.4699867595,277.3411045779,0.128,258.799,23.5502500057,24.6174966899,19.8100788984,0.0228571429,64.69975
2,ap-northeast-1,c4.xlarge,0.858456535129445,68.0009999752,93.6947413263,371.064397393,0.252,258.799,17.0002499938,23.4236853316,26.5045998138,0.045,64.69975
3,ap-northeast-1,r4.xlarge,0.8243810252574096,61.8008000851,91.8255498416,426.8290571797,0.32,258.799,15.4502000213,22.9563874604,30.4877897986,0.0571428571,64.69975
4,ap-southeast-2,c4.xlarge,0.7413192464525281,67.8015999794,93.9754075562,370.0827868893,0.261,345.311,16.9503999949,23.493851889,26.4344847778,0.0466071429,86.32775
5,ap-southeast-2,t2.medium,0.7395524102249907,90.6007999897,98.3848055016,267.3849487414,0.064,345.311,22.6501999974,24.5962013754,19.0989249101,0.0114285714,86.32775
6,ap-southeast-2,t2.large,0.73659278038476,91.8009999752,98.3679593087,275.5820203727,0.128,345.311,22.9502499938,24.5919898272,19.6844300266,0.0228571429,86.32775
7,ap-southeast-2,r4.xlarge,0.7250427557379572,67.2008000851,91.5399573356,426.441749608,0.3192,345.311,16.8002000213,22.8849893339,30.460124972,0.057,86.32775
8,ap-northeast-1,r4.large,0.7183877865523248,145.4007999897,97.454499858,303.9246090687,0.16,258.799,36.3501999974,24.3636249645,21.7089006478,0.0285714286,64.69975
9,ap-northeast-1,m3.large,0.7116754699423035,149.6008000374,98.9505381664,277.3672801714,0.193,258.799,37.4002000093,24.7376345416,19.8119485837,0.0344642857,64.69975
10,ap-southeast-2,c4.large,0.6389404905526576,142.8009999752,98.0660637657,275.8363589119,0.13,345.311,35.7002499938,24.5165159414,19.7025970651,0.0232142857,86.32775
11,ap-northeast-1,c4.large,0.6275358629207485,177.801199913,97.9168090109,276.1499292666,0.126,258.799,44.4502999783,24.4792022527,19.7249949476,0.0225,64.69975
12,ap-southeast-2,m3.large,0.6191193314426802,150.800799942,98.7030784594,279.6491064661,0.186,345.311,37.7001999855,24.6757696148,19.9749361761,0.0332142857,86.32775
13,ap-northeast-1,t2.small,0.6098861219167138,187.2009999752,99.7692851588,204.7962771028,0.032,258.799,46.8002499938,24.9423212897,14.6283055073,0.0057142857,64.69975
14,ap-northeast-1,t2.micro,0.6045286160860868,189.2010000706,99.6982976311,201.1117203198,0.016,258.799,47.3002500176,24.9245744078,14.36512288,0.0028571429,64.69975
15,ap-southeast-2,r4.large,0.5967997436967993,158.2011999607,96.7128002917,304.2267531605,0.1596,345.311,39.5502999902,24.1782000729,21.7304823686,0.0285,86.32775
16,ap-southeast-2,t2.small,0.5578537796519114,179.0006000519,99.7478753234,204.6764002089,0.032,345.311,44.750150013,24.9369688308,14.6197428721,0.0057142857,86.32775
17,ap-southeast-2,t2.micro,0.5371896385028745,187.0011999607,99.661906616,201.8570743609,0.016,345.311,46.7502999902,24.915476654,14.4183624543,0.0028571429,86.32775
18,ap-northeast-1,m3.medium,0.268898910623941,351.800799942,99.6026876796,208.2051797252,0.096,258.799,87.9501999855,24.9006719199,14.8717985518,0.0171428571,64.69975
19,ap-southeast-2,m3.medium,0.1720259838287231,349.2036000252,99.6425865541,208.676011378,0.093,345.311,87.3009000063,24.9106466385,14.9054293841,0.0166071429,86.32775
