-1,,,0.0,61.200799942,95.179221933,303.9348683313,0.292,179.459,0.1651143582,0.2567851426,0.819989457,0.0007877902,0.4841645474
0,ap-northeast-1,r4.xlarge,0.9968472021803394,74.6008000374,93.4211619057,428.0970941901,0.32,254.038,0.1457182173,0.1824801499,0.8362047777,0.000625058,0.4962140416
1,ap-northeast-1,c4.xlarge,0.9964020555989267,74.8008000374,95.179221933,369.9291692763,0.252,254.038,0.1609318374,0.2047754444,0.7958923018,0.000542171,0.5465556797
2,ap-southeast-2,r4.xlarge,0.9875421900227517,61.200799942,91.3142851239,426.7816739667,0.3192,325.958,0.1116484803,0.1665844429,0.778576838,0.0005823158,0.5946444387
3,ap-southeast-2,c4.xlarge,0.9803998507369198,72.0009999752,91.3996468972,371.3564389483,0.261,325.958,0.1418364268,0.1800502678,0.7315435952,0.0005141499,0.6421121655
4,ap-northeast-1,t2.large,0.9785066493791987,87.4014000416,98.4360693295,275.8322165942,0.128,254.038,0.2199186959,0.2476840415,0.6940467925,0.0003220726,0.639208361
5,ap-northeast-1,t2.medium,0.9748454517060553,92.4010000229,98.5341734923,267.9805023532,0.064,254.038,0.2350054011,0.2506040298,0.6815604315,0.0001627725,0.6461001729
6,ap-northeast-1,r4.large,0.9682197998170108,156.6012000084,97.3709250504,303.757277952,0.16,254.038,0.3585055069,0.2229102512,0.6953883935,0.0003662863,0.5815665649
7,ap-northeast-1,m3.large,0.9606235612918429,150.2009999752,98.8293836093,276.5926170501,0.193,254.038,0.3607367191,0.2373578578,0.6642906054,0.0004635268,0.6101213351
8,ap-southeast-2,r4.large,0.9519831242318535,147.200799942,97.0840227578,303.9348683313,0.1596,325.958,0.3071229354,0.2025582066,0.6341362885,0.0003329929,0.6800858271
9,ap-northeast-1,c4.large,0.9503613918028765,171.0014000416,97.970156295,275.9775491865,0.126,254.038,0.4035717873,0.231214429,0.651320707,0.0002973663,0.5995422825
10,ap-southeast-2,t2.large,0.9484873454411149,91.6010000229,98.4645906968,276.741746989,0.128,325.958,0.2043562527,0.2196685055,0.6173939845,0.0002855602,0.7271924477
11,ap-southeast-2,t2.medium,0.943935977419019,95.600799942,98.4547220398,268.8870677468,0.064,325.958,0.2151830501,0.2216068004,0.6052244271,0.0001440544,0.7336825288
12,ap-southeast-2,m3.large,0.9382647923472736,149.8010000706,98.803369819,277.6849995093,0.186,325.958,0.3226491817,0.2128078344,0.5980923881,0.0004006165,0.7020652861
13,ap-southeast-2,c4.large,0.9380676995514516,145.8009999752,98.3937560805,275.3518914058,0.13,325.958,0.3159104642,0.2131920711,0.596611435,0.0002816741,0.7062608836
14,ap-northeast-1,t2.small,0.8923160842091031,186.6008000374,99.843146737,203.8598133512,0.032,254.038,0.4803898919,0.2570387611,0.5248219391,0.0000823816,0.6540019514
15,ap-northeast-1,t2.micro,0.8883332676548562,189.0005999565,99.7980788372,201.3047884984,0.016,254.038,0.486798471,0.2570444337,0.5184896941,0.0000412103,0.6543117324
16,ap-southeast-2,t2.small,0.8713102741512804,183.0010001183,99.63385004,204.4298328275,0.032,325.958,0.418233164,0.2277046591,0.4672069318,0.0000731333,0.7449491837
17,ap-southeast-2,t2.micro,0.8677348602210492,184.4012000084,99.5859289824,201.3567232962,0.016,325.958,0.4222523788,0.2280375367,0.4610781025,0.0000366377,0.7463972083
18,ap-northeast-1,m3.medium,0.7692908721468943,349.4016000271,99.6601934492,207.7782079111,0.096,254.038,0.7136283473,0.2035489796,0.4243724674,0.0001960733,0.5188548595
19,ap-southeast-2,m3.medium,0.6782078539247365,507.2015999317,99.5468720652,208.1702846569,0.093,325.958,0.7856780411,0.1542025724,0.3224651134,0.0001440612,0.5049235707
