-1,,,0.0,70.2012000084,94.2927251565,304.2897658958,0.292,179.631,0.1885121007,0.253205354,0.8171128552,0.000784111,0.4823652181
0,ap-northeast-1,r4.xlarge,0.9949034111818816,74.0004000664,91.0069530039,428.3077019142,0.32,273.762,0.1418497791,0.1744492755,0.8210138437,0.0006134011,0.5247685038
1,ap-northeast-1,c4.xlarge,0.9925062360394586,70.2012000084,93.5314843081,370.7171079681,0.252,273.762,0.1476519509,0.1967217958,0.7797175009,0.0005300236,0.5757949064
2,ap-southeast-2,r4.xlarge,0.9888448328698654,71.000399971,93.4025701868,427.8376837423,0.3192,320.869,0.1296787278,0.1705951865,0.7814244224,0.0005830031,0.5860513988
3,ap-southeast-2,c4.xlarge,0.9822040376275797,76.8006000996,94.2927251565,371.9095553654,0.261,320.869,0.1517717951,0.1863393795,0.7349601536,0.0005157829,0.6340948387
4,ap-northeast-1,t2.large,0.9719469023278348,86.0009999752,98.4523312664,275.4614082519,0.128,273.762,0.2098748864,0.2402608324,0.6722297623,0.0003123683,0.668082565
5,ap-northeast-1,r4.large,0.9709904813516883,148.2010000229,97.5219178881,303.2793834993,0.16,273.762,0.3327226573,0.2189442154,0.6808855701,0.0003592123,0.6146167711
6,ap-northeast-1,t2.medium,0.9682243995726749,94.4006000042,98.535732574,267.8583527666,0.064,273.762,0.2321770472,0.242347352,0.6587941329,0.0001574072,0.6733140764
7,ap-northeast-1,m3.large,0.9603347668370463,150.000799942,98.8206384106,277.9093032689,0.193,273.762,0.3492690644,0.230098719,0.6470973646,0.0004493905,0.6374405846
8,ap-northeast-1,c4.large,0.9595747753593942,149.0007999897,98.468352,275.5724520107,0.126,273.762,0.3485143021,0.230318421,0.6445666117,0.0002947152,0.6403319471
9,ap-southeast-2,r4.large,0.9562585678523656,151.8012000084,97.2809341447,304.2897658958,0.1596,320.869,0.3178733253,0.2037073094,0.6371860021,0.0003342041,0.6719030944
10,ap-southeast-2,t2.large,0.9517127852010306,91.0009999752,98.3554955973,276.6698775435,0.128,320.869,0.2047899527,0.2213406149,0.622621852,0.000288053,0.7220881898
11,ap-southeast-2,t2.medium,0.9469385764923252,88.600799942,98.3595614981,267.5307173042,0.064,320.869,0.202174145,0.2244422202,0.6104662042,0.0001460387,0.7321764112
12,ap-southeast-2,c4.large,0.94385022808227,146.8006000042,98.3598636974,276.0675037688,0.13,320.869,0.3200441084,0.2144370995,0.6018625134,0.0002834166,0.6995355128
13,ap-southeast-2,m3.large,0.9433059501733168,150.2006000042,98.7798590711,276.5667268038,0.186,320.869,0.3263967473,0.214655765,0.6009994637,0.0004041914,0.6972715017
14,ap-northeast-1,t2.small,0.8962098901329745,183.8010000229,99.6929396711,204.4587315951,0.032,273.762,0.4588283793,0.2488667087,0.5103969426,0.0000798826,0.6834009323
15,ap-northeast-1,t2.micro,0.8934449429448948,184.000799942,99.7402119651,201.5306505858,0.016,273.762,0.4609180626,0.2498470945,0.504829963,0.0000400797,0.6857679461
16,ap-southeast-2,t2.micro,0.8750778011378522,188.4006000996,99.7409819879,202.0830043927,0.016,320.869,0.4330905168,0.2292820374,0.4645432804,0.0000367804,0.7376055117
17,ap-southeast-2,t2.small,0.8667054702099967,211.6008000374,99.7598606805,204.7307544458,0.032,320.869,0.473629386,0.2232940592,0.4582520554,0.0000716261,0.71820611
18,ap-northeast-1,m3.medium,0.7854448028699056,351.0048000813,99.7412007979,208.7223093333,0.096,273.762,0.6996858544,0.1988220881,0.4160628211,0.0001913645,0.5457116223
19,ap-southeast-2,m3.medium,0.7491582525976846,412.8023999691,99.6483801196,208.5919680227,0.093,320.869,0.7221029079,0.1743119349,0.364883699,0.0001626821,0.5612865574
