-1,,,0.0,59.8004000664,94.5255347368,304.2819046203,0.292,181.142,0.1610291117,0.2545361381,0.8193631606,0.0007862907,0.4877749198
0,ap-northeast-1,r4.xlarge,0.9956967818777038,59.8004000664,92.2539623497,427.4162870417,0.32,265.722,0.1160833999,0.1790816381,0.8296923717,0.0006211779,0.5158144953
1,ap-northeast-1,c4.xlarge,0.9948897998780383,68.4009999752,93.5390597101,371.0084683263,0.252,265.722,0.145276541,0.1986671401,0.7879830265,0.0005352215,0.5643656241
2,ap-southeast-2,r4.xlarge,0.9873594855338007,59.8010000229,91.8328353391,426.1753292923,0.3192,330.797,0.1086283023,0.1668140165,0.7741459591,0.0005798257,0.6008915656
3,ap-southeast-2,c4.xlarge,0.9805466587329674,74.4009999752,94.5255347368,371.7452508968,0.261,330.797,0.1453289121,0.184638555,0.7261371876,0.0005098163,0.6461521773
4,ap-northeast-1,t2.large,0.9738645824741347,93.4008000374,98.5007384099,275.8013763712,0.128,265.722,0.22986674,0.2424180908,0.6787689532,0.0003150181,0.6539628125
5,ap-northeast-1,t2.medium,0.9709990134477873,90.6009999275,98.4900554228,267.7213059731,0.064,265.722,0.2263669217,0.246077755,0.6689026385,0.0001599042,0.6639073654
6,ap-northeast-1,r4.large,0.9692160345981871,147.8009999752,97.6995552775,303.8932077031,0.16,265.722,0.3352629147,0.2216158055,0.6893331073,0.0003629344,0.6027478314
7,ap-northeast-1,c4.large,0.9583276659466003,147.6012000561,98.5444399782,276.1565572388,0.126,265.722,0.3494875479,0.2333318068,0.6538786812,0.0002983406,0.6291719185
8,ap-northeast-1,m3.large,0.9575981437961933,150.4012000561,98.857435352,277.0631545085,0.193,265.722,0.3547301475,0.2331611224,0.6534698767,0.0004552019,0.6267210914
9,ap-southeast-2,r4.large,0.9514114251035366,145.4010000229,97.6704232948,304.2819046203,0.1596,330.797,0.3014211727,0.2024740788,0.6307866419,0.0003308562,0.6857533281
10,ap-southeast-2,t2.large,0.9471752516945617,80.8011999607,98.1186363984,275.8449039552,0.128,330.797,0.1799259207,0.2184879185,0.614243951,0.0002850269,0.7366097881
11,ap-southeast-2,t2.medium,0.942329069465346,88.8010000229,98.4120371538,267.5490820653,0.064,330.797,0.1992738964,0.2208415456,0.6003935545,0.0001436192,0.7423250535
12,ap-southeast-2,m3.large,0.9364304035159522,149.8009999752,98.8735040177,276.9592079846,0.186,330.797,0.3205816862,0.2115942794,0.592706657,0.0003980494,0.7079222441
13,ap-southeast-2,c4.large,0.9359785165814392,148.6010000229,98.300658434,275.6600134214,0.13,330.797,0.3188830416,0.2109434859,0.5915391116,0.0002789671,0.7098576288
14,ap-northeast-1,t2.small,0.8894720370755775,186.6010000229,99.7728456593,204.6358322827,0.032,265.722,0.4705511287,0.2515968571,0.5160295059,0.0000806943,0.6700702943
15,ap-northeast-1,t2.micro,0.8883597352007558,183.2010000229,99.7814202573,201.03172042,0.016,265.722,0.4660217219,0.2538212634,0.5113790236,0.0000407004,0.6759363976
16,ap-southeast-2,t2.small,0.8705151161204984,182.0009999275,99.6784382744,204.8177710204,0.032,330.797,0.4127472348,0.2260537018,0.4644917811,0.0000725705,0.7501911917
17,ap-southeast-2,t2.micro,0.8653009288413409,186.2005999565,99.6704213806,201.3537195739,0.016,330.797,0.4221217634,0.2259555235,0.4564742927,0.0000362724,0.7499256877
18,ap-southeast-2,m3.medium,0.7704930650442389,357.0025999546,99.6889896309,208.6437698949,0.093,330.797,0.6625401941,0.1850069511,0.3872097397,0.0001725932,0.6139067576
19,ap-northeast-1,m3.medium,0.7688836044743842,350.8044000149,99.5252065297,208.286952521,0.096,265.722,0.7059129708,0.2002715308,0.4191294677,0.0001931779,0.5347042581
