-1,,,0.0,59.2007999897,93.8217869991,303.3448678003,0.292,177.871,0.1605522252,0.2544441405,0.8226695168,0.0007919023,0.4823851173
0,ap-northeast-1,r4.xlarge,0.9956997963093837,59.2007999897,91.2602218033,426.6103262986,0.32,260.081,0.1157751036,0.1784716024,0.8342937047,0.0006258029,0.5086232743
1,ap-northeast-1,c4.xlarge,0.9952602926451322,67.8010000706,93.8217869991,370.7275960634,0.252,260.081,0.1450539689,0.2007230359,0.7931374041,0.0005391307,0.5564192453
2,ap-southeast-2,r4.xlarge,0.9883100508097904,67.0006000042,92.6361461807,427.6458214851,0.3192,326.683,0.1217843792,0.1683811123,0.7773151415,0.0005801974,0.5937989561
3,ap-southeast-2,c4.xlarge,0.9798275953899117,68.2007999897,93.1561306637,370.4696350068,0.261,326.683,0.1344529722,0.1836506119,0.7303542415,0.0005145427,0.6440320397
4,ap-northeast-1,t2.large,0.975084057663551,89.2007999897,98.4172066601,275.5496665846,0.128,260.081,0.22216181,0.2451160166,0.6862787406,0.0003187944,0.6477527748
5,ap-northeast-1,t2.medium,0.9714955966008874,92.2010000229,98.5718964152,267.7379061299,0.064,260.081,0.2322928568,0.2483438077,0.6745436933,0.0001612428,0.6552527464
6,ap-northeast-1,r4.large,0.9664793818312212,154.2010001183,97.5240114174,303.0352067613,0.16,260.081,0.351218342,0.222127104,0.6902129222,0.0003644265,0.5923775951
7,ap-northeast-1,c4.large,0.957656639978351,149.4008000374,98.3344240265,276.0906177113,0.126,260.081,0.356263498,0.2344898145,0.6583700302,0.0003004616,0.620193244
8,ap-southeast-2,r4.large,0.9501562697814651,147.0012000561,97.278600791,303.3448678003,0.1596,326.683,0.3066437766,0.2029226804,0.6327758946,0.0003329248,0.681459123
9,ap-northeast-1,m3.large,0.9474395236758524,172.2009999752,98.8511540365,277.2027329139,0.193,260.081,0.4015457729,0.2305054155,0.6463933755,0.0004500458,0.6064681749
10,ap-southeast-2,t2.large,0.9467642440132205,93.0010000229,98.3734169183,276.3912422933,0.128,326.683,0.2072117104,0.2191817719,0.6158159808,0.0002851915,0.7278689816
11,ap-southeast-2,t2.medium,0.9423046494025538,91.0009999752,98.4559223921,268.0205901593,0.064,326.683,0.2052721346,0.2220882997,0.6045775175,0.0001443656,0.7369030753
12,ap-southeast-2,c4.large,0.936982050776967,144.6009999275,98.4591633275,276.120534646,0.13,326.683,0.3128982979,0.2130531921,0.5974899575,0.0002813036,0.7069007455
13,ap-southeast-2,m3.large,0.9275226014545407,173.8007999897,98.7842421215,276.6608415611,0.186,326.683,0.3678555869,0.2090803688,0.5855625305,0.0003936756,0.6914362114
14,ap-northeast-1,t2.small,0.8899783556690384,184.8009999752,99.7833419585,204.5299245637,0.032,260.081,0.4715558181,0.2546166712,0.5218980196,0.0000816542,0.6636474302
15,ap-northeast-1,t2.micro,0.8882564475822786,183.4009999275,99.7538457227,201.6634171503,0.016,260.081,0.4705730773,0.2559499358,0.5174310653,0.000041053,0.6673197886
16,ap-southeast-2,t2.small,0.8687563869389092,183.2001999855,99.7896520347,204.7510294774,0.032,326.683,0.417915747,0.227639855,0.4670774346,0.0000729983,0.7452282802
17,ap-southeast-2,t2.micro,0.8661879398167882,182.6010000229,99.6642277814,201.8015573349,0.016,326.683,0.4181220369,0.2282123861,0.4620877114,0.000036637,0.7480427893
18,ap-southeast-2,m3.medium,0.7721001847157195,350.2039999485,99.6457465316,208.261876723,0.093,326.683,0.658693854,0.1874223048,0.39171688,0.0001749224,0.6144535309
19,ap-northeast-1,m3.medium,0.7668139222003109,349.2051999569,99.6655835673,207.6660507354,0.096,260.081,0.708916665,0.202329728,0.4215799883,0.0001948883,0.5279868547
