-1,,,0.0,69.600799942,95.4161433068,303.2563478056,0.292,177.139,0.1878420527,0.2575137676,0.8184431058,0.0007880639,0.4780714217
0,us-east-1,t2.large,0.9828137155121303,92.0012000084,98.614727014,276.2755027173,0.094,106.898,0.2826535394,0.3029721528,0.8487959796,0.0002887944,0.328420695
1,us-east-1,t2.medium,0.9827817001679626,93.2010000706,98.4757553129,268.0330579684,0.047,106.898,0.292321587,0.3088656672,0.8406760529,0.0001474138,0.335281735
2,us-east-1,c4.xlarge,0.9719977120378499,74.0010000229,95.4161433068,371.1609488253,0.199,106.898,0.1828617981,0.2357801588,0.9171654232,0.0004917433,0.2641526532
3,us-east-1,r4.xlarge,0.9610712155192899,70.4011999607,92.6861989852,428.1001715193,0.266,106.898,0.1542743551,0.2031088047,0.9381214794,0.0005829017,0.2342519732
4,us-east-1,r4.large,0.9602500573073012,146.2012000084,97.2949259216,302.9932391489,0.133,106.898,0.3992822051,0.26571692,0.8274884793,0.0003632291,0.2919433572
5,us-east-1,m3.large,0.9498530068919601,157.8012000084,98.5893605372,276.7200380628,0.133,106.898,0.4506357506,0.281543426,0.7902344345,0.0003798105,0.3052705585
6,us-east-1,c4.large,0.9486768442555973,159.4010000229,98.0767392186,276.2932105121,0.1,106.898,0.4548880114,0.2798848994,0.7884672559,0.0002853734,0.3050584289
7,eu-central-1,t2.medium,0.9111603723044583,89.2007999897,98.4395899154,267.5759365339,0.054,25.24,0.2975326383,0.3283489711,0.8925096451,0.000180119,0.0841889735
8,eu-central-1,c4.xlarge,0.9054348794372414,69.8008000374,92.6111242119,370.6084190559,0.227,25.24,0.1793679557,0.2379839202,0.9523569137,0.0005833246,0.0648595317
9,eu-central-1,t2.large,0.9040754772655166,110.600799942,98.7413325635,276.2881792551,0.108,25.24,0.3515930174,0.3138925132,0.8783028212,0.0003433252,0.0802363795
10,eu-central-1,r4.xlarge,0.8991489950266771,69.600799942,91.9341207243,426.0385626759,0.3201,25.24,0.1574363789,0.2079541481,0.9636953688,0.0007240633,0.0570926513
11,us-east-1,t2.small,0.8947548819905483,183.6012000084,99.7473369291,203.9998747032,0.023,106.898,0.5904153557,0.3207623883,0.6560123713,0.0000739622,0.3437571252
12,eu-central-1,r4.large,0.8901501088433806,146.4005999565,97.5829341087,303.2563478056,0.16005,25.24,0.4164943102,0.277613185,0.8627324167,0.0004553254,0.0718051456
13,eu-central-1,m3.large,0.8835826488229396,149.2010000229,98.8251848035,276.8938437453,0.158,25.24,0.4512246811,0.298874421,0.8374028078,0.0004778353,0.0763326717
14,eu-central-1,c4.large,0.8725922988963641,165.000399971,98.2775727824,275.7135042979,0.114,25.24,0.4896809293,0.2916638576,0.8182504104,0.0003383242,0.0749061618
15,us-east-1,t2.micro,0.8523028353932504,219.4008000851,99.7298746083,201.185545847,0.012,106.898,0.6615617101,0.3007166171,0.6066370483,0.0000361837,0.3223307466
16,eu-central-1,t2.micro,0.809090552227754,187.8,99.7805179467,201.3377470368,0.014,25.24,0.6389125015,0.339462302,0.6849691352,0.0000476293,0.0858687515
17,eu-central-1,t2.small,0.767613296892646,227.2012001038,99.8083741745,203.827655132,0.027,25.24,0.7053187865,0.3098430876,0.6327584287,0.0000838183,0.0783545429
18,eu-central-1,m3.medium,0.6516672365326992,350.6046000004,99.6498190987,208.3086865649,0.079,25.24,0.8336317782,0.2369371534,0.4952951011,0.0001878381,0.0600130919
19,us-east-1,m3.medium,0.6272963209870794,470.8027999401,99.7334164585,208.3188075878,0.067,106.898,0.8796964938,0.1863521984,0.3892443389,0.0001251897,0.199739245
