-1,,,0.0,59.2012000561,95.5806028297,303.9998302274,0.292,177.242,0.1602544496,0.2587315271,0.8229111137,0.0007904282,0.4797845167
0,us-east-1,t2.medium,0.9800060838932325,92.6010000706,98.3926378654,267.7376619224,0.047,107.608,0.2906310562,0.3088082877,0.8403027982,0.0001475109,0.3377309821
1,us-east-1,c4.xlarge,0.9719814575024444,77.4009999752,95.5806028297,371.3540553137,0.199,107.608,0.1907737281,0.2355818135,0.9152930532,0.0004904843,0.2652262806
2,us-east-1,t2.large,0.9713276224170099,112.2007999897,98.821076707,276.8995166145,0.094,107.608,0.3373678929,0.2971374395,0.8325877041,0.0002826413,0.3235581584
3,us-east-1,r4.xlarge,0.9615362952716905,61.8010000706,91.645218278,427.9618696324,0.266,107.608,0.1358512713,0.2014549828,0.9407479487,0.0005847225,0.2365444505
4,us-east-1,r4.large,0.9503956494361807,152.4010000229,97.7386563619,303.5298455197,0.133,107.608,0.4125146217,0.2645561699,0.8215858123,0.0003600006,0.291270224
5,us-east-1,m3.large,0.9489263355142393,148.8009999752,98.7751370685,277.3622532598,0.133,107.608,0.4288238467,0.2846562472,0.7993195503,0.0003832876,0.3101113333
6,us-east-1,c4.large,0.9474070341177396,150.600799942,98.4246759934,276.1178552795,0.1,107.608,0.4344058625,0.2839045761,0.796458021,0.0002884486,0.3103937434
7,eu-central-1,t2.medium,0.9065084784933078,91.2009999275,98.4522651986,267.6759345834,0.054,25.069,0.3035158489,0.327647974,0.8908223439,0.0001797114,0.0834293354
8,eu-central-1,t2.large,0.9058660233787427,94.000799942,98.5108374519,276.7707052387,0.108,25.069,0.3037487373,0.3183222112,0.8943408172,0.0003489849,0.0810065138
9,eu-central-1,c4.xlarge,0.9049108748533042,79.2009999752,94.849184391,370.4180888984,0.227,25.069,0.2024103943,0.2424017477,0.9466606667,0.0005801336,0.0640677034
10,eu-central-1,r4.xlarge,0.8984195329702398,59.2012000561,91.2481678142,426.8026818448,0.3201,25.069,0.1341951031,0.2068379911,0.9674606231,0.0007255909,0.0568254873
11,us-east-1,t2.small,0.8877523443350016,179.4010000229,99.7550756559,204.1616364216,0.023,107.608,0.5808405554,0.3229736375,0.6610072311,0.0000744663,0.3483987853
12,us-east-1,t2.micro,0.8766820669315335,187.0010000706,99.7529634645,201.3517574275,0.012,107.608,0.6002939561,0.3202180793,0.6463614793,0.0000385213,0.345433618
13,eu-central-1,m3.large,0.8742189213445113,150.6009999752,98.6310986755,277.1053396322,0.158,25.069,0.4544415505,0.2976213267,0.8361709432,0.0004767682,0.0756462124
14,eu-central-1,c4.large,0.8731176596630077,151.8012000084,98.3598186447,276.2597330559,0.114,25.069,0.458393947,0.2970170558,0.8342212672,0.0003442457,0.0757008367
15,eu-central-1,r4.large,0.8639012609754836,175.8009999752,97.7164705444,303.9998302274,0.16005,25.069,0.4811522647,0.2674416022,0.832021472,0.0004380431,0.0686117037
16,eu-central-1,t2.small,0.7518272754713751,227.2010000706,99.7860623954,204.3463391307,0.027,25.069,0.7046442779,0.3094778538,0.633762521,0.0000837382,0.0777493382
17,eu-central-1,t2.micro,0.7090101597274685,262.0013999939,99.6990422159,200.9952219939,0.014,25.069,0.7575580771,0.2882725616,0.5811631307,0.00004048,0.0724851983
18,us-east-1,m3.medium,0.7048438308939844,349.602200079,99.6601575999,208.3973964166,0.067,107.608,0.808098653,0.2303625066,0.481706509,0.0001548692,0.248733789
19,eu-central-1,m3.medium,0.630579021475983,351.2019999504,99.636458492,208.3151438531,0.079,25.069,0.8340844956,0.2366308428,0.4947364528,0.0001876204,0.0595374292
