-1,ideal,,0.0,11.3001666546,15.4368177757,33.5258279904,0.0026666667,91.0683333333,11.3001666546,15.4368177757,33.5258279904,0.0026666667,91.0683333333
-1,antiIdeal,,0.0,70.0668666681,16.6212565041,71.3137361921,0.0533333333,109.0396666667,70.0668666681,16.6212565041,71.3137361921,0.0533333333,109.0396666667
0,ap-southeast-2,t2.medium,0.5205509085759467,93.2007999897,98.4124932423,267.8193039056,0.064,327.119,15.533466665,16.402082207,44.6365506509,0.0106666667,109.0396666667
1,ap-southeast-2,t2.large,0.5203275311577655,90.6009999752,98.3737016213,277.07392939,0.128,327.119,15.1001666625,16.3956169369,46.1789882317,0.0213333333,109.0396666667
2,ap-southeast-2,c4.xlarge,0.517683397578474,67.8009999275,93.0547352089,370.2531132235,0.261,327.119,11.3001666546,15.5091225348,61.7088522039,0.0435,109.0396666667
3,ap-northeast-1,t2.medium,0.5153371426381379,92.2009999752,98.4861717227,267.5371762119,0.064,273.205,15.3668333292,16.4143619538,44.5895293687,0.0106666667,91.0683333333
4,ap-northeast-1,t2.large,0.5147693783162512,92.0009999752,98.5107382551,276.3099920982,0.128,273.205,15.3334999959,16.4184563759,46.0516653497,0.0213333333,91.0683333333
5,ap-southeast-2,r4.xlarge,0.5130809341977092,78.6010001183,92.620906654,427.8824171524,0.3192,327.119,13.1001666864,15.4368177757,71.3137361921,0.0532,109.0396666667
6,ap-southeast-2,c4.large,0.5125467946992373,149.2010000706,98.2434763885,276.0821099305,0.13,327.119,24.8668333451,16.3739127314,46.0136849884,0.0216666667,109.0396666667
7,ap-southeast-2,m3.large,0.5123811284820481,150.0010000229,98.7288741722,277.2820130755,0.186,327.119,25.0001666705,16.454812362,46.2136688459,0.031,109.0396666667
8,ap-southeast-2,t2.small,0.5120725033604202,183.8008000374,99.6294915615,204.6375640146,0.032,327.119,30.6334666729,16.6049152602,34.1062606691,0.0053333333,109.0396666667
9,ap-northeast-1,c4.xlarge,0.5116037657657905,71.2011999607,93.8654522831,371.7080918113,0.252,273.205,11.8668666601,15.6442420472,61.9513486352,0.042,91.0683333333
10,ap-southeast-2,t2.micro,0.5114654306311243,189.6009999752,99.6003925776,201.6983795867,0.016,327.119,31.6001666625,16.6000654296,33.6163965978,0.0026666667,109.0396666667
11,ap-southeast-2,r4.large,0.5105135027107842,152.8008000851,97.479290212,304.1912469204,0.1596,327.119,25.4668000142,16.2465483687,50.6985411534,0.0266,109.0396666667
12,ap-northeast-1,r4.xlarge,0.5067290089041325,82.2009999275,95.0633943643,427.7208768913,0.32,273.205,13.7001666546,15.8438990607,71.2868128152,0.0533333333,91.0683333333
13,ap-northeast-1,c4.large,0.506161148850648,149.4012000084,98.5852391347,276.0040777488,0.126,273.205,24.9002000014,16.4308731891,46.0006796248,0.021,91.0683333333
14,ap-northeast-1,m3.large,0.5059956058985995,149.8010000706,98.6460186932,277.7963343592,0.193,273.205,24.9668333451,16.4410031155,46.2993890599,0.0321666667,91.0683333333
15,ap-northeast-1,t2.micro,0.5056521774810214,183.8012000084,99.6703392428,201.1549679426,0.016,273.205,30.6335333347,16.6117232071,33.5258279904,0.0026666667,91.0683333333
16,ap-northeast-1,r4.large,0.5033094557576476,158.0010000229,97.6547622642,303.1518072755,0.16,273.205,26.3335000038,16.2757937107,50.5253012126,0.0266666667,91.0683333333
17,ap-northeast-1,t2.small,0.49854817408858365,230.6009999752,99.7273970586,204.6409460224,0.032,273.205,38.4334999959,16.6212328431,34.1068243371,0.0053333333,91.0683333333
18,ap-southeast-2,m3.medium,0.4831553604993024,420.4012000084,99.7275390245,207.5713730808,0.093,327.119,70.0668666681,16.6212565041,34.5952288468,0.0155,109.0396666667
19,ap-northeast-1,m3.medium,0.48241162600511145,347.8055999756,99.5971265799,208.2297580113,0.096,273.205,57.9675999959,16.5995210966,34.7049596686,0.016,91.0683333333
