-1,ideal,,0.0,10.1667999983,15.2308306452,33.4332674074,0.0026666667,88.695,10.1667999983,15.2308306452,33.4332674074,0.0026666667,88.695
-1,antiIdeal,,0.0,60.0671333313,16.6313888959,71.3322756202,0.0533333333,108.974,60.0671333313,16.6313888959,71.3322756202,0.0533333333,108.974
0,ap-southeast-2,t2.medium,0.5153554794116784,93.2010001183,98.4386440783,268.3028114288,0.064,326.922,15.5335000197,16.4064406797,44.7171352381,0.0106666667,108.974
1,ap-southeast-2,t2.large,0.5149278457457458,92.2010000229,98.4405900512,277.0961702804,0.128,326.922,15.3668333371,16.4067650085,46.1826950467,0.0213333333,108.974
2,ap-southeast-2,c4.xlarge,0.5119037946489686,69.2007999897,93.1471099365,370.8236789443,0.261,326.922,11.533466665,15.5245183228,61.8039464907,0.0435,108.974
3,ap-northeast-1,t2.medium,0.5097544427167289,92.2012000561,98.4909605184,268.0988872038,0.064,266.085,15.366866676,16.4151600864,44.6831478673,0.0106666667,88.695
4,ap-southeast-2,c4.large,0.5087597780429001,146.8007999897,98.4175284862,276.0586892926,0.13,326.922,24.4667999983,16.4029214144,46.0097815488,0.0216666667,108.974
5,ap-southeast-2,t2.micro,0.5085453633556554,186.600399971,99.7195093377,201.6618897374,0.016,326.922,31.1000666618,16.6199182229,33.6103149562,0.0026666667,108.974
6,ap-southeast-2,r4.xlarge,0.5084472896860179,71.8010000229,91.6620117446,427.9936537211,0.3192,326.922,11.9668333371,15.2770019574,71.3322756202,0.0532,108.974
7,ap-southeast-2,t2.small,0.508433820987058,186.0010000706,99.6320366517,204.7371965747,0.032,326.922,31.0001666784,16.605339442,34.1228660958,0.0053333333,108.974
8,ap-southeast-2,m3.large,0.5081760448241439,151.6009999752,98.7582968438,276.9853574208,0.186,326.922,25.2668333292,16.4597161406,46.1642262368,0.031,108.974
9,ap-southeast-2,r4.large,0.5075750444626758,143.6010000229,97.3555338145,303.2702807523,0.1596,326.922,23.9335000038,16.2259223024,50.545046792,0.0266,108.974
10,ap-northeast-1,t2.large,0.5061990390351887,114.6007999897,98.8318066249,276.80521648,0.128,266.085,19.1001333316,16.4719677708,46.1342027467,0.0213333333,88.695
11,ap-northeast-1,c4.xlarge,0.5058325193330164,70.2010000229,94.0551602988,370.533546563,0.252,266.085,11.7001666705,15.6758600498,61.7555910938,0.042,88.695
12,ap-northeast-1,r4.xlarge,0.5034828378021068,61.0007999897,91.384983871,427.3448629677,0.32,266.085,10.1667999983,15.2308306452,71.224143828,0.0533333333,88.695
13,ap-northeast-1,t2.small,0.5022502384606632,180.2009999752,99.7883333756,204.5858313365,0.032,266.085,30.0334999959,16.6313888959,34.0976385561,0.0053333333,88.695
14,ap-northeast-1,c4.large,0.5020014465041875,147.8009999275,98.5575957827,275.2265059047,0.126,266.085,24.6334999879,16.4262659638,45.8710843175,0.021,88.695
15,ap-northeast-1,t2.micro,0.5019224979958141,184.6008000374,99.7462223083,200.5996044444,0.016,266.085,30.7668000062,16.6243703847,33.4332674074,0.0026666667,88.695
16,ap-northeast-1,m3.large,0.4990354338937576,170.4009999275,98.2951471581,277.0142342485,0.193,266.085,28.4001666546,16.3825245263,46.1690390414,0.0321666667,88.695
17,ap-northeast-1,r4.large,0.4989745442922515,158.2008000851,97.5742471959,303.7103467569,0.16,266.085,26.3668000142,16.2623745326,50.6183911261,0.0266666667,88.695
18,ap-southeast-2,m3.medium,0.4907162860838249,348.4032000542,99.681235325,207.6539400099,0.093,326.922,58.067200009,16.6135392208,34.6089900016,0.0155,108.974
19,ap-northeast-1,m3.medium,0.4800068759335303,360.4027999878,99.666128203,208.2617883047,0.096,266.085,60.0671333313,16.6110213672,34.7102980508,0.016,88.695
