-1,ideal,,0.0,11.6001333237,15.3223534541,33.5309243078,0.002,8.4133333333,11.6001333237,15.3223534541,33.5309243078,0.002,8.4133333333
-1,antiIdeal,,0.0,78.4671333234,16.6347290291,71.3500285865,0.05335,35.6326666667,78.4671333234,16.6347290291,71.3500285865,0.05335,35.6326666667
0,eu-central-1,r4.xlarge,0.5526158211470414,69.600799942,91.9341207243,426.0385626759,0.3201,25.24,11.6001333237,15.3223534541,71.0064271126,0.05335,8.4133333333
1,eu-central-1,c4.xlarge,0.5501787705417303,69.8008000374,92.6111242119,370.6084190559,0.227,25.24,11.6334666729,15.4351873687,61.7680698427,0.0378333333,8.4133333333
2,us-east-1,r4.xlarge,0.5376314443487429,70.4011999607,92.6861989852,428.1001715193,0.266,106.898,11.7335333268,15.4476998309,71.3500285865,0.0443333333,35.6326666667
3,eu-central-1,t2.medium,0.5362627923710396,89.2007999897,98.4395899154,267.5759365339,0.054,25.24,14.8667999983,16.4065983192,44.5959894223,0.009,8.4133333333
4,us-east-1,c4.xlarge,0.5330621081508717,74.0010000229,95.4161433068,371.1609488253,0.199,106.898,12.3335000038,15.9026905511,61.8601581376,0.0331666667,35.6326666667
5,eu-central-1,t2.large,0.5286554182554295,110.600799942,98.7413325635,276.2881792551,0.108,25.24,18.433466657,16.4568887606,46.0480298759,0.018,8.4133333333
6,eu-central-1,r4.large,0.5189499485289559,146.4005999565,97.5829341087,303.2563478056,0.16005,25.24,24.4000999928,16.2638223514,50.5427246343,0.026675,8.4133333333
7,us-east-1,t2.large,0.518745403822545,92.0012000084,98.614727014,276.2755027173,0.094,106.898,15.3335333347,16.4357878357,46.0459171195,0.0156666667,35.6326666667
8,us-east-1,t2.medium,0.5173023514875255,93.2010000706,98.4757553129,268.0330579684,0.047,106.898,15.5335000118,16.4126258855,44.6721763281,0.0078333333,35.6326666667
9,eu-central-1,m3.large,0.5148666126942134,149.2010000229,98.8251848035,276.8938437453,0.158,25.24,24.8668333371,16.4708641339,46.1489739576,0.0263333333,8.4133333333
10,eu-central-1,c4.large,0.5093889882688267,165.000399971,98.2775727824,275.7135042979,0.114,25.24,27.5000666618,16.3795954637,45.9522507163,0.019,8.4133333333
11,us-east-1,r4.large,0.5057458843595632,146.2012000084,97.2949259216,302.9932391489,0.133,106.898,24.3668666681,16.2158209869,50.4988731915,0.0221666667,35.6326666667
12,us-east-1,m3.large,0.4990871878341028,157.8012000084,98.5893605372,276.7200380628,0.133,106.898,26.3002000014,16.4315600895,46.1200063438,0.0221666667,35.6326666667
13,us-east-1,c4.large,0.4985023259595587,159.4010000229,98.0767392186,276.2932105121,0.1,106.898,26.5668333371,16.3461232031,46.0488684187,0.0166666667,35.6326666667
14,eu-central-1,t2.micro,0.4887168274108291,187.8,99.7805179467,201.3377470368,0.014,25.24,31.3,16.6300863245,33.5562911728,0.0023333333,8.4133333333
15,us-east-1,t2.small,0.47907210197461203,183.6012000084,99.7473369291,203.9998747032,0.023,106.898,30.6002000014,16.6245561548,33.9999791172,0.0038333333,35.6326666667
16,eu-central-1,t2.small,0.47693534581188346,227.2012001038,99.8083741745,203.827655132,0.027,25.24,37.866866684,16.6347290291,33.9712758553,0.0045,8.4133333333
17,us-east-1,t2.micro,0.46904049132373915,219.4008000851,99.7298746083,201.185545847,0.012,106.898,36.5668000142,16.6216457681,33.5309243078,0.002,35.6326666667
18,eu-central-1,m3.medium,0.4479406437393664,350.6046000004,99.6498190987,208.3086865649,0.079,25.24,58.4341000001,16.6083031831,34.7181144275,0.0131666667,8.4133333333
19,us-east-1,m3.medium,0.4247806350393757,470.8027999401,99.7334164585,208.3188075878,0.067,106.898,78.4671333234,16.6222360764,34.7198012646,0.0111666667,35.6326666667
