-1,ideal,,0.0,16.3001999974,22.8607864024,14.3771984739,0.0028571429,64.6715,16.3001999974,22.8607864024,14.3771984739,0.0028571429,64.6715
-1,antiIdeal,,0.0,87.0508999825,24.9366591278,30.5778793201,0.0571428571,112.086,87.0508999825,24.9366591278,30.5778793201,0.0571428571,112.086
0,ap-southeast-2,r4.xlarge,0.5284167924517595,65.2007999897,91.4431456095,426.482744888,0.3192,448.344,16.3001999974,22.8607864024,30.4630532063,0.057,112.086
1,ap-southeast-2,c4.xlarge,0.5276129447642887,70.4008000374,93.2478904393,371.3314153754,0.261,448.344,17.6002000093,23.3119726098,26.5236725268,0.0466071429,112.086
2,ap-southeast-2,t2.large,0.5241737599731651,89.0012000084,98.3855397358,276.0021647241,0.128,448.344,22.2503000021,24.5963849339,19.7144403374,0.0228571429,112.086
3,ap-northeast-1,r4.xlarge,0.521350489672106,65.2010000229,92.3536121714,428.0903104809,0.32,258.686,16.3002500057,23.0884030429,30.5778793201,0.0571428571,64.6715
4,ap-southeast-2,t2.medium,0.5202798464539921,106.8007999897,98.6800501643,268.2292422298,0.064,448.344,26.7001999974,24.6700125411,19.1592315878,0.0114285714,112.086
5,ap-northeast-1,c4.xlarge,0.5168711382098439,80.0012000561,94.4909685945,371.7292057531,0.252,258.686,20.000300014,23.6227421486,26.5520861252,0.045,64.6715
6,ap-northeast-1,t2.large,0.5160680746110502,85.2009999752,98.408607647,275.5636504556,0.128,258.686,21.3002499938,24.6021519118,19.6831178897,0.0228571429,64.6715
7,ap-southeast-2,r4.large,0.5113008368129803,148.6007999897,97.3836552167,303.4253986828,0.1596,448.344,37.1501999974,24.3459138042,21.6732427631,0.0285,112.086
8,ap-southeast-2,m3.large,0.5111745077370811,150.0011999607,98.6379993702,277.7540375199,0.186,448.344,37.5002999902,24.6594998425,19.8395741086,0.0332142857,112.086
9,ap-northeast-1,t2.medium,0.5105304672423954,102.2008000374,98.6851486525,267.5971562697,0.064,258.686,25.5502000093,24.6712871631,19.1140825907,0.0114285714,64.6715
10,ap-southeast-2,c4.large,0.5097475969199408,157.0006000042,98.2909604527,276.0482893283,0.13,448.344,39.250150001,24.5727401132,19.717734952,0.0232142857,112.086
11,ap-southeast-2,t2.small,0.5053993872002918,180.4011999607,99.7067405224,204.5474428,0.032,448.344,45.1002999902,24.9266851306,14.6105316286,0.0057142857,112.086
12,ap-southeast-2,t2.micro,0.5050483483890007,182.2008000374,99.5981423928,201.7544818192,0.016,448.344,45.5502000093,24.8995355982,14.4110344157,0.0028571429,112.086
13,ap-northeast-1,r4.large,0.500529129461566,133.800799942,97.2258560972,303.5717944575,0.16,258.686,33.4501999855,24.3064640243,21.6836996041,0.0285714286,64.6715
14,ap-northeast-1,c4.large,0.49723591658915556,145.8006000519,98.4295265399,275.6271122608,0.126,258.686,36.450150013,24.607381635,19.6876508758,0.0225,64.6715
15,ap-northeast-1,m3.large,0.49664842008526033,148.0007999897,98.7857409396,277.5679305879,0.193,258.686,37.0001999974,24.6964352349,19.8262807563,0.0344642857,64.6715
16,ap-northeast-1,t2.small,0.4860378176883885,187.4009999752,99.7073247357,204.2487429473,0.032,258.686,46.8502499938,24.9268311839,14.5891959248,0.0057142857,64.6715
17,ap-northeast-1,t2.micro,0.48572763208533754,188.6012001038,99.7466365113,201.2807786341,0.016,258.686,47.1503000259,24.9366591278,14.3771984739,0.0028571429,64.6715
18,ap-southeast-2,m3.medium,0.47695916093355684,348.2035999298,99.6393631481,208.3089422359,0.093,448.344,87.0508999825,24.909840787,14.8792101597,0.0166071429,112.086
19,ap-northeast-1,m3.medium,0.4513108976236605,347.202200079,99.6960775995,207.9682335634,0.096,258.686,86.8005500197,24.9240193999,14.854873826,0.0171428571,64.6715
