-1,ideal,,0.0,17.7003499866,23.2152954979,14.3319633192,0.0028571429,67.05625,17.7003499866,23.2152954979,14.3319633192,0.0028571429,67.05625
-1,antiIdeal,,0.0,116.4004499912,24.9444287367,30.5863032231,0.0571428571,80.6905,116.4004499912,24.9444287367,30.5863032231,0.0571428571,80.6905
0,ap-southeast-2,c4.xlarge,0.5663923249563492,74.0010000706,92.8611819918,371.4928015579,0.261,322.762,18.5002500176,23.2152954979,26.5352001113,0.0466071429,80.6905
1,ap-southeast-2,r4.xlarge,0.5637047341983127,77.4006000519,93.1091941902,428.2082451235,0.3192,322.762,19.350150013,23.2772985475,30.5863032231,0.057,80.6905
2,ap-southeast-2,t2.large,0.561260724302475,86.8010000706,98.3442758023,275.4092734813,0.128,322.762,21.7002500176,24.5860689506,19.6720909629,0.0228571429,80.6905
3,ap-northeast-1,c4.xlarge,0.5605932792411663,70.8013999462,93.7289206964,371.2275660687,0.252,268.225,17.7003499866,23.4322301741,26.5162547192,0.045,67.05625
4,ap-northeast-1,r4.xlarge,0.5592992798401935,71.4010000229,93.8527363844,428.0327925106,0.32,268.225,17.8502500057,23.4631840961,30.5737708936,0.0571428571,67.05625
5,ap-southeast-2,t2.medium,0.5578765115353175,93.4004000187,98.3868911534,267.6799516897,0.064,322.762,23.3501000047,24.5967227884,19.1199965493,0.0114285714,80.6905
6,ap-northeast-1,t2.medium,0.5488782294540775,93.6010000706,98.4520938139,267.9597612823,0.064,268.225,23.4002500176,24.6130234535,19.1399829487,0.0114285714,67.05625
7,ap-northeast-1,t2.large,0.5371618925432182,114.4010000229,98.8239587154,276.5556832991,0.128,268.225,28.6002500057,24.7059896789,19.7539773785,0.0228571429,67.05625
8,ap-southeast-2,c4.large,0.5322624194046879,146.2008000851,98.3358354314,275.819995737,0.13,322.762,36.5502000213,24.5839588578,19.7014282669,0.0232142857,80.6905
9,ap-southeast-2,r4.large,0.5283540741699617,154.4009999752,97.3712552209,304.40431786,0.1596,322.762,38.6002499938,24.3428138052,21.7431655614,0.0285,80.6905
10,ap-southeast-2,m3.large,0.5255355923863749,161.6007999897,98.2462922146,277.8755353793,0.186,322.762,40.4001999974,24.5615730536,19.8482525271,0.0332142857,80.6905
11,ap-northeast-1,c4.large,0.5212901757309076,145.400799942,98.3782160283,275.7804759516,0.126,268.225,36.3501999855,24.5945540071,19.6986054251,0.0225,67.05625
12,ap-northeast-1,r4.large,0.5207662009128797,145.8011999607,97.20589329,304.4287527881,0.16,268.225,36.4502999902,24.3014733225,21.7449109134,0.0285714286,67.05625
13,ap-northeast-1,m3.large,0.5191124230349051,150.0012000084,98.8117412008,276.9909410243,0.193,268.225,37.5003000021,24.7029353002,19.785067216,0.0344642857,67.05625
14,ap-southeast-2,t2.small,0.5176510645621784,182.0009999752,99.7012184328,204.8638188976,0.032,322.762,45.5002499938,24.9253046082,14.6331299213,0.0057142857,80.6905
15,ap-southeast-2,t2.micro,0.5130273687245608,193.6,99.6766333703,201.3745954959,0.016,322.762,48.4,24.9191583426,14.3838996783,0.0028571429,80.6905
16,ap-northeast-1,t2.micro,0.5034841075127945,185.6009999275,99.7777149469,200.6474864692,0.016,268.225,46.4002499819,24.9444287367,14.3319633192,0.0028571429,67.05625
17,ap-northeast-1,t2.small,0.5019243711917754,189.2009999275,99.7478824038,203.8521835797,0.032,268.225,47.3002499819,24.936970601,14.5608702557,0.0057142857,67.05625
18,ap-southeast-2,m3.medium,0.4618999310472638,352.2024000168,99.6044733408,207.510491693,0.093,322.762,88.0506000042,24.9011183352,14.8221779781,0.0166071429,80.6905
19,ap-northeast-1,m3.medium,0.41980703281648635,465.6017999649,99.6982493348,207.9443664909,0.096,268.225,116.4004499912,24.9245623337,14.8531690351,0.0171428571,67.05625
