-1,ideal,,0.0,15.9002000093,22.7485145903,14.3579440448,0.0028571429,69.4425,15.9002000093,22.7485145903,14.3579440448,0.0028571429,69.4425
-1,antiIdeal,,0.0,87.5006500125,24.9577072006,30.5812485984,0.0571428571,79.0355,87.5006500125,24.9577072006,30.5812485984,0.0571428571,79.0355
0,ap-southeast-2,r4.xlarge,0.544730110593192,63.6008000374,90.994058361,427.8097359605,0.3192,316.142,15.9002000093,22.7485145903,30.5578382829,0.057,79.0355
1,ap-southeast-2,c4.xlarge,0.5440031765659266,68.2010000229,93.7127224362,370.711478748,0.261,316.142,17.0502500057,23.4281806091,26.4793913391,0.0466071429,79.0355
2,ap-northeast-1,r4.xlarge,0.5384534329143349,67.4009999752,92.3976276452,428.1374803772,0.32,277.77,16.8502499938,23.0994069113,30.5812485984,0.0571428571,69.4425
3,ap-southeast-2,t2.large,0.5367720625384917,89.6006000519,98.399628249,275.8561891912,0.128,316.142,22.400150013,24.5999070623,19.7040135137,0.0228571429,79.0355
4,ap-southeast-2,t2.medium,0.5359059852985626,92.0009999275,98.4308961008,267.568819188,0.064,316.142,23.0002499819,24.6077240252,19.1120585134,0.0114285714,79.0355
5,ap-northeast-1,c4.xlarge,0.5337363644421262,80.2010000706,94.4323213716,370.8384808793,0.252,277.77,20.0502500176,23.6080803429,26.48846292,0.045,69.4425
6,ap-northeast-1,t2.medium,0.5305924224212919,92.0007999897,98.5360756876,267.7897032963,0.064,277.77,23.0001999974,24.6340189219,19.1278359497,0.0114285714,69.4425
7,ap-northeast-1,t2.large,0.5304076404844063,92.0009999752,98.4600242549,276.7711214646,0.128,277.77,23.0002499938,24.6150060637,19.7693658189,0.0228571429,69.4425
8,ap-southeast-2,r4.large,0.5137901999007202,146.2009999275,97.3789378983,303.9254599192,0.1596,316.142,36.5502499819,24.3447344746,21.7089614228,0.0285,79.0355
9,ap-southeast-2,c4.large,0.5130731160526995,149.4010000229,98.5257801148,276.1440576899,0.13,316.142,37.3502500057,24.6314450287,19.7245755493,0.0232142857,79.0355
10,ap-northeast-1,r4.large,0.508223842938817,142.8012000084,97.4074728849,304.1474733391,0.16,277.77,35.7003000021,24.3518682212,21.7248195242,0.0285714286,69.4425
11,ap-southeast-2,m3.large,0.5053873727162876,171.0010000229,98.7703254518,277.2574325597,0.186,316.142,42.7502500057,24.692581363,19.8041023257,0.0332142857,79.0355
12,ap-northeast-1,m3.large,0.5016475502004818,161.0006000042,98.5143594367,277.3243301633,0.193,277.77,40.250150001,24.6285898592,19.808880726,0.0344642857,69.4425
13,ap-southeast-2,t2.micro,0.5005325999427614,188.0009999752,99.7021060893,201.0112166271,0.016,316.142,47.0002499938,24.9255265223,14.3579440448,0.0028571429,79.0355
14,ap-northeast-1,t2.small,0.49385094131699925,184.8009999752,99.7830514645,204.5868681297,0.032,277.77,46.2002499938,24.9457628661,14.6133477236,0.0057142857,69.4425
15,ap-northeast-1,c4.large,0.49377491934728734,182.401199913,97.9450651225,276.7107553417,0.126,277.77,45.6002999783,24.4862662806,19.765053953,0.0225,69.4425
16,ap-northeast-1,t2.micro,0.49323807060702474,186.6012000561,99.7246646855,201.2577434632,0.016,277.77,46.650300014,24.9311661714,14.3755531045,0.0028571429,69.4425
17,ap-southeast-2,t2.small,0.48988488555418175,220.8009999275,99.8308288025,204.6413758816,0.032,316.142,55.2002499819,24.9577072006,14.6172411344,0.0057142857,79.0355
18,ap-southeast-2,m3.medium,0.4550384227392573,350.00260005,99.6455731706,207.9472041293,0.093,316.142,87.5006500125,24.9113932926,14.8533717235,0.0166071429,79.0355
19,ap-northeast-1,m3.medium,0.4456149143571251,349.0034000397,99.6535695141,207.9793688937,0.096,277.77,87.2508500099,24.9133923785,14.8556692067,0.0171428571,69.4425
