-1,ideal,,0.0,15.1502499938,22.9317207013,14.3875636661,0.0028571429,62.84825,15.1502499938,22.9317207013,14.3875636661,0.0028571429,62.84825
-1,antiIdeal,,0.0,88.4002999902,24.944851447,30.4971161016,0.0571428571,81.56375,88.4002999902,24.944851447,30.4971161016,0.0571428571,81.56375
0,ap-southeast-2,r4.xlarge,0.545918203978658,60.6009999752,91.8602515474,426.6770712349,0.3192,326.255,15.1502499938,22.9650628869,30.4769336596,0.057,81.56375
1,ap-southeast-2,c4.xlarge,0.5426150746915315,70.6009999752,92.5517418232,370.7449393678,0.261,326.255,17.6502499938,23.1379354558,26.4817813834,0.0466071429,81.56375
2,ap-northeast-1,r4.xlarge,0.5377958765498885,61.6007999897,91.7268828052,426.959625422,0.32,251.393,15.4001999974,22.9317207013,30.4971161016,0.0571428571,62.84825
3,ap-southeast-2,t2.medium,0.536012716065547,91.200799942,98.3802686829,267.6942308626,0.064,326.255,22.8001999855,24.5950671707,19.1210164902,0.0114285714,81.56375
4,ap-northeast-1,c4.xlarge,0.5353400108734631,68.8006000519,93.59532294,370.6900522402,0.252,251.393,17.200150013,23.398830735,26.4778608743,0.045,62.84825
5,ap-southeast-2,t2.large,0.5345228337560998,94.6008000374,98.5152795242,276.1369840232,0.128,326.255,23.6502000093,24.628819881,19.7240702874,0.0228571429,81.56375
6,ap-northeast-1,t2.medium,0.5267087734360136,90.8009999752,98.5027912805,267.9492029707,0.064,251.393,22.7002499938,24.6256978201,19.1392287836,0.0114285714,62.84825
7,ap-northeast-1,t2.large,0.5262869526201572,91.4009999752,98.4374686798,276.4938480502,0.128,251.393,22.8502499938,24.60936717,19.749560575,0.0228571429,62.84825
8,ap-southeast-2,c4.large,0.5148379772405334,146.8010000229,98.2583011399,276.118680235,0.13,326.255,36.7002500057,24.564575285,19.7227628739,0.0232142857,81.56375
9,ap-southeast-2,r4.large,0.5136930449026527,149.2008000374,97.7017664963,303.5564688937,0.1596,326.255,37.3002000093,24.4254416241,21.682604921,0.0285,81.56375
10,ap-northeast-1,r4.large,0.5095893467918511,127.6010001183,96.843021551,303.8589913375,0.16,251.393,31.9002500296,24.2107553877,21.704213667,0.0285714286,62.84825
11,ap-southeast-2,m3.large,0.5089732321332266,163.6009999752,97.5738384587,278.4403545641,0.186,326.255,40.9002499938,24.3934596147,19.8885967546,0.0332142857,81.56375
12,ap-southeast-2,t2.small,0.5041489007299723,180.4007999897,99.713271524,204.7207517099,0.032,326.255,45.1001999974,24.928317881,14.6229108364,0.0057142857,81.56375
13,ap-southeast-2,t2.micro,0.5022838336704468,186.2006000519,99.7493017648,201.6203629763,0.016,326.255,46.550150013,24.9373254412,14.4014544983,0.0028571429,81.56375
14,ap-northeast-1,c4.large,0.5019254271878102,147.4010000229,98.5445520992,275.6313454449,0.126,251.393,36.8502500057,24.6361380248,19.6879532461,0.0225,62.84825
15,ap-northeast-1,m3.large,0.5007452622055207,150.4006000042,98.8078823196,277.6404741443,0.193,251.393,37.600150001,24.7019705799,19.8314624389,0.0344642857,62.84825
16,ap-northeast-1,t2.small,0.48877220802906707,183.6009999275,99.734276416,204.1050948768,0.032,251.393,45.9002499819,24.933569104,14.5789353483,0.0057142857,62.84825
17,ap-northeast-1,t2.micro,0.4882834945557989,185.0008000374,99.7794057881,201.4258913254,0.016,251.393,46.2502000093,24.944851447,14.3875636661,0.0028571429,62.84825
18,ap-southeast-2,m3.medium,0.4578274693463642,351.0009999752,99.6390171173,207.3184804406,0.093,326.255,87.7502499938,24.9097542793,14.8084628886,0.0166071429,81.56375
19,ap-northeast-1,m3.medium,0.43904086537414444,353.6011999607,99.6482317463,208.2557043213,0.096,251.393,88.4002999902,24.9120579366,14.8754074515,0.0171428571,62.84825
