-1,ideal,,0.0,14.8001999974,22.8150554508,14.4045297964,0.0028571429,65.02025,14.8001999974,22.8150554508,14.4045297964,0.0028571429,65.02025
-1,antiIdeal,,0.0,87.5509999871,24.9474130087,30.5461301061,0.0571428571,81.67075,87.5509999871,24.9474130087,30.5461301061,0.0571428571,81.67075
0,ap-southeast-2,c4.xlarge,0.5429372883733664,68.2007999897,93.1561306637,370.4696350068,0.261,326.683,17.0501999974,23.2890326659,26.4621167862,0.0466071429,81.67075
1,ap-southeast-2,r4.xlarge,0.5424382258363106,67.0006000042,92.6361461807,427.6458214851,0.3192,326.683,16.750150001,23.1590365452,30.5461301061,0.057,81.67075
2,ap-northeast-1,r4.xlarge,0.5388981540079671,59.2007999897,91.2602218033,426.6103262986,0.32,260.081,14.8001999974,22.8150554508,30.4721661642,0.0571428571,65.02025
3,ap-northeast-1,c4.xlarge,0.5358778930068293,67.8010000706,93.8217869991,370.7275960634,0.252,260.081,16.9502500176,23.4554467498,26.480542576,0.045,65.02025
4,ap-southeast-2,t2.medium,0.5353901363086621,91.0009999752,98.4559223921,268.0205901593,0.064,326.683,22.7502499938,24.613980598,19.1443278685,0.0114285714,81.67075
5,ap-southeast-2,t2.large,0.5344382990424303,93.0010000229,98.3734169183,276.3912422933,0.128,326.683,23.2502500057,24.5933542296,19.7422315924,0.0228571429,81.67075
6,ap-northeast-1,t2.large,0.5275743991175366,89.2007999897,98.4172066601,275.5496665846,0.128,260.081,22.3001999974,24.604301665,19.6821190418,0.0228571429,65.02025
7,ap-northeast-1,t2.medium,0.5263025847412497,92.2010000229,98.5718964152,267.7379061299,0.064,260.081,23.0502500057,24.6429741038,19.1241361521,0.0114285714,65.02025
8,ap-southeast-2,c4.large,0.5147852115390871,144.6009999275,98.4591633275,276.120534646,0.13,326.683,36.1502499819,24.6147908319,19.7228953319,0.0232142857,81.67075
9,ap-southeast-2,r4.large,0.5135560793094796,147.0012000561,97.278600791,303.3448678003,0.1596,326.683,36.750300014,24.3196501977,21.6674905572,0.0285,81.67075
10,ap-southeast-2,m3.large,0.5047590330687198,173.8007999897,98.7842421215,276.6608415611,0.186,326.683,43.4501999974,24.6960605304,19.7614886829,0.0332142857,81.67075
11,ap-southeast-2,t2.micro,0.5025629289034037,182.6010000229,99.6642277814,201.8015573349,0.016,326.683,45.6502500057,24.9160569454,14.4143969525,0.0028571429,81.67075
12,ap-southeast-2,t2.small,0.5023504270222021,183.2001999855,99.7896520347,204.7510294774,0.032,326.683,45.8000499964,24.9474130087,14.6250735341,0.0057142857,81.67075
13,ap-northeast-1,c4.large,0.5015726976721263,149.4008000374,98.3344240265,276.0906177113,0.126,260.081,37.3502000093,24.5836060066,19.720758408,0.0225,65.02025
14,ap-northeast-1,r4.large,0.4993618929955972,154.2010001183,97.5240114174,303.0352067613,0.16,260.081,38.5502500296,24.3810028543,21.6453719115,0.0285714286,65.02025
15,ap-northeast-1,m3.large,0.49291428148571403,172.2009999752,98.8511540365,277.2027329139,0.193,260.081,43.0502499938,24.7127885091,19.8001952081,0.0344642857,65.02025
16,ap-northeast-1,t2.micro,0.4894719941365444,183.4009999275,99.7538457227,201.6634171503,0.016,260.081,45.8502499819,24.9384614307,14.4045297964,0.0028571429,65.02025
17,ap-northeast-1,t2.small,0.4889460789974932,184.8009999752,99.7833419585,204.5299245637,0.032,260.081,46.2002499938,24.9458354896,14.609280326,0.0057142857,65.02025
18,ap-southeast-2,m3.medium,0.45656770486678633,350.2039999485,99.6457465316,208.261876723,0.093,326.683,87.5509999871,24.9114366329,14.8758483374,0.0166071429,81.67075
19,ap-northeast-1,m3.medium,0.4404701216876039,349.2051999569,99.6655835673,207.6660507354,0.096,260.081,87.3012999892,24.9163958918,14.8332893382,0.0171428571,65.02025
