-1,ideal,,0.0,19.8670000076,15.1806965325,33.4848273108,0.0026666667,43.8358333333,19.8670000076,15.1806965325,33.4848273108,0.0026666667,43.8358333333
-1,antiIdeal,,0.0,118.401666673,16.6283992797,71.1362455331,0.0533333333,53.721,118.401666673,16.6283992797,71.1362455331,0.0533333333,53.721
0,ap-northeast-1,t2.medium,0.8554705292019619,92.0007999897,98.309240429,267.8427991136,0.064,263.015,30.6669333299,16.3848734048,44.6404665189,0.0106666667,43.8358333333
1,ap-southeast-2,t2.medium,0.836497069058486,90.4010000706,98.4166402532,266.7065702131,0.064,322.326,30.1336666902,16.4027733755,44.4510950355,0.0106666667,53.721
2,ap-southeast-2,t2.large,0.8317021113771108,88.4008001328,98.3315505092,276.392286119,0.128,322.326,29.4669333776,16.3885917515,46.0653810198,0.0213333333,53.721
3,ap-northeast-1,t2.large,0.7921782960081761,114.4009999752,98.8890007275,276.3455755917,0.128,263.015,38.1336666584,16.4815001213,46.057595932,0.0213333333,43.8358333333
4,ap-northeast-1,c4.xlarge,0.7720483319016396,67.800799942,93.6719012788,371.5085653333,0.252,263.015,22.6002666473,15.6119835465,61.9180942222,0.042,43.8358333333
5,ap-southeast-2,c4.xlarge,0.7606893815838914,68.8006000519,93.4701136232,370.9792330627,0.261,322.326,22.9335333506,15.5783522705,61.8298721771,0.0435,53.721
6,ap-northeast-1,r4.xlarge,0.7200421383343445,65.8008000851,91.0841791949,426.8174731984,0.32,263.015,21.9336000284,15.1806965325,71.1362455331,0.0533333333,43.8358333333
7,ap-southeast-2,r4.xlarge,0.7180617188474429,59.6010000229,91.2593160656,425.3599343353,0.3192,322.326,19.8670000076,15.2098860109,70.8933223892,0.0532,53.721
8,ap-northeast-1,r4.large,0.7146918170111296,135.6012000084,97.0802029304,303.7538771373,0.16,263.015,45.2004000028,16.1800338217,50.6256461896,0.0266666667,43.8358333333
9,ap-northeast-1,c4.large,0.6943309502189193,149.4007999897,98.3917534305,275.8920075359,0.126,263.015,49.8002666632,16.3986255717,45.982001256,0.021,43.8358333333
10,ap-northeast-1,m3.large,0.6937557700889352,149.200799942,98.8565047506,277.8247014649,0.193,263.015,49.7335999807,16.4760841251,46.3041169108,0.0321666667,43.8358333333
11,ap-southeast-2,m3.large,0.6827496434279486,149.2010000229,98.6776073289,277.0927200432,0.186,322.326,49.7336666743,16.4462678882,46.1821200072,0.031,53.721
12,ap-southeast-2,c4.large,0.6590442460077435,157.8006000519,98.2725371924,276.1186069505,0.13,322.326,52.6002000173,16.3787561987,46.0197678251,0.0216666667,53.721
13,ap-southeast-2,r4.large,0.6320391382046022,161.8010001183,97.0883007785,303.534663697,0.1596,322.326,53.9336667061,16.1813834631,50.5891106162,0.0266,53.721
14,ap-northeast-1,t2.micro,0.6241904304869316,184.200799942,99.7703956779,200.9089638648,0.016,263.015,61.4002666473,16.6283992797,33.4848273108,0.0026666667,43.8358333333
15,ap-northeast-1,t2.small,0.6164704156613999,186.6008000374,99.5989748585,203.9555007865,0.032,263.015,62.2002666791,16.5998291431,33.9925834644,0.0053333333,43.8358333333
16,ap-southeast-2,t2.micro,0.6057541265268046,187.6008000374,99.6803506436,201.358852041,0.016,322.326,62.5336000125,16.6133917739,33.5598086735,0.0026666667,53.721
17,ap-southeast-2,t2.small,0.5375947583788475,212.4010000229,99.6878333941,204.2627861596,0.032,322.326,70.800333341,16.614638899,34.0437976933,0.0053333333,53.721
18,ap-northeast-1,m3.medium,0.27720569155602803,355.2050000191,99.5389739257,207.9321158319,0.096,263.015,118.401666673,16.5898289876,34.6553526387,0.016,43.8358333333
19,ap-southeast-2,m3.medium,0.2729489926574611,349.6058000088,99.5946254049,208.1815982443,0.093,322.326,116.5352666696,16.5991042341,34.6969330407,0.0155,53.721
