-1,ideal,,0.0,22.8669333299,15.3739063905,33.5470276387,0.002,4.3086666667,22.8669333299,15.3739063905,33.5470276387,0.002,4.3086666667
-1,antiIdeal,,0.0,157.0677999973,16.6211440966,71.2012735565,0.05335,18.011,157.0677999973,16.6211440966,71.2012735565,0.05335,18.011
0,eu-central-1,t2.medium,0.9048957127025913,92.2012000561,98.441240439,267.881193046,0.054,25.852,30.733733352,16.4068734065,44.6468655077,0.009,4.3086666667
1,eu-central-1,t2.large,0.8966472122077388,92.4009999752,98.4744800961,276.855687444,0.108,25.852,30.8003333251,16.4124133493,46.142614574,0.018,4.3086666667
2,us-east-1,t2.large,0.8645414203644864,92.0012000084,98.5266965724,276.6976298631,0.094,108.066,30.6670666695,16.4211160954,46.1162716438,0.0156666667,18.011
3,us-east-1,t2.medium,0.8595736075308981,100.4001999855,98.4835852107,268.4268055652,0.047,108.066,33.4667333285,16.4139308685,44.7378009275,0.0078333333,18.011
4,eu-central-1,c4.xlarge,0.8222536167035647,77.4007999897,95.1222092561,371.9534013168,0.227,25.852,25.8002666632,15.8537015427,61.9922335528,0.0378333333,4.3086666667
5,us-east-1,c4.xlarge,0.8065344446615997,76.800799942,94.4618282705,371.4263825569,0.199,108.066,25.6002666473,15.7436380451,61.9043970928,0.0331666667,18.011
6,eu-central-1,c4.large,0.7845771675233781,151.4008000374,98.3759554352,276.1810474094,0.114,25.852,50.4669333458,16.3959925725,46.0301745682,0.019,4.3086666667
7,eu-central-1,r4.xlarge,0.7807251810901626,71.2012000561,93.752453019,427.0962179216,0.3201,25.852,23.733733352,15.6254088365,71.1827029869,0.05335,4.3086666667
8,us-east-1,r4.xlarge,0.7700786050892231,68.6007999897,92.2434383432,427.2076413391,0.266,108.066,22.8669333299,15.3739063905,71.2012735565,0.0443333333,18.011
9,us-east-1,m3.large,0.767964495614083,150.8010000229,98.7954538576,276.9095231591,0.133,108.066,50.2670000076,16.4659089763,46.1515871932,0.0221666667,18.011
10,eu-central-1,r4.large,0.7661717361098072,153.8012000084,96.6564904262,303.8736894125,0.16005,25.852,51.2670666695,16.109415071,50.6456149021,0.026675,4.3086666667
11,us-east-1,r4.large,0.7593353015871038,149.0006000042,97.6307426667,304.1872336213,0.133,108.066,49.6668666681,16.2717904444,50.6978722702,0.0221666667,18.011
12,us-east-1,c4.large,0.7573002805994317,156.2009999275,98.3014502561,276.2211011745,0.1,108.066,52.0669999758,16.3835750427,46.0368501958,0.0166666667,18.011
13,eu-central-1,t2.small,0.7433565372873379,177.800799942,99.6932236172,204.4613484174,0.027,25.852,59.266933314,16.6155372695,34.0768914029,0.0045,4.3086666667
14,eu-central-1,m3.large,0.7355715790788615,173.2007999897,97.9867157659,277.8611374491,0.158,25.852,57.7335999966,16.3311192943,46.3101895748,0.0263333333,4.3086666667
15,us-east-1,t2.small,0.7210761897701963,181.4010000706,99.6285785138,204.053620795,0.023,108.066,60.4670000235,16.6047630856,34.0089367992,0.0038333333,18.011
16,eu-central-1,t2.micro,0.7180248615592834,189.0009999275,99.7268645793,201.2935738757,0.014,25.852,63.0003333092,16.6211440966,33.5489289793,0.0023333333,4.3086666667
17,us-east-1,t2.micro,0.7061706179990678,188.4010000229,99.6674386175,201.2821658323,0.012,108.066,62.800333341,16.6112397696,33.5470276387,0.002,18.011
18,eu-central-1,m3.medium,0.3721670095103094,351.2016000748,99.5555758075,208.2850403492,0.079,25.852,117.0672000249,16.5925959679,34.7141733915,0.0131666667,4.3086666667
19,us-east-1,m3.medium,0.21307316917008326,471.203399992,99.6647844991,208.0351220177,0.067,108.066,157.0677999973,16.6107974165,34.6725203363,0.0111666667,18.011
