-1,ideal,,0.0,23.0670666854,15.2171331216,33.4980370825,0.002,4.2566666667,23.0670666854,15.2171331216,33.4980370825,0.002,4.2566666667
-1,antiIdeal,,0.0,143.0678000291,16.6308438847,71.5402595678,0.05335,18.096,143.0678000291,16.6308438847,71.5402595678,0.05335,18.096
0,eu-central-1,t2.medium,0.8982646806148481,90.2009999752,98.4176591012,268.0967655022,0.054,25.54,30.0669999917,16.4029431835,44.6827942504,0.009,4.2566666667
1,eu-central-1,t2.large,0.8846613404233017,94.2010000229,98.5928406411,275.7870028112,0.108,25.54,31.400333341,16.4321401068,45.9645004685,0.018,4.2566666667
2,us-east-1,t2.medium,0.8564654670638058,92.4009999752,98.5515887271,267.1788226567,0.047,108.576,30.8003333251,16.4252647878,44.5298037761,0.0078333333,18.096
3,us-east-1,t2.large,0.8533829665707359,89.4010000706,98.3874651526,276.7647905289,0.094,108.576,29.8003333569,16.3979108588,46.1274650882,0.0156666667,18.096
4,eu-central-1,c4.xlarge,0.8075447592833994,74.6012000084,94.8004229825,371.3460219688,0.227,25.54,24.8670666695,15.8000704971,61.8910036615,0.0378333333,4.2566666667
5,us-east-1,c4.xlarge,0.7914137850730655,72.000799942,93.1579252178,370.5913243042,0.199,108.576,24.0002666473,15.5263208696,61.7652207174,0.0331666667,18.096
6,eu-central-1,c4.large,0.7717745856912065,147.8010000706,98.4709104027,275.8056204956,0.114,25.54,49.2670000235,16.4118184004,45.9676034159,0.019,4.2566666667
7,eu-central-1,m3.large,0.7639820447121902,150.6010000229,98.8548439265,277.8966334015,0.158,25.54,50.200333341,16.4758073211,46.3161055669,0.0263333333,4.2566666667
8,eu-central-1,r4.large,0.7605562868248367,146.000799942,97.4607783677,303.1064879183,0.16005,25.54,48.666933314,16.2434630613,50.5177479864,0.026675,4.2566666667
9,us-east-1,r4.xlarge,0.7485690860945563,69.2012000561,91.3027987298,428.1404372624,0.266,108.576,23.0670666854,15.2171331216,71.3567395437,0.0443333333,18.096
10,eu-central-1,r4.xlarge,0.7483714209597543,87.8009999752,94.1149121511,429.2415574068,0.3201,25.54,29.2669999917,15.6858186918,71.5402595678,0.05335,4.2566666667
11,us-east-1,m3.large,0.7460759779442298,150.0008000374,98.8150860927,276.7902652185,0.133,108.576,50.0002666791,16.4691810155,46.1317108698,0.0221666667,18.096
12,us-east-1,c4.large,0.7178710679461988,162.8010000229,98.01087939,275.3088131688,0.1,108.576,54.2670000076,16.335146565,45.8848021948,0.0166666667,18.096
13,eu-central-1,t2.small,0.7067263058184706,182.8014000416,99.6980306367,204.5370518969,0.027,25.54,60.9338000139,16.6163384395,34.0895086495,0.0045,4.2566666667
14,eu-central-1,t2.micro,0.6888089071989988,190.2010000229,99.7386812114,201.4396558813,0.014,25.54,63.400333341,16.6231135352,33.5732759802,0.0023333333,4.2566666667
15,us-east-1,t2.small,0.6849847514451621,185.4006000042,99.7850633083,204.2936733582,0.023,108.576,61.8002000014,16.6308438847,34.0489455597,0.0038333333,18.096
16,us-east-1,t2.micro,0.6798796548298651,187.8009999752,99.656254692,200.988222495,0.012,108.576,62.6003333251,16.609375782,33.4980370825,0.002,18.096
17,us-east-1,r4.large,0.6494043110957702,187.000799942,97.5224287234,303.6856842894,0.133,108.576,62.3335999807,16.2537381206,50.6142807149,0.0221666667,18.096
18,eu-central-1,m3.medium,0.33580647484001674,350.0018000603,99.6620905232,208.636516024,0.079,25.54,116.6672666868,16.6103484205,34.7727526707,0.0131666667,4.2566666667
19,us-east-1,m3.medium,0.23335791615560728,429.2034000874,99.6565407099,208.6003823831,0.067,108.576,143.0678000291,16.6094234517,34.7667303972,0.0111666667,18.096
