-1,ideal,,0.0,19.0288571766,12.9301398109,28.7227548218,0.0034285714,3.6958571429,19.0288571766,12.9301398109,28.7227548218,0.0034285714,3.6958571429
-1,antiIdeal,,0.0,132.9157714163,14.2556646429,61.2909133521,0.0914571429,15.7011428571,132.9157714163,14.2556646429,61.2909133521,0.0914571429,15.7011428571
0,eu-central-1,t2.large,0.8904415274083975,94.0010001183,98.4951129367,276.7882398091,0.108,25.871,26.8574286052,14.0707304195,39.5411771156,0.0308571429,3.6958571429
1,eu-central-1,t2.medium,0.8778559727083161,105.8009999752,98.7279500208,267.6172496941,0.054,25.871,30.2288571358,14.1039928601,38.2310356706,0.0154285714,3.6958571429
2,us-east-1,t2.medium,0.8677766363989803,89.6007999897,98.4439683105,267.8687839548,0.047,109.908,25.6002285685,14.0634240444,38.2669691364,0.0134285714,15.7011428571
3,us-east-1,t2.large,0.8615717482960058,90.6011999607,98.5442161252,276.3023958353,0.094,109.908,25.8860571316,14.0777451607,39.4717708336,0.0268571429,15.7011428571
4,eu-central-1,c4.xlarge,0.8214175679654854,74.8009999752,93.4775945019,371.4436594664,0.227,25.871,21.3717142786,13.3539420717,53.0633799238,0.0648571429,3.6958571429
5,us-east-1,c4.xlarge,0.8071642658305227,70.6009999752,93.6149606774,370.2138374129,0.199,109.908,20.1717142786,13.3735658111,52.887691059,0.0568571429,15.7011428571
6,eu-central-1,c4.large,0.784924705325591,148.6010000229,98.5143416465,274.9302789681,0.114,25.871,42.457428578,14.0734773781,39.2757541383,0.0325714286,3.6958571429
7,eu-central-1,r4.xlarge,0.7703372970607928,81.8011999607,90.5109786764,429.0363934646,0.3201,25.871,23.3717714173,12.9301398109,61.2909133521,0.0914571429,3.6958571429
8,us-east-1,r4.xlarge,0.7676730898984203,66.6010001183,93.7885364647,427.1994829902,0.266,109.908,19.0288571766,13.3983623521,61.02849757,0.076,15.7011428571
9,us-east-1,m3.large,0.764165059238057,149.2008000851,98.7750838372,277.3169570087,0.133,109.908,42.6288000243,14.1107262625,39.6167081441,0.038,15.7011428571
10,eu-central-1,m3.large,0.7640906422850456,157.4007999897,98.957506668,278.0179136035,0.158,25.871,44.9716571399,14.1367866669,39.7168448005,0.0451428571,3.6958571429
11,eu-central-1,r4.large,0.7528966752442942,157.200799942,97.3858757853,303.3248575861,0.16005,25.871,44.9145142691,13.9122679693,43.3321225123,0.0457285714,3.6958571429
12,us-east-1,c4.large,0.742094848825784,160.2012000084,97.8735942858,275.9822831136,0.1,109.908,45.771771431,13.9819420408,39.4260404448,0.0285714286,15.7011428571
13,us-east-1,r4.large,0.7354780002039936,157.8009999275,97.2756896667,303.7627483547,0.133,109.908,45.0859999793,13.8965270952,43.3946783364,0.038,15.7011428571
14,eu-central-1,t2.small,0.729253758839261,181.0009999275,99.7453798331,204.6437173323,0.027,25.871,51.7145714079,14.2493399762,29.2348167618,0.0077142857,3.6958571429
15,us-east-1,t2.micro,0.7103532742954953,183.2009999752,99.7330202287,201.0592837527,0.012,109.908,52.3431428501,14.2475743184,28.7227548218,0.0034285714,15.7011428571
16,us-east-1,t2.small,0.7042496942208029,185.8010000229,99.7363240332,204.1356070207,0.023,109.908,53.0860000065,14.2480462905,29.1622295744,0.0065714286,15.7011428571
17,eu-central-1,t2.micro,0.6021516219267196,237.2007999897,99.7896525,201.2807627288,0.014,25.871,67.7716571399,14.2556646429,28.7543946755,0.004,3.6958571429
18,us-east-1,m3.medium,0.3552467821167477,351.4039999485,99.6859029307,207.9534334361,0.067,109.908,100.4011428424,14.2408432758,29.707633348,0.0191428571,15.7011428571
19,eu-central-1,m3.medium,0.228379423703195,465.2051999569,99.6849296958,208.5290236989,0.079,25.871,132.9157714163,14.2407042423,29.7898605284,0.0225714286,3.6958571429
