-1,ideal,,0.0,17.6573714529,13.0771367622,28.73024576,0.0045714286,36.9712857143,17.6573714529,13.0771367622,28.73024576,0.0045714286,36.9712857143
-1,antiIdeal,,0.0,100.5145142691,14.2527550227,60.9755795971,0.0914285714,49.3301428571,100.5145142691,14.2527550227,60.9755795971,0.0914285714,49.3301428571
0,ap-northeast-1,t2.medium,0.859453779287524,91.800799942,98.4076059607,267.8918451822,0.064,258.799,26.2287999834,14.058229423,38.2702635975,0.0182857143,36.9712857143
1,ap-northeast-1,t2.large,0.8441906906717745,94.2010000229,98.4699867595,277.3411045779,0.128,258.799,26.9145714351,14.0671409656,39.6201577968,0.0365714286,36.9712857143
2,ap-southeast-2,t2.medium,0.815642082054861,90.6007999897,98.3848055016,267.3849487414,0.064,345.311,25.8859428542,14.0549722145,38.1978498202,0.0182857143,49.3301428571
3,ap-southeast-2,t2.large,0.8074535308601493,91.8009999752,98.3679593087,275.5820203727,0.128,345.311,26.2288571358,14.0525656155,39.3688600532,0.0365714286,49.3301428571
4,ap-northeast-1,c4.xlarge,0.7719562285689661,68.0009999752,93.6947413263,371.064397393,0.252,258.799,19.4288571358,13.3849630466,53.0091996276,0.072,36.9712857143
5,ap-southeast-2,c4.xlarge,0.7500587270596553,67.8015999794,93.9754075562,370.0827868893,0.261,345.311,19.3718857084,13.4250582223,52.8689695556,0.0745714286,49.3301428571
6,ap-northeast-1,r4.xlarge,0.7220863202208696,61.8008000851,91.8255498416,426.8290571797,0.32,258.799,17.6573714529,13.1179356917,60.9755795971,0.0914285714,36.9712857143
7,ap-southeast-2,r4.xlarge,0.7020367253764327,67.2008000851,91.5399573356,426.441749608,0.3192,345.311,19.2002285957,13.0771367622,60.920249944,0.0912,49.3301428571
8,ap-northeast-1,m3.large,0.6965292393460112,149.6008000374,98.9505381664,277.3672801714,0.193,258.799,42.743085725,14.1357911666,39.6238971673,0.0551428571,36.9712857143
9,ap-southeast-2,c4.large,0.6913896338290046,142.8009999752,98.0660637657,275.8363589119,0.13,345.311,40.8002857072,14.0094376808,39.4051941303,0.0371428571,49.3301428571
10,ap-northeast-1,r4.large,0.691089344876136,145.4007999897,97.454499858,303.9246090687,0.16,258.799,41.5430857113,13.9220714083,43.4178012955,0.0457142857,36.9712857143
11,ap-southeast-2,m3.large,0.6677109118288718,150.800799942,98.7030784594,279.6491064661,0.186,345.311,43.0859428406,14.1004397799,39.9498723523,0.0531428571,49.3301428571
12,ap-southeast-2,r4.large,0.6332842334602534,158.2011999607,96.7128002917,304.2267531605,0.1596,345.311,45.2003428459,13.8161143274,43.4609647372,0.0456,49.3301428571
13,ap-southeast-2,t2.small,0.6216809262095487,179.0006000519,99.7478753234,204.6764002089,0.032,345.311,51.1430285863,14.2496964748,29.2394857441,0.0091428571,49.3301428571
14,ap-northeast-1,t2.small,0.6182243789164577,187.2009999752,99.7692851588,204.7962771028,0.032,258.799,53.4859999929,14.2527550227,29.2566110147,0.0091428571,36.9712857143
15,ap-northeast-1,c4.large,0.6145940108256964,177.801199913,97.9168090109,276.1499292666,0.126,258.799,50.8003428323,13.988115573,39.4499898952,0.036,36.9712857143
16,ap-northeast-1,t2.micro,0.6138181293306967,189.2010000706,99.6982976311,201.1117203198,0.016,258.799,54.0574285916,14.2426139473,28.73024576,0.0045714286,36.9712857143
17,ap-southeast-2,t2.micro,0.6008942320028379,187.0011999607,99.661906616,201.8570743609,0.016,345.311,53.4289142745,14.2374152309,28.8367249087,0.0045714286,49.3301428571
18,ap-northeast-1,m3.medium,0.2884122911055972,351.800799942,99.6026876796,208.2051797252,0.096,258.799,100.5145142691,14.2289553828,29.7435971036,0.0274285714,36.9712857143
19,ap-southeast-2,m3.medium,0.27290550203409764,349.2036000252,99.6425865541,208.676011378,0.093,345.311,99.7724571501,14.234655222,29.8108587683,0.0265714286,49.3301428571
