-1,ideal,,0.0,19.8859428406,13.1334458178,28.7407922639,0.0034285714,3.6057142857,19.8859428406,13.1334458178,28.7407922639,0.0034285714,3.6057142857
-1,antiIdeal,,0.0,134.5150856972,14.2583391678,61.1571673599,0.0914571429,15.2711428571,134.5150856972,14.2583391678,61.1571673599,0.0914571429,15.2711428571
0,eu-central-1,t2.medium,0.910191773970563,89.2007999897,98.4395899154,267.5759365339,0.054,25.24,25.4859428542,14.0627985593,38.2251337906,0.0154285714,3.6057142857
1,us-east-1,t2.medium,0.8695724760741846,93.2010000706,98.4757553129,268.0330579684,0.047,106.898,26.628857163,14.0679650447,38.2904368526,0.0134285714,15.2711428571
2,eu-central-1,t2.large,0.8692667998350153,110.600799942,98.7413325635,276.2881792551,0.108,25.24,31.6002285549,14.1059046519,39.4697398936,0.0308571429,3.6057142857
3,us-east-1,t2.large,0.8657400701505552,92.0012000084,98.614727014,276.2755027173,0.094,106.898,26.2860571453,14.0878181449,39.4679289596,0.0268571429,15.2711428571
4,eu-central-1,c4.xlarge,0.8267024485029031,69.8008000374,92.6111242119,370.6084190559,0.227,25.24,19.943085725,13.2301606017,52.9440598651,0.0648571429,3.6057142857
5,us-east-1,c4.xlarge,0.8082103483377585,74.0010000229,95.4161433068,371.1609488253,0.199,106.898,21.1431428637,13.6308776153,53.0229926893,0.0568571429,15.2711428571
6,eu-central-1,m3.large,0.790520954538138,149.2010000229,98.8251848035,276.8938437453,0.158,25.24,42.6288571494,14.1178835434,39.5562633922,0.0451428571,3.6057142857
7,eu-central-1,r4.large,0.7829942009343343,146.4005999565,97.5829341087,303.2563478056,0.16005,25.24,41.8287428447,13.9404191584,43.3223354008,0.0457285714,3.6057142857
8,eu-central-1,r4.xlarge,0.7820007465774723,69.600799942,91.9341207243,426.0385626759,0.3201,25.24,19.8859428406,13.1334458178,60.8626518108,0.0914571429,3.6057142857
9,us-east-1,r4.xlarge,0.7685539448812202,70.4011999607,92.6861989852,428.1001715193,0.266,106.898,20.1146285602,13.2408855693,61.1571673599,0.076,15.2711428571
10,us-east-1,r4.large,0.7665728977351065,146.2012000084,97.2949259216,302.9932391489,0.133,106.898,41.771771431,13.8992751317,43.2847484498,0.038,15.2711428571
11,eu-central-1,c4.large,0.7561756441078475,165.000399971,98.2775727824,275.7135042979,0.114,25.24,47.1429714203,14.0396532546,39.3876434711,0.0325714286,3.6057142857
12,us-east-1,m3.large,0.7553054936022843,157.8012000084,98.5893605372,276.7200380628,0.133,106.898,45.0860571453,14.0841943625,39.531434009,0.038,15.2711428571
13,us-east-1,c4.large,0.7521871791635327,159.4010000229,98.0767392186,276.2932105121,0.1,106.898,45.5431428637,14.0109627455,39.4704586446,0.0285714286,15.2711428571
14,eu-central-1,t2.micro,0.7222907245506682,187.8,99.7805179467,201.3377470368,0.014,25.24,53.6571428571,14.2543597067,28.762535291,0.004,3.6057142857
15,us-east-1,t2.small,0.7178647810580139,183.6012000084,99.7473369291,203.9998747032,0.023,106.898,52.4574857167,14.2496195613,29.1428392433,0.0065714286,15.2711428571
16,us-east-1,t2.micro,0.639754050376231,219.4008000851,99.7298746083,201.185545847,0.012,106.898,62.6859428814,14.247124944,28.7407922639,0.0034285714,15.2711428571
17,eu-central-1,t2.small,0.6324350313221881,227.2012001038,99.8083741745,203.827655132,0.027,25.24,64.9146286011,14.2583391678,29.1182364474,0.0077142857,3.6057142857
18,eu-central-1,m3.medium,0.3739869378883441,350.6046000004,99.6498190987,208.3086865649,0.079,25.24,100.1727428573,14.2356884427,29.758383795,0.0225714286,3.6057142857
19,us-east-1,m3.medium,0.2141290496761277,470.8027999401,99.7334164585,208.3188075878,0.067,106.898,134.5150856972,14.2476309226,29.7598296554,0.0191428571,15.2711428571
