-1,ideal,,0.0,20.2289714132,13.2658831417,28.6639266385,0.0045714286,38.3178571429,20.2289714132,13.2658831417,28.6639266385,0.0045714286,38.3178571429
-1,antiIdeal,,0.0,133.0290857043,14.2539592781,61.1726064462,0.0914285714,46.1088571429,133.0290857043,14.2539592781,61.1726064462,0.0914285714,46.1088571429
0,ap-southeast-2,c4.xlarge,0.571950808962475,74.0010000706,92.8611819918,371.4928015579,0.261,322.762,21.1431428773,13.2658831417,53.0704002226,0.0745714286,46.1088571429
1,ap-southeast-2,r4.xlarge,0.569699661529244,77.4006000519,93.1091941902,428.2082451235,0.3192,322.762,22.1144571577,13.3013134557,61.1726064462,0.0912,46.1088571429
2,ap-northeast-1,r4.xlarge,0.56573403591391,71.4010000229,93.8527363844,428.0327925106,0.32,268.225,20.4002857208,13.4075337692,61.1475417872,0.0914285714,38.3178571429
3,ap-northeast-1,c4.xlarge,0.5656690198655239,70.8013999462,93.7289206964,371.2275660687,0.252,268.225,20.2289714132,13.3898458138,53.0325094384,0.072,38.3178571429
4,ap-southeast-2,t2.large,0.5618715046202394,86.8010000706,98.3442758023,275.4092734813,0.128,322.762,24.8002857344,14.0491822575,39.3441819259,0.0365714286,46.1088571429
5,ap-southeast-2,t2.medium,0.556759589995817,93.4004000187,98.3868911534,267.6799516897,0.064,322.762,26.6858285768,14.0552701648,38.2399930985,0.0182857143,46.1088571429
6,ap-northeast-1,t2.medium,0.5462008239179306,93.6010000706,98.4520938139,267.9597612823,0.064,268.225,26.7431428773,14.0645848306,38.2799658975,0.0182857143,38.3178571429
7,ap-northeast-1,t2.large,0.5317478043674202,114.4010000229,98.8239587154,276.5556832991,0.128,268.225,32.6860000065,14.1177083879,39.507954757,0.0365714286,38.3178571429
8,ap-southeast-2,c4.large,0.5231449313970431,146.2008000851,98.3358354314,275.819995737,0.13,322.762,41.7716571672,14.0479764902,39.4028565339,0.0371428571,46.1088571429
9,ap-southeast-2,r4.large,0.5200605427658223,154.4009999752,97.3712552209,304.40431786,0.1596,322.762,44.1145714215,13.9101793173,43.4863311229,0.0456,46.1088571429
10,ap-southeast-2,m3.large,0.5150372479275525,161.6007999897,98.2462922146,277.8755353793,0.186,322.762,46.1716571399,14.0351846021,39.6965050542,0.0531428571,46.1088571429
11,ap-northeast-1,r4.large,0.5141363547424216,145.8011999607,97.20589329,304.4287527881,0.16,268.225,41.6574857031,13.8865561843,43.4898218269,0.0457142857,38.3178571429
12,ap-northeast-1,c4.large,0.5127245767727278,145.400799942,98.3782160283,275.7804759516,0.126,268.225,41.5430856977,14.0540308612,39.3972108502,0.036,38.3178571429
13,ap-northeast-1,m3.large,0.5102890362095256,150.0012000084,98.8117412008,276.9909410243,0.193,268.225,42.8574857167,14.1159630287,39.570134432,0.0551428571,38.3178571429
14,ap-southeast-2,t2.small,0.5005153964084295,182.0009999752,99.7012184328,204.8638188976,0.032,322.762,52.0002857072,14.2430312047,29.2662598425,0.0091428571,46.1088571429
15,ap-southeast-2,t2.micro,0.494792181394913,193.6,99.6766333703,201.3745954959,0.016,322.762,55.3142857143,14.2395190529,28.7677993566,0.0045714286,46.1088571429
16,ap-northeast-1,t2.micro,0.48652000942308493,185.6009999275,99.7777149469,200.6474864692,0.016,268.225,53.0288571221,14.2539592781,28.6639266385,0.0045714286,38.3178571429
17,ap-northeast-1,t2.small,0.48510097838990707,189.2009999275,99.7478824038,203.8521835797,0.032,268.225,54.0574285507,14.2496974863,29.1217405114,0.0091428571,38.3178571429
18,ap-southeast-2,m3.medium,0.4425999191067499,352.2024000168,99.6044733408,207.510491693,0.093,322.762,100.6292571477,14.2292104773,29.6443559561,0.0265714286,46.1088571429
19,ap-northeast-1,m3.medium,0.410340760840641,465.6017999649,99.6982493348,207.9443664909,0.096,268.225,133.0290857043,14.2426070478,29.7063380701,0.0274285714,38.3178571429
