-1,ideal,,0.0,17.7145142691,13.1258334419,28.6845250419,0.0034285714,3.7384285714,17.7145142691,13.1258334419,28.6845250419,0.0034285714,3.7384285714
-1,antiIdeal,,0.0,100.4588571412,14.2571213481,61.0855587214,0.0914571429,15.7778571429,100.4588571412,14.2571213481,61.0855587214,0.0914571429,15.7778571429
0,eu-central-1,r4.xlarge,0.5623683920998508,62.000799942,91.880834093,427.2865895023,0.3201,26.169,17.7145142691,13.1258334419,61.0409413575,0.0914571429,3.7384285714
1,eu-central-1,c4.xlarge,0.5527585379044644,69.2009999752,93.6270675152,370.0418403663,0.227,26.169,19.7717142786,13.3752953593,52.8631200523,0.0648571429,3.7384285714
2,us-east-1,r4.xlarge,0.5501728240938211,76.8010001183,92.0453155451,427.5989110495,0.266,110.445,21.9431428909,13.1493307922,61.0855587214,0.076,15.7778571429
3,us-east-1,c4.xlarge,0.5481429280880827,71.6013998985,93.5293311904,370.6636999371,0.199,110.445,20.4575428282,13.3613330272,52.9519571339,0.0568571429,15.7778571429
4,eu-central-1,t2.large,0.5280872689999432,89.2009999752,98.4798701926,275.9388844667,0.108,26.169,25.4859999929,14.0685528847,39.4198406381,0.0308571429,3.7384285714
5,eu-central-1,t2.medium,0.5240709408975754,93.2006000042,98.5084325419,267.1936366443,0.054,26.169,26.6287428583,14.0726332203,38.1705195206,0.0154285714,3.7384285714
6,us-east-1,t2.medium,0.5221401693557315,92.4011999607,98.4150317862,268.1059752449,0.047,110.445,26.4003428459,14.0592902552,38.3008536064,0.0134285714,15.7778571429
7,us-east-1,t2.large,0.511539407391393,113.8009999752,98.7419606027,277.1320873724,0.094,110.445,32.5145714215,14.1059943718,39.5902981961,0.0268571429,15.7778571429
8,us-east-1,r4.large,0.5043152950578583,137.6012000084,97.2089282014,303.8686706481,0.133,110.445,39.3146285738,13.8869897431,43.4098100926,0.038,15.7778571429
9,eu-central-1,c4.large,0.4968034721454684,148.0007999897,98.4415825503,275.9524956779,0.114,26.169,42.2859428542,14.0630832215,39.4217850968,0.0325714286,3.7384285714
10,us-east-1,c4.large,0.4955974793594089,147.2009999752,98.2597715672,275.4255596915,0.1,110.445,42.0574285643,14.0371102239,39.3465085274,0.0285714286,15.7778571429
11,us-east-1,m3.large,0.491319138003145,158.8009999275,98.5092721419,277.3444484633,0.133,110.445,45.371714265,14.0727531631,39.6206354948,0.038,15.7778571429
12,eu-central-1,r4.large,0.4906909274044997,175.8005999565,97.5563741064,304.7062414022,0.16005,26.169,50.2287428447,13.9366248723,43.5294630575,0.0457285714,3.7384285714
13,eu-central-1,m3.large,0.48705307654445984,173.8008000374,98.8806904368,278.094212777,0.158,26.169,49.6573714393,14.1258129195,39.7277446824,0.0451428571,3.7384285714
14,eu-central-1,t2.small,0.4693993074626721,182.4010000229,99.6618181864,203.9151622211,0.027,26.169,52.1145714351,14.2374025981,29.1307374602,0.0077142857,3.7384285714
15,us-east-1,t2.small,0.46700440243750796,187.8010000229,99.6992159777,204.3996930488,0.023,110.445,53.657428578,14.2427451397,29.1999561498,0.0065714286,15.7778571429
16,eu-central-1,t2.micro,0.4530283056278651,237.2010000229,99.7998494368,200.7916752934,0.014,26.169,67.7717142923,14.2571213481,28.6845250419,0.004,3.7384285714
17,us-east-1,t2.micro,0.4479615598827368,259.0010000229,99.7285822728,201.39578707,0.012,110.445,74.0002857208,14.2469403247,28.7708267243,0.0034285714,15.7778571429
18,us-east-1,m3.medium,0.4337804490298457,349.6065999985,99.5758513755,208.6363642336,0.067,110.445,99.8875999996,14.2251216251,29.8051948905,0.0191428571,15.7778571429
19,eu-central-1,m3.medium,0.4334241644458591,351.6059999943,99.5943838888,208.5545490674,0.079,26.169,100.4588571412,14.227769127,29.7935070096,0.0225714286,3.7384285714
