-1,ideal,,0.0,19.8860000065,13.0922901983,28.7517100969,0.0034285714,3.6337142857,19.8860000065,13.0922901983,28.7517100969,0.0034285714,3.6337142857
-1,antiIdeal,,0.0,101.2580571447,14.2521194915,61.1671873269,0.0914571429,15.7081428571,101.2580571447,14.2521194915,61.1671873269,0.0914571429,15.7081428571
0,eu-central-1,r4.xlarge,0.5554174579402835,69.6010000229,91.6460313883,428.1703112885,0.3201,25.436,19.8860000065,13.0922901983,61.1671873269,0.0914571429,3.6337142857
1,us-east-1,r4.xlarge,0.5490361764832319,75.8011999607,93.0963144093,428.0896272498,0.266,109.957,21.6574857031,13.299473487,61.1556610357,0.076,15.7081428571
2,eu-central-1,c4.xlarge,0.5447455171258434,80.0012000561,94.2775883343,370.894879062,0.227,25.436,22.8574857303,13.4682269049,52.9849827231,0.0648571429,3.6337142857
3,us-east-1,c4.xlarge,0.5405218869757671,82.2006000042,94.2026611302,371.0358439289,0.199,109.957,23.4858857155,13.4575230186,53.0051205613,0.0568571429,15.7081428571
4,eu-central-1,t2.large,0.5273461381381663,91.6012000561,98.5557417645,276.52118042,0.108,25.436,26.1717714446,14.0793916806,39.5030257743,0.0308571429,3.6337142857
5,us-east-1,t2.large,0.5260019624476053,88.8007999897,98.4301061994,276.3729676848,0.094,109.957,25.3716571399,14.0614437428,39.4818525264,0.0268571429,15.7081428571
6,eu-central-1,t2.medium,0.5252200475634372,93.0010000229,98.4787724075,267.697259502,0.054,25.436,26.5717142923,14.0683960582,38.2424656431,0.0154285714,3.6337142857
7,us-east-1,t2.medium,0.5226759980042296,92.4006000519,98.5400348161,267.535638375,0.047,109.957,26.4001714434,14.0771478309,38.2193769107,0.0134285714,15.7081428571
8,eu-central-1,r4.large,0.5032856880431896,151.0009999752,97.5569,303.9249030737,0.16005,25.436,43.1431428501,13.9367,43.4178432962,0.0457285714,3.6337142857
9,us-east-1,r4.large,0.5027825683894882,147.6008000374,97.7248720207,303.494604122,0.133,109.957,42.1716571535,13.960696003,43.3563720174,0.038,15.7081428571
10,eu-central-1,c4.large,0.5015028987234719,144.8012000084,98.4266519792,275.6880305253,0.114,25.436,41.371771431,14.0609502827,39.3840043608,0.0325714286,3.6337142857
11,us-east-1,c4.large,0.49974648863839577,144.8008000374,98.53833557,275.7214815594,0.1,109.957,41.3716571535,14.0769050814,39.3887830799,0.0285714286,15.7081428571
12,eu-central-1,m3.large,0.4994173499355765,150.6010000706,98.8154823022,276.3567862809,0.158,25.436,43.028857163,14.1164974717,39.4795408973,0.0451428571,3.6337142857
13,us-east-1,m3.large,0.4905085262440758,172.4005999565,98.991596693,277.6238598512,0.133,109.957,49.2573142733,14.1416566704,39.6605514073,0.038,15.7081428571
14,eu-central-1,t2.small,0.47540687018938166,184.4009999275,99.7648364407,204.6536066844,0.027,25.436,52.6859999793,14.2521194915,29.2362295263,0.0077142857,3.6337142857
15,us-east-1,t2.small,0.4733310214236234,187.4009999752,99.7129870815,204.2750489197,0.023,109.957,53.5431428501,14.2447124402,29.1821498457,0.0065714286,15.7081428571
16,eu-central-1,t2.micro,0.4732204797541226,189.6007999897,99.7525652239,201.2847040711,0.014,25.436,54.1716571399,14.2503664606,28.7549577244,0.004,3.6337142857
17,us-east-1,t2.micro,0.4729031842812291,186.801199913,99.6138687108,201.2619706785,0.012,109.957,53.3717714037,14.230552673,28.7517100969,0.0034285714,15.7081428571
18,eu-central-1,m3.medium,0.4435933318908969,354.4032000065,99.6577696954,208.1565654692,0.079,25.436,101.2580571447,14.2368242422,29.7366522099,0.0225714286,3.6337142857
19,us-east-1,m3.medium,0.4435903686746754,352.0012000084,99.6320802848,207.9855973809,0.067,109.957,100.571771431,14.2331543264,29.7122281973,0.0191428571,15.7081428571
