-1,ideal,,0.0,17.143085725,13.0773751786,28.7577559604,0.0017142857,7.5997142857,17.143085725,13.0773751786,28.7577559604,0.0017142857,7.5997142857
-1,antiIdeal,,0.0,100.5150285721,14.2455268596,61.0447518149,0.0457285714,30.5751428571,100.5150285721,14.2455268596,61.0447518149,0.0457285714,30.5751428571
0,eu-central-1,r4.xlarge,0.563855899734556,60.0008000374,91.54162625,427.3132627041,0.3201,26.599,17.143085725,13.0773751786,61.0447518149,0.0457285714,7.5997142857
1,eu-central-1,c4.xlarge,0.5526166527116453,69.6012000561,93.7039040644,371.6033920464,0.227,26.599,19.8860571589,13.3862720092,53.0861988638,0.0324285714,7.5997142857
2,us-east-1,r4.xlarge,0.548342176409973,70.4007999897,92.96474241,426.3023531067,0.266,107.013,20.1145142828,13.2806774871,60.9003361581,0.038,30.5751428571
3,us-east-1,c4.xlarge,0.5409212667145822,73.8006000042,93.4236709633,371.1560286026,0.199,107.013,21.0858857155,13.346238709,53.0222898004,0.0284285714,30.5751428571
4,us-east-1,t2.large,0.5201323747440927,89.2010000706,98.2373915109,275.9120822516,0.094,107.013,25.4860000202,14.033913073,39.4160117502,0.0134285714,30.5751428571
5,eu-central-1,t2.medium,0.518314829438618,102.2009999752,98.6799762715,267.8798384085,0.054,26.599,29.2002857072,14.0971394674,38.2685483441,0.0077142857,7.5997142857
6,us-east-1,t2.medium,0.517269172341978,92.0010000229,98.4534745283,267.6543480014,0.047,107.013,26.2860000065,14.0647820755,38.2363354288,0.0067142857,30.5751428571
7,eu-central-1,t2.large,0.5136253316116097,113.4010000229,98.7790328218,277.3616995824,0.108,26.599,32.4002857208,14.1112904031,39.6230999403,0.0154285714,7.5997142857
8,eu-central-1,r4.large,0.4983368027613049,155.2012000084,97.3949769699,304.007713997,0.16005,26.599,44.3432000024,13.9135681386,43.4296734281,0.0228642857,7.5997142857
9,eu-central-1,m3.large,0.4958938922731466,150.6010001183,98.7918477693,277.8153844445,0.158,26.599,43.0288571766,14.1131211099,39.6879120635,0.0225714286,7.5997142857
10,eu-central-1,c4.large,0.49583042318378845,149.8010000706,98.4751895276,275.8557127081,0.114,26.599,42.8002857344,14.0678842182,39.4079589583,0.0162857143,7.5997142857
11,us-east-1,r4.large,0.49323358030114783,159.2010000229,97.4175748447,303.5044618812,0.133,107.013,45.4860000065,13.9167964064,43.3577802687,0.019,30.5751428571
12,us-east-1,c4.large,0.49140017760314025,152.0010000229,98.407745098,275.7294254013,0.1,107.013,43.4288571494,14.0582492997,39.3899179145,0.0142857143,30.5751428571
13,us-east-1,m3.large,0.48430440815249365,173.0008000374,98.8878492505,277.171173946,0.133,107.013,49.4288000107,14.1268356072,39.5958819923,0.019,30.5751428571
14,eu-central-1,t2.small,0.4695649351912762,180.8013999939,99.7186880174,204.6731830766,0.027,26.599,51.6575428554,14.2455268596,29.2390261538,0.0038571429,7.5997142857
15,us-east-1,t2.small,0.46755166962716543,182.4009999752,99.6382852272,204.2014002408,0.023,107.013,52.1145714215,14.2340407467,29.1716286058,0.0032857143,30.5751428571
16,eu-central-1,t2.micro,0.4663048484680986,188.2011999607,99.7102008045,201.3164906802,0.014,26.599,53.7717714173,14.2443144006,28.7594986686,0.002,7.5997142857
17,us-east-1,t2.micro,0.4650636355986294,188.601199913,99.6586577166,201.304291723,0.012,107.013,53.886057118,14.2369511024,28.7577559604,0.0017142857,30.5751428571
18,us-east-1,m3.medium,0.43335211306432697,351.4022000313,99.631937642,208.5693206313,0.067,107.013,100.4006285804,14.2331339489,29.795617233,0.0095714286,30.5751428571
19,eu-central-1,m3.medium,0.432168665693205,351.8026000023,99.659551979,208.6995683278,0.079,26.599,100.5150285721,14.2370788541,29.8142240468,0.0112857143,7.5997142857
