-1,ideal,,0.0,17.3146285738,12.7585450907,28.687440431,0.0017142857,7.218,17.3146285738,12.7585450907,28.687440431,0.0017142857,7.218
-1,antiIdeal,,0.0,100.4008571625,14.254100275,61.1504835528,0.0457285714,31.598,100.4008571625,14.254100275,61.1504835528,0.0457285714,31.598
0,eu-central-1,r4.xlarge,0.5569300659998249,71.0010000229,89.3098156349,428.0533848695,0.3201,25.263,20.2860000065,12.7585450907,61.1504835528,0.0457285714,7.218
1,eu-central-1,c4.xlarge,0.5530702626500512,69.4010000229,93.9463128773,370.752749601,0.227,25.263,19.8288571494,13.4209018396,52.9646785144,0.0324285714,7.218
2,us-east-1,r4.xlarge,0.5518832361277287,60.6012000084,91.6869672263,427.4608060254,0.266,110.593,17.3146285738,13.0981381752,61.0658294322,0.038,31.598
3,us-east-1,c4.xlarge,0.540707131986724,70.8008000374,93.8648825117,371.1433072576,0.199,110.593,20.2288000107,13.4092689302,53.0204724654,0.0284285714,31.598
4,eu-central-1,t2.medium,0.5244628582972977,93.0008000374,98.5661331809,267.5962384634,0.054,25.263,26.5716571535,14.0808761687,38.2280340662,0.0077142857,7.218
5,us-east-1,t2.large,0.5185120718969052,88.600799942,98.3728529748,276.0181127865,0.094,110.593,25.3145142691,14.0532647107,39.4311589695,0.0134285714,31.598
6,us-east-1,t2.medium,0.5160303637608672,90.4006000519,98.4733047943,266.8082402088,0.047,110.593,25.828742872,14.0676149706,38.115462887,0.0067142857,31.598
7,eu-central-1,t2.large,0.5144788601095097,113.2009999752,98.8015131685,277.2520983385,0.108,25.263,32.3431428501,14.1145018812,39.6074426198,0.0154285714,7.218
8,eu-central-1,c4.large,0.49801872359673516,147.0007999897,98.3738614144,275.5686680105,0.114,25.263,42.0002285685,14.0534087735,39.3669525729,0.0162857143,7.218
9,us-east-1,r4.large,0.4941306919556888,154.8009999275,97.4788951213,303.9778825922,0.133,110.593,44.2288571221,13.9255564459,43.4254117989,0.019,31.598
10,us-east-1,m3.large,0.49163765992688857,149.8011999607,98.8989922208,277.092019365,0.133,110.593,42.8003428459,14.1284274601,39.584574195,0.019,31.598
11,eu-central-1,m3.large,0.48834433139515665,172.8008000374,98.8197120058,277.6380841969,0.158,25.263,49.3716571535,14.1171017151,39.6625834567,0.0225714286,7.218
12,eu-central-1,r4.large,0.48754698236184446,187.8010000229,96.8364247436,304.4219758638,0.16005,25.263,53.657428578,13.8337749634,43.4888536948,0.0228642857,7.218
13,us-east-1,c4.large,0.48487544945953065,168.4010000229,98.138907889,275.7504033996,0.1,110.593,48.1145714351,14.0198439841,39.3929147714,0.0142857143,31.598
14,eu-central-1,t2.micro,0.4665974451140279,191.8012000561,99.6768765078,201.4085238193,0.014,25.263,54.8003428732,14.2395537868,28.7726462599,0.002,7.218
15,us-east-1,t2.small,0.4664113225520973,184.6009999275,99.6876337037,204.2646110832,0.023,110.593,52.7431428364,14.2410905291,29.1806587262,0.0032857143,31.598
16,eu-central-1,t2.small,0.45937152128734837,219.2010000706,99.778701925,204.6447909681,0.027,25.263,62.628857163,14.254100275,29.2349701383,0.0038571429,7.218
17,us-east-1,t2.micro,0.4561914864269664,220.6010000229,99.6765355857,200.812083017,0.012,110.593,63.0288571494,14.2395050837,28.687440431,0.0017142857,31.598
18,eu-central-1,m3.medium,0.43440328378481374,350.4025999546,99.6464805144,207.7152109979,0.079,25.263,100.1150285585,14.2352115021,29.6736015711,0.0112857143,7.218
19,us-east-1,m3.medium,0.4343937506239609,351.4030000687,99.6248584579,208.730288558,0.067,110.593,100.4008571625,14.2321226368,29.8186126511,0.0095714286,31.598
