-1,ideal,,0.0,18.2860571453,13.0504797082,28.7295461525,0.0022857143,72.562,18.2860571453,13.0504797082,28.7295461525,0.0022857143,72.562
-1,antiIdeal,,0.0,100.2299428531,14.2560014995,61.1691162646,0.0457142857,90.1945714286,100.2299428531,14.2560014995,61.1691162646,0.0457142857,90.1945714286
0,ap-southeast-2,c4.xlarge,0.5375999120143125,69.4010000229,92.9494883363,370.9223371522,0.261,315.681,19.8288571494,13.2784983338,52.9889053075,0.0372857143,90.1945714286
1,ap-southeast-2,r4.xlarge,0.5372486058458522,64.0012000084,91.3533579575,427.405203203,0.3192,315.681,18.2860571453,13.0504797082,61.0578861719,0.0456,90.1945714286
2,ap-southeast-2,t2.medium,0.5345704340228692,89.0011999607,98.3958745038,267.5286775163,0.064,315.681,25.4289142745,14.0565535005,38.2183825023,0.0091428571,90.1945714286
3,ap-northeast-1,r4.xlarge,0.525355910134959,71.6010000229,92.2209549033,428.1838138524,0.32,253.967,20.457428578,13.174422129,61.1691162646,0.0457142857,72.562
4,ap-southeast-2,t2.large,0.5241735354699462,116.2009999752,98.7523702897,278.6041227746,0.128,315.681,33.2002857072,14.10748147,39.8005889678,0.0182857143,90.1945714286
5,ap-northeast-1,c4.xlarge,0.524112025299141,80.2009999752,93.9113273111,372.1765451513,0.252,253.967,22.9145714215,13.4159039016,53.1680778788,0.036,72.562
6,ap-northeast-1,t2.medium,0.5236480753267424,91.6010000229,98.4642526414,267.1904979598,0.064,253.967,26.1717142923,14.0663218059,38.1700711371,0.0091428571,72.562
7,ap-northeast-1,t2.large,0.5182341552393971,103.8009999752,98.7008694862,276.3847170579,0.128,253.967,29.6574285643,14.1001242123,39.4835310083,0.0182857143,72.562
8,ap-southeast-2,c4.large,0.5151005477038424,143.0009999752,98.2590916667,275.7510200889,0.13,315.681,40.8574285643,14.0370130952,39.3930028698,0.0185714286,90.1945714286
9,ap-southeast-2,m3.large,0.5129809235085893,149.2009999752,98.7701700486,279.4030003596,0.186,315.681,42.6288571358,14.1100242927,39.9147143371,0.0265714286,90.1945714286
10,ap-southeast-2,r4.large,0.51257324898438,148.4012000561,97.35664964,303.6142271346,0.1596,315.681,42.4003428732,13.9080928057,43.3734610192,0.0228,90.1945714286
11,ap-southeast-2,t2.small,0.5037308898967786,184.0007999897,99.6161921085,204.4406995813,0.032,315.681,52.5716571399,14.2308845869,29.2058142259,0.0045714286,90.1945714286
12,ap-northeast-1,r4.large,0.5027736276898391,142.2009999275,96.9664948635,303.9006054486,0.16,253.967,40.6288571221,13.8523564091,43.4143722069,0.0228571429,72.562
13,ap-northeast-1,m3.large,0.5011598697436042,148.600799942,98.6979017808,277.8458585377,0.193,253.967,42.457371412,14.0997002544,39.6922655054,0.0275714286,72.562
14,ap-northeast-1,c4.large,0.49718010278199465,160.0009999275,98.0096183831,276.418532036,0.126,253.967,45.7145714079,14.0013740547,39.4883617194,0.018,72.562
15,ap-southeast-2,t2.micro,0.4969815190426651,206.4012000084,99.6533821149,201.6000000065,0.016,315.681,58.971771431,14.236197445,28.8000000009,0.0022857143,90.1945714286
16,ap-northeast-1,t2.small,0.4918775106453933,179.6011999607,99.7920104965,204.1972167221,0.032,253.967,51.3146285602,14.2560014995,29.1710309603,0.0045714286,72.562
17,ap-northeast-1,t2.micro,0.4901584449783002,184.8009999275,99.7377496528,201.1068230677,0.016,253.967,52.8002856936,14.2482499504,28.7295461525,0.0022857143,72.562
18,ap-southeast-2,m3.medium,0.46069863883339335,350.2006000519,99.677814226,207.942388801,0.093,315.681,100.0573143005,14.2396877466,29.706055543,0.0132857143,90.1945714286
19,ap-northeast-1,m3.medium,0.4447009781840763,350.8047999859,99.598116716,207.670833563,0.096,253.967,100.2299428531,14.228302388,29.6672619376,0.0137142857,72.562
