-1,ideal,,0.0,19.7717714446,13.0432569614,28.7126032136,0.0017142857,7.2971428571,19.7717714446,13.0432569614,28.7126032136,0.0017142857,7.2971428571
-1,antiIdeal,,0.0,122.6295428821,14.255009044,61.3202224867,0.0457285714,31.0217142857,122.6295428821,14.255009044,61.3202224867,0.0457285714,31.0217142857
0,us-east-1,r4.xlarge,0.5640403183936822,69.2012000561,91.3027987298,428.1404372624,0.266,108.576,19.7717714446,13.0432569614,61.1629196089,0.038,31.0217142857
1,eu-central-1,c4.xlarge,0.5630439119325386,74.6012000084,94.8004229825,371.3460219688,0.227,25.54,21.3146285738,13.5429175689,53.0494317098,0.0324285714,7.2971428571
2,eu-central-1,r4.xlarge,0.5606614932802507,87.8009999752,94.1149121511,429.2415574068,0.3201,25.54,25.0859999929,13.4449874502,61.3202224867,0.0457285714,7.2971428571
3,us-east-1,c4.xlarge,0.5560115163007995,72.000799942,93.1579252178,370.5913243042,0.199,108.576,20.5716571263,13.3082750311,52.9416177577,0.0284285714,31.0217142857
4,eu-central-1,t2.medium,0.5366956544691297,90.2009999752,98.4176591012,268.0967655022,0.054,25.54,25.7717142786,14.0596655859,38.2995379289,0.0077142857,7.2971428571
5,eu-central-1,t2.large,0.5353673513524959,94.2010000229,98.5928406411,275.7870028112,0.108,25.54,26.9145714351,14.0846915202,39.3981432587,0.0154285714,7.2971428571
6,us-east-1,t2.large,0.5319291386745046,89.4010000706,98.3874651526,276.7647905289,0.094,108.576,25.5431428773,14.0553521647,39.5378272184,0.0134285714,31.0217142857
7,us-east-1,t2.medium,0.528438647568831,92.4009999752,98.5515887271,267.1788226567,0.047,108.576,26.4002857072,14.0787983896,38.1684032367,0.0067142857,31.0217142857
8,eu-central-1,r4.large,0.5114153938444355,146.000799942,97.4607783677,303.1064879183,0.16005,25.54,41.7145142691,13.9229683382,43.3009268455,0.0228642857,7.2971428571
9,eu-central-1,c4.large,0.5056920933248109,147.8010000706,98.4709104027,275.8056204956,0.114,25.54,42.228857163,14.0672729147,39.4008029279,0.0162857143,7.2971428571
10,eu-central-1,m3.large,0.5048992322115007,150.6010000229,98.8548439265,277.8966334015,0.158,25.54,43.0288571494,14.1221205609,39.6995190574,0.0225714286,7.2971428571
11,us-east-1,m3.large,0.5019983218814581,150.0008000374,98.8150860927,276.7902652185,0.133,108.576,42.8573714393,14.1164408704,39.5414664598,0.019,31.0217142857
12,us-east-1,c4.large,0.49669759294990334,162.8010000229,98.01087939,275.3088131688,0.1,108.576,46.5145714351,14.0015541986,39.3298304527,0.0142857143,31.0217142857
13,us-east-1,r4.large,0.4932141605553585,187.000799942,97.5224287234,303.6856842894,0.133,108.576,53.4287999834,13.9317755319,43.3836691842,0.019,31.0217142857
14,eu-central-1,t2.small,0.47684222310636737,182.8014000416,99.6980306367,204.5370518969,0.027,25.54,52.2289714405,14.2425758052,29.2195788424,0.0038571429,7.2971428571
15,us-east-1,t2.small,0.4752278777122123,185.4006000042,99.7850633083,204.2936733582,0.023,108.576,52.9716000012,14.255009044,29.1848104797,0.0032857143,31.0217142857
16,us-east-1,t2.micro,0.4737581740572758,187.8009999752,99.656254692,200.988222495,0.012,108.576,53.6574285643,14.2366078131,28.7126032136,0.0017142857,31.0217142857
17,eu-central-1,t2.micro,0.4736407910215775,190.2010000229,99.7386812114,201.4396558813,0.014,25.54,54.3431428637,14.2483830302,28.7770936973,0.002,7.2971428571
18,eu-central-1,m3.medium,0.4407450627142908,350.0018000603,99.6620905232,208.636516024,0.079,25.54,100.0005143029,14.2374415033,29.8052165749,0.0112857143,7.2971428571
19,us-east-1,m3.medium,0.43272599189064886,429.2034000874,99.6565407099,208.6003823831,0.067,108.576,122.6295428821,14.2366486728,29.8000546262,0.0095714286,31.0217142857
