-1,ideal,,0.0,17.7145714351,13.0883773497,28.7333711208,0.0022857143,81.3971428571,17.7145714351,13.0883773497,28.7333711208,0.0022857143,81.3971428571
-1,antiIdeal,,0.0,100.0582285609,14.2537904672,61.129167916,0.0457142857,94.1857142857,100.0582285609,14.2537904672,61.129167916,0.0457142857,94.1857142857
0,ap-southeast-2,c4.xlarge,0.5353720209217099,70.0007999897,93.3159071887,371.1138800158,0.261,329.65,20.0002285685,13.3308438841,53.0162685737,0.0372857143,94.1857142857
1,ap-southeast-2,r4.xlarge,0.5349331668140291,64.0012000084,91.6186414481,427.3538919176,0.3192,329.65,18.2860571453,13.0883773497,61.0505559882,0.0456,94.1857142857
2,ap-southeast-2,t2.medium,0.5327079576218224,90.4007999897,98.4289268224,267.6189630413,0.064,329.65,25.8287999971,14.0612752603,38.2312804345,0.0091428571,94.1857142857
3,ap-southeast-2,t2.large,0.530769947052077,94.6010000706,98.4360172787,275.8148275075,0.128,329.65,27.028857163,14.0622881827,39.4021182154,0.0182857143,94.1857142857
4,ap-northeast-1,t2.large,0.5296269224005277,80.4007999897,98.2944598853,275.6518658673,0.128,284.89,22.9716571399,14.0420656979,39.378837981,0.0182857143,81.3971428571
5,ap-northeast-1,r4.xlarge,0.5294869150592967,62.0010000229,91.9787517137,427.9041754118,0.32,284.89,17.7145714351,13.1398216734,61.129167916,0.0457142857,81.3971428571
6,ap-northeast-1,c4.xlarge,0.5275458492389771,73.8007999897,93.7148204324,371.5815650805,0.252,284.89,21.0859428542,13.3878314903,53.0830807258,0.036,81.3971428571
7,ap-northeast-1,t2.medium,0.5256049264149554,91.2014000416,98.4566087892,267.3109344344,0.064,284.89,26.057542869,14.065229827,38.1872763478,0.0091428571,81.3971428571
8,ap-southeast-2,c4.large,0.5127422641440464,146.6007999897,98.318271401,275.9479639404,0.13,329.65,41.8859428542,14.045467343,39.4211377058,0.0185714286,94.1857142857
9,ap-southeast-2,r4.large,0.5089019716665761,155.8008000374,97.523209693,303.2830001168,0.1596,329.65,44.5145142964,13.931887099,43.3261428738,0.0228,94.1857142857
10,ap-northeast-1,r4.large,0.506831368313182,137.0007999897,97.1984383902,304.0351387664,0.16,284.89,39.1430857113,13.8854911986,43.4335912523,0.0228571429,81.3971428571
11,ap-southeast-2,m3.large,0.5048678664774604,171.4006000519,98.7156751983,276.9203472553,0.186,329.65,48.9716000148,14.102239314,39.5600496079,0.0265714286,94.1857142857
12,ap-northeast-1,c4.large,0.5048629274475738,145.4012000084,98.4817219924,275.7387566018,0.126,284.89,41.5432000024,14.0688174275,39.3912509431,0.018,81.3971428571
13,ap-northeast-1,m3.large,0.5007558705800578,157.2010000229,98.3757958791,277.1736859315,0.193,284.89,44.9145714351,14.0536851256,39.5962408474,0.0275714286,81.3971428571
14,ap-northeast-1,t2.small,0.49294250953672225,186.8011999607,99.6460172087,204.6594797009,0.032,284.89,53.3717714173,14.2351453155,29.2370685287,0.0045714286,81.3971428571
15,ap-southeast-2,t2.small,0.4913285099579944,223.4005999565,99.7765332702,204.1973692803,0.032,329.65,63.8287428447,14.2537904672,29.1710527543,0.0045714286,94.1857142857
16,ap-southeast-2,t2.micro,0.48783976841925425,236.0013999462,99.698458107,201.1393882405,0.016,329.65,67.4289714132,14.2426368724,28.7341983201,0.0022857143,94.1857142857
17,ap-northeast-1,t2.micro,0.47722044749978343,237.8010000229,99.763786829,201.1335978453,0.016,284.89,67.9431428637,14.251969547,28.7333711208,0.0022857143,81.3971428571
18,ap-southeast-2,m3.medium,0.4599095792488146,348.4032000065,99.5826442854,207.6371590748,0.093,329.65,99.5437714304,14.2260920408,29.6624512964,0.0132857143,94.1857142857
19,ap-northeast-1,m3.medium,0.44829045495189734,350.203799963,99.6532939938,208.4461300301,0.096,284.89,100.0582285609,14.2361848563,29.7780185757,0.0137142857,81.3971428571
