-1,,,0.0,63.6008000374,94.4323213716,304.1474733391,0.56,178.844,0.171547487,0.254707919,0.820362868,0.001510462,0.4823876232
0,ap-northeast-1,r4.xlarge,0.9948556791207727,67.4009999752,92.3976276452,428.1374803772,0.32,277.77,0.1288716391,0.1766655351,0.8186047521,0.0006118444,0.5311000611
1,ap-northeast-1,c4.xlarge,0.9925249213827916,80.2010000706,94.4323213716,370.8384808793,0.252,277.77,0.1672208018,0.1968934113,0.7732061702,0.0005254254,0.5791563955
2,ap-southeast-2,r4.xlarge,0.9892205730880239,63.6008000374,90.994058361,427.8097359605,0.3192,316.142,0.1170406502,0.1674507828,0.7872720097,0.0005874042,0.5817767263
3,ap-southeast-2,c4.xlarge,0.9827972429218306,68.2010000229,93.7127224362,370.711478748,0.261,316.142,0.1361825733,0.1871239379,0.7402302475,0.0005211603,0.6312668593
4,ap-northeast-1,t2.large,0.9693173450555602,92.0009999752,98.4600242549,276.7711214646,0.128,277.77,0.2218876505,0.2374654999,0.667515504,0.0003087099,0.6699245954
5,ap-northeast-1,r4.large,0.968906372919655,142.8012000084,97.4074728849,304.1474733391,0.16,277.77,0.3196792069,0.2180593978,0.6808739916,0.000358181,0.6218245596
6,ap-northeast-1,t2.medium,0.9653823840437362,92.0007999897,98.5360756876,267.7897032963,0.064,277.77,0.2251023626,0.2410925062,0.6552127253,0.0001565916,0.6796319518
7,ap-southeast-2,r4.large,0.9561891220587131,146.2009999275,97.3789378983,303.9254599192,0.1596,316.142,0.309477212,0.2061310267,0.6433472004,0.0003378401,0.6692070835
8,ap-southeast-2,t2.large,0.9524398410823349,89.6006000519,98.399628249,275.8561891912,0.128,316.142,0.2035572183,0.2235471035,0.6266980187,0.0002907941,0.7182204816
9,ap-northeast-1,m3.large,0.9510389322847768,161.0006000042,98.5143594367,277.3243301633,0.193,277.77,0.3696611638,0.226191286,0.6367431838,0.0004431325,0.6377664522
10,ap-southeast-2,t2.medium,0.9479359067884988,92.0009999275,98.4308961008,267.568819188,0.064,316.142,0.2112362366,0.2259994139,0.6143436533,0.0001469454,0.7258687011
11,ap-southeast-2,c4.large,0.9418056778063566,149.4010000229,98.5257801148,276.1440576899,0.13,316.142,0.3274029398,0.2159130799,0.6051524171,0.0002848869,0.692805404
12,ap-northeast-1,c4.large,0.9410241303260146,182.401199913,97.9450651225,276.7107553417,0.126,277.77,0.4113852117,0.2209039818,0.6240897139,0.0002841787,0.62647872
13,ap-southeast-2,m3.large,0.9351837210972963,171.0010000229,98.7703254518,277.2574325597,0.186,316.142,0.368093746,0.2126112659,0.5968194744,0.0004003803,0.6805217105
14,ap-northeast-1,t2.small,0.8887415524713667,184.8009999752,99.7830514645,204.5868681297,0.032,277.77,0.4575627631,0.2470603987,0.5065520895,0.0000792312,0.6877517369
15,ap-northeast-1,t2.micro,0.8845913875818016,186.6012000561,99.7246646855,201.2577434632,0.016,277.77,0.463006228,0.2474428933,0.4993729334,0.0000397002,0.6892197902
16,ap-southeast-2,t2.micro,0.8704808706138493,188.0009999752,99.7021060893,201.0112166271,0.016,316.142,0.4363438625,0.2314051631,0.4665401284,0.0000371355,0.7337547215
17,ap-southeast-2,t2.small,0.8567916054289415,220.8009999275,99.8308288025,204.6413758816,0.032,316.142,0.4930570094,0.222926028,0.4569719558,0.0000714572,0.7059570795
18,ap-southeast-2,m3.medium,0.7781379372595114,350.00260005,99.6455731706,207.9472041293,0.093,316.142,0.6666790294,0.1898032014,0.3960943153,0.0001771448,0.6021819314
19,ap-northeast-1,m3.medium,0.7764045229858713,349.0034000397,99.6535695141,207.9793688937,0.096,277.77,0.695030371,0.1984572568,0.4141850134,0.0001911813,0.5531710755
