-1,,,0.0,60.0008000374,97.3949769699,304.007713997,0.56,177.806,0.1620330852,0.2630166364,0.820977517,0.0015122886,0.4801678434
0,us-east-1,t2.large,0.9810948669104318,89.2010000706,98.2373915109,275.9120822516,0.094,107.013,0.2750358883,0.3028980417,0.8507272854,0.0002898328,0.3299561159
1,us-east-1,t2.medium,0.9802945294510961,92.0010000229,98.4534745283,267.6543480014,0.047,107.013,0.2891342401,0.3094126209,0.8411651667,0.0001477083,0.3363128926
2,us-east-1,c4.xlarge,0.9713477955865105,73.8006000042,93.4236709633,371.1560286026,0.199,107.013,0.1825812965,0.231128405,0.9182330345,0.0004923223,0.2647481494
3,us-east-1,r4.xlarge,0.9614993766820645,70.4007999897,92.96474241,426.3023531067,0.266,107.013,0.1548170721,0.2044370125,0.9374734682,0.0005849556,0.2353302709
4,us-east-1,c4.large,0.9465647051098492,152.0010000229,98.407745098,275.7294254013,0.1,107.013,0.4383019402,0.2837633016,0.7950785989,0.0002883546,0.3085769536
5,us-east-1,r4.large,0.9461028273588596,159.2010000229,97.4175748447,303.5044618812,0.133,107.013,0.427932001,0.2618582655,0.8158194463,0.0003575038,0.287650751
6,us-east-1,m3.large,0.9307572997539251,173.0008000374,98.8878492505,277.171173946,0.133,107.013,0.4835826465,0.2764174954,0.774766185,0.0003717699,0.2991294245
7,eu-central-1,c4.xlarge,0.9061553057293221,69.6012000561,93.7039040644,371.6033920464,0.227,26.599,0.1782763655,0.2400129802,0.9518241366,0.0005814373,0.0681306219
8,eu-central-1,t2.medium,0.9041519703660478,102.2009999752,98.6799762715,267.8798384085,0.054,26.599,0.33576287,0.3241951845,0.8800706783,0.0001774072,0.0873861957
9,eu-central-1,t2.large,0.8995854399575726,113.4010000229,98.7790328218,277.3616995824,0.108,26.599,0.3581506805,0.3119705983,0.8759824112,0.0003410929,0.0840067543
10,eu-central-1,r4.xlarge,0.8992473324583604,60.0008000374,91.54162625,427.3132627041,0.3201,26.599,0.1357761496,0.2071500636,0.9669695982,0.0007243561,0.0601910275
11,us-east-1,t2.small,0.8852798924332643,182.4009999752,99.6382852272,204.2014002408,0.023,107.013,0.5876328584,0.3210000513,0.6578661988,0.000074098,0.3447588285
12,eu-central-1,r4.large,0.8796704596614253,155.2012000084,97.3949769699,304.007713997,0.16005,26.599,0.4360179208,0.2736187307,0.8540707891,0.00044964,0.0747264884
13,eu-central-1,c4.large,0.8768532355572118,149.8010000706,98.4751895276,275.8557127081,0.114,26.599,0.4538557529,0.2983526897,0.8357667982,0.0003453886,0.0805876407
14,eu-central-1,m3.large,0.8768057001227414,150.6010001183,98.7918477693,277.8153844445,0.158,26.599,0.4534007227,0.2974236236,0.83639349,0.0004756762,0.0800791881
15,us-east-1,t2.micro,0.875752548013069,188.601199913,99.6586577166,201.304291723,0.012,107.013,0.6040770655,0.3192000344,0.6447642214,0.0000384352,0.3427555023
16,eu-central-1,t2.small,0.8094949607382022,180.8013999939,99.7186880174,204.6731830766,0.027,26.599,0.6193006178,0.3415672948,0.7010688454,0.0000924833,0.0911097875
17,eu-central-1,t2.micro,0.7977869280842181,188.2011999607,99.7102008045,201.3164906802,0.014,26.599,0.6395423806,0.3388336483,0.6841105568,0.0000475746,0.0903883067
18,us-east-1,m3.medium,0.7045000056489304,351.4022000313,99.631937642,208.5693206313,0.067,107.013,0.8096674923,0.2295624247,0.4805655707,0.000154375,0.2465691659
19,eu-central-1,m3.medium,0.6336932872193882,351.8026000023,99.659551979,208.6995683278,0.079,26.599,0.8339455616,0.2362422593,0.4947208426,0.0001872689,0.0630527403
