-1,,,0.0,69.2012000561,94.8004229825,303.6856842894,0.56,171.788,0.1879854277,0.2575258528,0.8249637752,0.001521243,0.4666630149
0,us-east-1,t2.large,0.9860721026984282,89.4010000706,98.3874651526,276.7647905289,0.094,108.576,0.2745151283,0.3021090099,0.8498352582,0.0002886368,0.3333939726
1,us-east-1,t2.medium,0.9854309235249828,92.4009999752,98.5515887271,267.1788226567,0.047,108.576,0.2901396536,0.3094525365,0.8389429886,0.0001475803,0.3409292436
2,us-east-1,c4.xlarge,0.9757245942730753,72.000799942,93.1579252178,370.5913243042,0.199,108.576,0.1783437384,0.2307492785,0.9179431649,0.0004929168,0.2689393694
3,us-east-1,r4.xlarge,0.9651149609233151,69.2012000561,91.3027987298,428.1404372624,0.266,108.576,0.1516541951,0.2000897736,0.9382683152,0.0005829381,0.2379439355
4,us-east-1,m3.large,0.9576401375964954,150.0008000374,98.8150860927,276.7902652185,0.133,108.576,0.4318178767,0.2844659538,0.7968156475,0.0003828765,0.3125653848
5,us-east-1,c4.large,0.9486249914790543,162.8010000229,98.01087939,275.3088131688,0.1,108.576,0.4628952817,0.2786762588,0.782790957,0.000284332,0.3087162738
6,us-east-1,r4.large,0.9380236386752538,187.000799942,97.5224287234,303.6856842894,0.133,108.576,0.4852767384,0.2530757416,0.7880800425,0.0003451419,0.2817603302
7,eu-central-1,t2.medium,0.9161858925466793,90.2009999752,98.4176591012,268.0967655022,0.054,25.54,0.3000863557,0.3274220537,0.8919211689,0.0001796506,0.0849680771
8,eu-central-1,t2.large,0.915185039591813,94.2010000229,98.5928406411,275.7870028112,0.108,25.54,0.3051387247,0.3193649075,0.8933375898,0.0003498369,0.0827299394
9,eu-central-1,c4.xlarge,0.9116243281384662,74.6012000084,94.8004229825,371.3460219688,0.227,25.54,0.1906577356,0.2422807404,0.9490462841,0.0005801422,0.0652723893
10,eu-central-1,r4.xlarge,0.9062472973789643,87.8009999752,94.1149121511,429.2415574068,0.3201,25.54,0.1956127393,0.2096795684,0.9563116241,0.000713154,0.0569008253
11,eu-central-1,r4.large,0.8955476351607244,146.000799942,97.4607783677,303.1064879183,0.16005,25.54,0.4157210695,0.2775087468,0.8630620749,0.0004557246,0.0727223147
12,us-east-1,t2.small,0.8943001119990039,185.4006000042,99.7850633083,204.2936733582,0.023,108.576,0.5926788298,0.3189876114,0.6530752071,0.0000735252,0.3470900127
13,eu-central-1,c4.large,0.8892471319188012,147.8010000706,98.4709104027,275.8056204956,0.114,25.54,0.4491981348,0.2992736806,0.8382309337,0.0003464698,0.0776213988
14,us-east-1,t2.micro,0.889054732176107,187.8009999752,99.656254692,200.988222495,0.012,108.576,0.601797712,0.3193428473,0.6440554228,0.0000384533,0.3479256681
15,eu-central-1,m3.large,0.8879452502870215,150.6010000229,98.8548439265,277.8966334015,0.158,25.54,0.4533958183,0.2976100613,0.8366290494,0.0004756711,0.0768901216
16,eu-central-1,t2.small,0.8215032654655554,182.8014000416,99.6980306367,204.5370518969,0.027,25.54,0.6239146515,0.3402767267,0.6981000333,0.000092153,0.0871699024
17,eu-central-1,t2.micro,0.8104650464543653,190.2010000229,99.7386812114,201.4396558813,0.014,25.54,0.6435321891,0.3374590662,0.6815574193,0.0000473681,0.0864128585
18,us-east-1,m3.medium,0.6589341854905114,429.2034000874,99.6565407099,208.6003823831,0.067,108.576,0.8593528556,0.1995327456,0.4176605643,0.0001341477,0.2173913246
19,eu-central-1,m3.medium,0.6555454857985783,350.0018000603,99.6620905232,208.636516024,0.079,25.54,0.832829564,0.2371460243,0.4964507572,0.0001879806,0.0607724505
