-1,,,0.0,68.600799942,97.5180613333,306.5760044373,0.56,180.885,0.1827410455,0.2597717884,0.8166671471,0.0014917462,0.4818473552
0,ap-northeast-1,r4.xlarge,0.9954868543874354,71.400799942,92.7062324978,426.5333940244,0.32,260.411,0.1391119658,0.1806218733,0.8310256881,0.000623464,0.5073652696
1,ap-northeast-1,c4.xlarge,0.9945211519922287,68.600799942,93.8186473712,371.0419273849,0.252,260.411,0.1465929214,0.2004808925,0.7928788023,0.0005384983,0.55647178
2,ap-southeast-2,r4.xlarge,0.9894939770966641,69.4014000893,93.777834004,427.8165357302,0.3192,314.903,0.1276050337,0.1724248164,0.7866057946,0.0005868978,0.578997079
3,ap-southeast-2,c4.xlarge,0.9830771682566847,72.0010000706,94.5226944283,371.1674863257,0.261,314.903,0.1437011307,0.1886504084,0.7407839809,0.0005209094,0.6284901198
4,ap-northeast-1,t2.large,0.9735349000518889,113.2007999897,98.8191281536,276.5864218098,0.128,260.411,0.2770956199,0.2418918203,0.6770348443,0.0003133215,0.6374402608
5,ap-northeast-1,t2.medium,0.9733967986673565,92.8010000706,98.5400669179,267.7939855455,0.064,260.411,0.2335773896,0.2480224522,0.6740295908,0.0001610861,0.6554468331
6,ap-northeast-1,c4.large,0.963412075596231,146.4009999752,98.4068823405,275.7353187336,0.126,260.411,0.3500042918,0.2352636332,0.65920687,0.0003012311,0.6225706631
7,ap-northeast-1,m3.large,0.9628776915944102,150.600799942,98.873027832,278.0676394027,0.193,260.411,0.3573679176,0.2346205868,0.6598401421,0.000457979,0.617941849
8,ap-northeast-1,r4.large,0.9591287099689446,184.000799942,97.7370850694,304.3554264115,0.16,260.411,0.4075295047,0.2164705038,0.6740938964,0.0003543719,0.5767646982
9,ap-southeast-2,r4.large,0.9588123671689228,149.0009999275,97.5180613333,306.5760044373,0.1596,314.903,0.3142167772,0.2056483578,0.6465146148,0.0003365682,0.6640747769
10,ap-southeast-2,t2.large,0.9536269819795578,88.600799942,98.3343893633,275.640706691,0.128,314.903,0.2018553244,0.2240309352,0.6279801572,0.0002916168,0.7174297215
11,ap-southeast-2,t2.medium,0.9494302233038593,91.0009999275,98.39913234,267.6136631786,0.064,314.903,0.20946379,0.2264926232,0.6159863318,0.0001473136,0.724835726
12,ap-southeast-2,c4.large,0.9438943004100746,150.4009999752,98.4266782067,275.7120450788,0.13,314.903,0.3301815867,0.2160801909,0.6052821492,0.0002853944,0.6913196868
13,ap-southeast-2,m3.large,0.9380818546749504,172.6009999752,98.8416116526,278.0131486497,0.186,314.903,0.3713644552,0.2126654032,0.598166879,0.0004001934,0.677538259
14,ap-northeast-1,t2.small,0.8985999979099119,183.8010000706,99.6451963703,204.2894765033,0.032,260.411,0.4694976085,0.2545317021,0.5218329641,0.0000817402,0.6651886643
15,ap-northeast-1,t2.micro,0.8938766793295267,187.6012001038,99.6948406448,201.6452335094,0.016,260.411,0.4786617786,0.2543699599,0.514494929,0.0000408238,0.6644349416
16,ap-southeast-2,t2.micro,0.8768178972876377,185.0007999897,99.6820189397,201.6084576932,0.016,314.903,0.4313185437,0.2324027963,0.4700383261,0.0000373031,0.7341779244
17,ap-southeast-2,t2.small,0.8580342340852858,227.4007999897,99.7016323513,204.607683839,0.032,314.903,0.5051109863,0.2214609177,0.4544820818,0.0000710796,0.699474078
18,ap-northeast-1,m3.medium,0.7804682091604177,350.0032000065,99.6898202024,207.8774589463,0.096,260.411,0.7093355924,0.2020368319,0.4212958067,0.0001945588,0.5277631489
19,ap-southeast-2,m3.medium,0.7687932796484369,375.4033999443,99.5781749597,208.5089083719,0.093,314.903,0.6929572323,0.1838113787,0.3848866475,0.0001716687,0.5812795285
