-1,,,0.0,66.6010001183,93.7885364647,303.7627483547,0.56,176.328,0.1802031129,0.2537647512,0.821894457,0.0015151986,0.4770927528
0,us-east-1,t2.medium,0.9844682175507147,89.6007999897,98.4439683105,267.8687839548,0.047,109.908,0.2811677874,0.3089176967,0.8405736702,0.0001474863,0.3448918892
1,us-east-1,t2.large,0.983930805188607,90.6011999607,98.5442161252,276.3023958353,0.094,109.908,0.2778311019,0.3021885821,0.8472889888,0.0002882536,0.3370359417
2,us-east-1,c4.xlarge,0.9742318658467017,70.6009999752,93.6149606774,370.2138374129,0.199,109.908,0.1749316929,0.2319545553,0.9172976778,0.0004930724,0.2723246486
3,us-east-1,r4.xlarge,0.963779422311073,66.6010001183,93.7885364647,427.1994829902,0.266,109.908,0.1460986674,0.2057383548,0.9371221912,0.0005835084,0.2410986668
4,us-east-1,m3.large,0.9553277830480025,149.2008000851,98.7750838372,277.3169570087,0.133,109.908,0.4289188164,0.2839561988,0.7972240156,0.0003823452,0.3159608343
5,us-east-1,r4.large,0.9537482422626681,157.8009999275,97.2756896667,303.7627483547,0.133,109.908,0.4236893566,0.2611813258,0.8155907977,0.0003570997,0.2950985724
6,us-east-1,c4.large,0.9475242097115979,160.2012000084,97.8735942858,275.9822831136,0.1,109.908,0.4558799169,0.2785160537,0.7853547931,0.0002845671,0.3127620137
7,eu-central-1,t2.large,0.9102618229771533,94.0010001183,98.4951129367,276.7882398091,0.108,25.871,0.303674086,0.3181925018,0.8941757602,0.0003488984,0.0835773265
8,eu-central-1,c4.xlarge,0.9072242140914862,74.8009999752,93.4775945019,371.4436594664,0.227,25.871,0.1912493678,0.239001228,0.9496980663,0.000580388,0.0661463402
9,eu-central-1,t2.medium,0.905286233089865,105.8009999752,98.7279500208,267.6172496941,0.054,25.871,0.3465081171,0.3233432205,0.876471388,0.000176855,0.0847299317
10,eu-central-1,r4.xlarge,0.901253990116056,81.8011999607,90.5109786764,429.0363934646,0.3201,25.871,0.1830846234,0.2025785496,0.9602544528,0.0007164368,0.0579035796
11,us-east-1,t2.micro,0.8907474251289236,183.2009999752,99.7330202287,201.0592837527,0.012,109.908,0.5912359269,0.3218636616,0.6488691219,0.000038727,0.3547008928
12,us-east-1,t2.small,0.8902503872964187,185.8010000229,99.7363240332,204.1356070207,0.023,109.908,0.5928530563,0.3182382469,0.6513550438,0.0000733883,0.3506939882
13,eu-central-1,r4.large,0.8834756605544271,157.200799942,97.3858757853,303.3248575861,0.16005,25.871,0.4413395817,0.2734098154,0.8515813267,0.0004493387,0.0726325586
14,eu-central-1,c4.large,0.8825222039883501,148.6010000229,98.5143416465,274.9302789681,0.114,25.871,0.452087799,0.2997095031,0.8364184943,0.0003468214,0.0787071651
15,eu-central-1,m3.large,0.8773738206252194,157.4007999897,98.957506668,278.0179136035,0.158,25.871,0.4692140965,0.2949937808,0.8287754837,0.0004710003,0.077121831
16,eu-central-1,t2.small,0.8166932645636104,181.0009999275,99.7453798331,204.6437173323,0.027,25.871,0.6198851112,0.3416040568,0.7008557606,0.0000924685,0.0886019841
17,eu-central-1,t2.micro,0.7501405777854295,237.2007999897,99.7896525,201.2807627288,0.014,25.871,0.7237740248,0.3044895229,0.6141707269,0.0000427184,0.0789405339
18,us-east-1,m3.medium,0.7180880129339187,351.4039999485,99.6859029307,207.9534334361,0.067,109.908,0.8088487156,0.2294533203,0.4786595132,0.0001542181,0.2529821648
19,eu-central-1,m3.medium,0.563080873466322,465.2051999569,99.6849296958,208.5290236989,0.079,25.871,0.8944490395,0.1916640004,0.4009383063,0.0001518931,0.0497421162
