-1,ideal,,0.0,9.9335000038,15.1806965325,33.4848273108,0.0053333333,43.8358333333,9.9335000038,15.1806965325,33.4848273108,0.0053333333,43.8358333333
-1,antiIdeal,,0.0,59.2008333365,16.6283992797,71.1362455331,0.1066666667,53.721,59.2008333365,16.6283992797,71.1362455331,0.1066666667,53.721
0,ap-southeast-2,t2.medium,0.5230870881985606,90.4010000706,98.4166402532,266.7065702131,0.064,322.326,15.0668333451,16.4027733755,44.4510950355,0.0213333333,53.721
1,ap-southeast-2,t2.large,0.5227812662839161,88.4008001328,98.3315505092,276.392286119,0.128,322.326,14.7334666888,16.3885917515,46.0653810198,0.0426666667,53.721
2,ap-southeast-2,c4.xlarge,0.5199702331016647,68.8006000519,93.4701136232,370.9792330627,0.261,322.326,11.4667666753,15.5783522705,61.8298721771,0.087,53.721
3,ap-southeast-2,r4.xlarge,0.5182224910683084,59.6010000229,91.2593160656,425.3599343353,0.3192,322.326,9.9335000038,15.2098860109,70.8933223892,0.1064,53.721
4,ap-northeast-1,t2.medium,0.5147705187751266,92.0007999897,98.309240429,267.8427991136,0.064,263.015,15.333466665,16.3848734048,44.6404665189,0.0213333333,43.8358333333
5,ap-northeast-1,c4.xlarge,0.5130921992406914,67.800799942,93.6719012788,371.5085653333,0.252,263.015,11.3001333237,15.6119835465,61.9180942222,0.084,43.8358333333
6,ap-northeast-1,r4.xlarge,0.510069127862296,65.8008000851,91.0841791949,426.8174731984,0.32,263.015,10.9668000142,15.1806965325,71.1362455331,0.1066666667,43.8358333333
7,ap-southeast-2,m3.large,0.5088460296534663,149.2010000229,98.6776073289,277.0927200432,0.186,322.326,24.8668333371,16.4462678882,46.1821200072,0.062,53.721
8,ap-northeast-1,t2.large,0.5085758925815365,114.4009999752,98.8890007275,276.3455755917,0.128,263.015,19.0668333292,16.4815001213,46.057595932,0.0426666667,43.8358333333
9,ap-southeast-2,c4.large,0.5070192172154719,157.8006000519,98.2725371924,276.1186069505,0.13,322.326,26.3001000086,16.3787561987,46.0197678251,0.0433333333,53.721
10,ap-southeast-2,r4.large,0.504696915639357,161.8010001183,97.0883007785,303.534663697,0.1596,322.326,26.966833353,16.1813834631,50.5891106162,0.0532,53.721
11,ap-southeast-2,t2.micro,0.5045686047019383,187.6008000374,99.6803506436,201.358852041,0.016,322.326,31.2668000062,16.6133917739,33.5598086735,0.0053333333,53.721
12,ap-northeast-1,r4.large,0.5019285053289884,135.6012000084,97.0802029304,303.7538771373,0.16,263.015,22.6002000014,16.1800338217,50.6256461896,0.0533333333,43.8358333333
13,ap-northeast-1,c4.large,0.5002684899796124,149.4007999897,98.3917534305,275.8920075359,0.126,263.015,24.9001333316,16.3986255717,45.982001256,0.042,43.8358333333
14,ap-northeast-1,m3.large,0.5002494356864735,149.200799942,98.8565047506,277.8247014649,0.193,263.015,24.8667999903,16.4760841251,46.3041169108,0.0643333333,43.8358333333
15,ap-southeast-2,t2.small,0.49883086905536245,212.4010000229,99.6878333941,204.2627861596,0.032,322.326,35.4001666705,16.614638899,34.0437976933,0.0106666667,53.721
16,ap-northeast-1,t2.micro,0.4956915015523402,184.200799942,99.7703956779,200.9089638648,0.016,263.015,30.7001333237,16.6283992797,33.4848273108,0.0053333333,43.8358333333
17,ap-northeast-1,t2.small,0.49495208668990154,186.6008000374,99.5989748585,203.9555007865,0.032,263.015,31.1001333396,16.5998291431,33.9925834644,0.0106666667,43.8358333333
18,ap-southeast-2,m3.medium,0.47172844806319003,349.6058000088,99.5946254049,208.1815982443,0.093,322.326,58.2676333348,16.5991042341,34.6969330407,0.031,53.721
19,ap-northeast-1,m3.medium,0.4595780838376201,355.2050000191,99.5389739257,207.9321158319,0.096,263.015,59.2008333365,16.5898289876,34.6553526387,0.032,43.8358333333
