-1,ideal,,0.0,11.433466657,15.5545670393,33.4427869099,0.0053333333,44.0283333333,11.433466657,15.5545670393,33.4427869099,0.0053333333,44.0283333333
-1,antiIdeal,,0.0,58.3003999949,16.6293531248,71.2378770748,0.1066666667,52.5358333333,58.3003999949,16.6293531248,71.2378770748,0.1066666667,52.5358333333
0,ap-southeast-2,t2.medium,0.5228304268271893,88.6009999752,98.3817365657,267.2949324541,0.064,315.215,14.7668333292,16.3969560943,44.549155409,0.0213333333,52.5358333333
1,ap-southeast-2,t2.large,0.5211073399486537,92.4009999752,98.4155825212,277.0545676885,0.128,315.215,15.4001666625,16.4025970869,46.1757612814,0.0426666667,52.5358333333
2,ap-southeast-2,c4.xlarge,0.518394552445625,68.600799942,93.327402236,371.1736433,0.261,315.215,11.433466657,15.5545670393,61.8622738833,0.087,52.5358333333
3,ap-northeast-1,t2.large,0.5153422677035758,88.2010000706,98.4465128021,275.8783293008,0.128,264.17,14.7001666784,16.4077521337,45.9797215501,0.0426666667,44.0283333333
4,ap-southeast-2,r4.xlarge,0.5145200005551568,68.8011999607,93.7154167554,427.427262449,0.3192,315.215,11.4668666601,15.6192361259,71.2378770748,0.1064,52.5358333333
5,ap-southeast-2,r4.large,0.512415733319625,123.2009999752,97.044202427,303.1918217105,0.1596,315.215,20.5334999959,16.1740337378,50.5319702851,0.0532,52.5358333333
6,ap-northeast-1,c4.xlarge,0.5120200387940123,69.4009999275,93.8654418109,370.2280183759,0.252,264.17,11.5668333213,15.6442403018,61.7046697293,0.084,44.0283333333
7,ap-northeast-1,t2.medium,0.5099417542208651,113.8012001038,98.7435367143,268.3429424451,0.064,264.17,18.966866684,16.457256119,44.7238237409,0.0213333333,44.0283333333
8,ap-southeast-2,m3.large,0.5087805792571758,150.0007999897,98.7053417219,277.1832750623,0.186,315.215,25.0001333316,16.450890287,46.1972125104,0.062,52.5358333333
9,ap-southeast-2,t2.small,0.5075571435505862,178.8010000229,99.6098123477,204.7264646899,0.032,315.215,29.8001666705,16.6016353913,34.1210774483,0.0106666667,52.5358333333
10,ap-southeast-2,t2.micro,0.5060370866449739,186.8009999752,99.6689856521,201.3588969455,0.016,315.215,31.1334999959,16.6114976087,33.5598161576,0.0053333333,52.5358333333
11,ap-northeast-1,r4.xlarge,0.5049202286632167,87.800799942,94.5236764896,427.0183236726,0.32,264.17,14.633466657,15.7539460816,71.1697206121,0.1066666667,44.0283333333
12,ap-southeast-2,c4.large,0.5045446893397455,171.2012000084,98.0895158623,276.3812741489,0.13,315.215,28.5335333347,16.3482526437,46.0635456915,0.0433333333,52.5358333333
13,ap-northeast-1,c4.large,0.5022970981081645,145.8010000229,98.4326979871,275.6211708278,0.126,264.17,24.3001666705,16.4054496645,45.9368618046,0.042,44.0283333333
14,ap-northeast-1,r4.large,0.500614170720134,145.8009999752,97.3286267878,303.463737423,0.16,264.17,24.3001666625,16.221437798,50.5772895705,0.0533333333,44.0283333333
15,ap-northeast-1,t2.micro,0.498151526372111,185.0012000084,99.6696595664,200.6567214592,0.016,264.17,30.8335333347,16.6116099277,33.4427869099,0.0053333333,44.0283333333
16,ap-northeast-1,t2.small,0.4979709690428058,185.0011999607,99.7761187486,203.8905472165,0.032,264.17,30.8335333268,16.6293531248,33.9817578694,0.0106666667,44.0283333333
17,ap-northeast-1,m3.large,0.4966235745926486,172.8006000042,98.9345744293,276.4105382103,0.193,264.17,28.8001000007,16.4890957382,46.068423035,0.0643333333,44.0283333333
18,ap-southeast-2,m3.medium,0.4749656626490645,349.8023999691,99.6140831503,208.4518863906,0.093,315.215,58.3003999949,16.6023471917,34.7419810651,0.031,52.5358333333
19,ap-northeast-1,m3.medium,0.46622496457520646,346.2026000023,99.5929823003,208.4780336039,0.096,264.17,57.7004333337,16.5988303834,34.746338934,0.032,44.0283333333
