-1,ideal,,0.0,11.4334666729,15.5014432643,33.5315730318,0.004,4.1991666667,11.4334666729,15.5014432643,33.5315730318,0.004,4.1991666667
-1,antiIdeal,,0.0,58.6007666667,16.6265818513,71.3069095269,0.1067,18.2658333333,58.6007666667,16.6265818513,71.3069095269,0.1067,18.2658333333
0,eu-central-1,r4.xlarge,0.5280777173070397,71.2012000084,93.7762649543,427.0344922983,0.3201,25.195,11.8668666681,15.6293774924,71.1724153831,0.1067,4.1991666667
1,eu-central-1,c4.xlarge,0.5245580862141583,81.6009999275,94.2265008109,371.9335558256,0.227,25.195,13.6001666546,15.7044168018,61.9889259709,0.0756666667,4.1991666667
2,us-east-1,r4.xlarge,0.5230435654053374,71.2008000374,93.6323815969,427.8414571612,0.266,109.595,11.8668000062,15.6053969328,71.3069095269,0.0886666667,18.2658333333
3,us-east-1,c4.xlarge,0.521988102556346,68.6008000374,93.0086595859,370.4796694685,0.199,109.595,11.4334666729,15.5014432643,61.7466115781,0.0663333333,18.2658333333
4,eu-central-1,t2.medium,0.5196643476143731,88.8009999275,98.5069245493,267.3179898856,0.054,25.195,14.8001666546,16.4178207582,44.5529983143,0.018,4.1991666667
5,eu-central-1,t2.large,0.5132920135146029,112.4007999897,98.8899972209,276.987864191,0.108,25.195,18.733466665,16.4816662035,46.1646440318,0.036,4.1991666667
6,us-east-1,t2.large,0.5128780637315664,91.0009999275,98.2273874515,276.606229109,0.094,109.595,15.1668333213,16.3712312419,46.1010381848,0.0313333333,18.2658333333
7,us-east-1,t2.medium,0.5121116093787739,92.0006000519,98.5109010633,267.9626324394,0.047,109.595,15.333433342,16.4184835106,44.6604387399,0.0156666667,18.2658333333
8,eu-central-1,c4.large,0.5031366787775289,149.8012000084,98.3563542886,275.6020738934,0.114,25.195,24.9668666681,16.3927257148,45.9336789822,0.038,4.1991666667
9,us-east-1,r4.large,0.5003067117140962,149.0011999607,97.3421,304.982818816,0.133,109.595,24.8335333268,16.2236833333,50.8304698027,0.0443333333,18.2658333333
10,us-east-1,c4.large,0.4988541170724826,145.4009999752,98.3694869493,276.0971122589,0.1,109.595,24.2334999959,16.3949144915,46.0161853765,0.0333333333,18.2658333333
11,eu-central-1,m3.large,0.4978388101075868,172.6009999275,98.7736167063,277.9229391189,0.158,25.195,28.7668333213,16.462269451,46.3204898532,0.0526666667,4.1991666667
12,us-east-1,m3.large,0.4978097390782009,150.600399971,98.792419614,277.3583309339,0.133,109.595,25.1000666618,16.465403269,46.226388489,0.0443333333,18.2658333333
13,eu-central-1,r4.large,0.49768408854594925,183.0006000519,97.7988444031,304.653678525,0.16005,25.195,30.5001000086,16.2998074005,50.7756130875,0.05335,4.1991666667
14,eu-central-1,t2.small,0.48721264976064904,182.4012000084,99.7594911075,204.4630867488,0.027,25.195,30.4002000014,16.6265818513,34.0771811248,0.009,4.1991666667
15,eu-central-1,t2.micro,0.48560290163563125,186.8010001183,99.6924992147,201.419287752,0.014,25.195,31.1335000197,16.6154165358,33.569881292,0.0046666667,4.1991666667
16,us-east-1,t2.small,0.4819661982743694,181.6009999275,99.6553576773,204.7159931872,0.023,109.595,30.2668333213,16.6092262795,34.1193321979,0.0076666667,18.2658333333
17,us-east-1,t2.micro,0.47954076243594124,189.4008001328,99.6941639078,201.1894381906,0.012,109.595,31.5668000221,16.6156939846,33.5315730318,0.004,18.2658333333
18,eu-central-1,m3.medium,0.4527937983137843,351.6046000004,99.6683415432,208.5547109592,0.079,25.195,58.6007666667,16.6113902572,34.7591184932,0.0263333333,4.1991666667
19,us-east-1,m3.medium,0.45034833220769444,347.0044000149,99.663218509,208.3609375465,0.067,109.595,57.8340666691,16.6105364182,34.7268229244,0.0223333333,18.2658333333
