-1,ideal,,0.0,11.433466665,15.3739063905,33.5470276387,0.004,4.3086666667,11.433466665,15.3739063905,33.5470276387,0.004,4.3086666667
-1,antiIdeal,,0.0,78.5338999987,16.6211440966,71.2012735565,0.1067,18.011,78.5338999987,16.6211440966,71.2012735565,0.1067,18.011
0,eu-central-1,r4.xlarge,0.5513384138564053,71.2012000561,93.752453019,427.0962179216,0.3201,25.852,11.866866676,15.6254088365,71.1827029869,0.1067,4.3086666667
1,us-east-1,r4.xlarge,0.5477549923989384,68.6007999897,92.2434383432,427.2076413391,0.266,108.066,11.433466665,15.3739063905,71.2012735565,0.0886666667,18.011
2,eu-central-1,c4.xlarge,0.5470999600339926,77.4007999897,95.1222092561,371.9534013168,0.227,25.852,12.9001333316,15.8537015427,61.9922335528,0.0756666667,4.3086666667
3,us-east-1,c4.xlarge,0.5426176373021367,76.800799942,94.4618282705,371.4263825569,0.199,108.066,12.8001333237,15.7436380451,61.9043970928,0.0663333333,18.011
4,eu-central-1,t2.large,0.5354034839193347,92.4009999752,98.4744800961,276.855687444,0.108,25.852,15.4001666625,16.4124133493,46.142614574,0.036,4.3086666667
5,eu-central-1,t2.medium,0.5346777766165478,92.2012000561,98.441240439,267.881193046,0.054,25.852,15.366866676,16.4068734065,44.6468655077,0.018,4.3086666667
6,us-east-1,t2.large,0.5304544090551191,92.0012000084,98.5266965724,276.6976298631,0.094,108.066,15.3335333347,16.4211160954,46.1162716438,0.0313333333,18.011
7,us-east-1,t2.medium,0.5261710847130997,100.4001999855,98.4835852107,268.4268055652,0.047,108.066,16.7333666643,16.4139308685,44.7378009275,0.0156666667,18.011
8,eu-central-1,r4.large,0.5145072759918492,153.8012000084,96.6564904262,303.8736894125,0.16005,25.852,25.6335333347,16.109415071,50.6456149021,0.05335,4.3086666667
9,us-east-1,r4.large,0.5125765402029474,149.0006000042,97.6307426667,304.1872336213,0.133,108.066,24.833433334,16.2717904444,50.6978722702,0.0443333333,18.011
10,eu-central-1,c4.large,0.5120861356680372,151.4008000374,98.3759554352,276.1810474094,0.114,25.852,25.2334666729,16.3959925725,46.0301745682,0.038,4.3086666667
11,us-east-1,m3.large,0.5086230585224499,150.8010000229,98.7954538576,276.9095231591,0.133,108.066,25.1335000038,16.4659089763,46.1515871932,0.0443333333,18.011
12,us-east-1,c4.large,0.5066242311660951,156.2009999275,98.3014502561,276.2211011745,0.1,108.066,26.0334999879,16.3835750427,46.0368501958,0.0333333333,18.011
13,eu-central-1,m3.large,0.5047514037183749,173.2007999897,97.9867157659,277.8611374491,0.158,25.852,28.8667999983,16.3311192943,46.3101895748,0.0526666667,4.3086666667
14,eu-central-1,t2.small,0.4904046325534672,177.800799942,99.6932236172,204.4613484174,0.027,25.852,29.633466657,16.6155372695,34.0768914029,0.009,4.3086666667
15,eu-central-1,t2.micro,0.48565193782732974,189.0009999275,99.7268645793,201.2935738757,0.014,25.852,31.5001666546,16.6211440966,33.5489289793,0.0046666667,4.3086666667
16,us-east-1,t2.small,0.4855260945129818,181.4010000706,99.6285785138,204.053620795,0.023,108.066,30.2335000118,16.6047630856,34.0089367992,0.0076666667,18.011
17,us-east-1,t2.micro,0.4825350466658863,188.4010000229,99.6674386175,201.2821658323,0.012,108.066,31.4001666705,16.6112397696,33.5470276387,0.004,18.011
18,eu-central-1,m3.medium,0.44282334145658797,351.2016000748,99.5555758075,208.2850403492,0.079,25.852,58.5336000125,16.5925959679,34.7141733915,0.0263333333,4.3086666667
19,us-east-1,m3.medium,0.4204423276005934,471.203399992,99.6647844991,208.0351220177,0.067,108.066,78.5338999987,16.6107974165,34.6725203363,0.0223333333,18.011
