-1,,,0.0,193.6,97.20589329,304.4287527881,0.012,180.25,0.4666796487,0.2343182445,0.7338362779,0.0000289264,0.4344990014
0,ap-northeast-1,r4.large,0.9746675404143124,145.8011999607,97.20589329,304.4287527881,0.16,268.225,0.3298969281,0.2199428098,0.6888153897,0.0003620238,0.6068990074
1,ap-northeast-1,m3.large,0.9708564702230043,150.0012000084,98.8117412008,276.9909410243,0.193,268.225,0.3526436711,0.232300376,0.6511888059,0.0004537312,0.6305806132
2,ap-northeast-1,c4.large,0.9691593883794603,145.400799942,98.3782160283,275.7804759516,0.126,268.225,0.3438426283,0.2326440046,0.652163425,0.0002979638,0.634296297
3,ap-northeast-1,t2.large,0.9569259524861532,114.4010000229,98.8239587154,276.5556832991,0.128,268.225,0.2764232836,0.2387850033,0.6682321839,0.0003092821,0.6481030344
4,ap-southeast-2,r4.large,0.9556983238503161,154.4009999752,97.3712552209,304.40431786,0.1596,322.762,0.3218377081,0.2029633333,0.6345087662,0.0003326746,0.6727740258
5,ap-southeast-2,m3.large,0.9497645710693208,161.6007999897,98.2462922146,277.8755353793,0.186,322.762,0.3467817875,0.2108283179,0.5962976351,0.0003991404,0.6926202302
6,ap-northeast-1,t2.small,0.9467469438090733,189.2009999275,99.7478824038,203.8521835797,0.032,268.225,0.474119444,0.2499585656,0.5108338961,0.0000801889,0.6721459607
7,ap-northeast-1,t2.micro,0.9445220121314841,185.6009999275,99.7777149469,200.6474864692,0.016,268.225,0.469001453,0.2521316873,0.5070229294,0.0000404309,0.6777868372
8,ap-southeast-2,c4.large,0.9439754782143714,146.2008000851,98.3358354314,275.819995737,0.13,322.762,0.3180559237,0.2139269755,0.6000390113,0.0002828115,0.7021600839
9,ap-northeast-1,t2.medium,0.9433656629407684,93.6010000706,98.4520938139,267.9597612823,0.064,268.225,0.232409383,0.2444545503,0.6653386476,0.0001589107,0.6659972299
10,ap-northeast-1,c4.xlarge,0.9389912992330631,70.8013999462,93.7289206964,371.2275660687,0.252,268.225,0.1497448906,0.1982365742,0.7851459335,0.0005329797,0.5672956086
11,ap-northeast-1,r4.xlarge,0.9368614601977684,71.4010000229,93.8527363844,428.0327925106,0.32,268.225,0.1376502777,0.1809338135,0.8251821783,0.0006169114,0.5170970394
12,ap-southeast-2,r4.xlarge,0.9321255623508855,77.4006000519,93.1091941902,428.2082451235,0.3192,322.762,0.1407986907,0.1693740439,0.7789495198,0.0005806537,0.5871332646
13,ap-southeast-2,c4.xlarge,0.9267265301396419,74.0010000706,92.8611819918,371.4928015579,0.261,322.762,0.1461769358,0.1834321567,0.7338235885,0.000515563,0.6375638184
14,ap-southeast-2,t2.small,0.9169905988027682,182.0009999752,99.7012184328,204.8638188976,0.032,322.762,0.4184105821,0.2292077782,0.4709709822,0.0000735663,0.7420126061
15,ap-southeast-2,t2.micro,0.9164562792872825,193.6,99.6766333703,201.3745954959,0.016,322.762,0.4416645944,0.2273948339,0.4594009764,0.0000365012,0.7363251436
16,ap-southeast-2,t2.medium,0.9151335818390978,93.4004000187,98.3868911534,267.6799516897,0.064,322.762,0.211928284,0.2232427806,0.6073737673,0.0001452179,0.7323565723
17,ap-southeast-2,t2.large,0.9139613031121518,86.8010000706,98.3442758023,275.4092734813,0.128,322.762,0.1954503608,0.2214424278,0.6201408029,0.0002882184,0.7267652366
18,ap-southeast-2,m3.medium,0.9055926626667601,352.2024000168,99.6044733408,207.510491693,0.093,322.762,0.664174118,0.1878315231,0.3913178837,0.000175377,0.608656178
19,ap-northeast-1,m3.medium,0.8718344927291173,465.6017999649,99.6982493348,207.9443664909,0.096,268.225,0.7962667128,0.1705027714,0.3556240057,0.0001641781,0.4587152349
