-1,,,0.0,219.2010000706,93.9463128773,304.4219758638,0.012,172.552,0.5176376306,0.2218518473,0.7188848146,0.0000283377,0.4074771941
0,us-east-1,c4.large,0.9913042015788083,168.4010000229,98.138907889,275.7504033996,0.1,110.593,0.4739287616,0.2761910623,0.7760408025,0.0002814287,0.311240453
1,us-east-1,t2.small,0.9890657754432305,184.6009999275,99.6876337037,204.2646110832,0.023,110.593,0.5897765515,0.3184892219,0.6525992707,0.0000734821,0.3533304705
2,us-east-1,m3.large,0.9872505736435082,149.8011999607,98.8989922208,277.092019365,0.133,110.593,0.4302355087,0.2840421721,0.7958202333,0.0003819817,0.317627867
3,us-east-1,r4.large,0.9831260197647104,154.8009999275,97.4788951213,303.9778825922,0.133,110.593,0.4165610927,0.2623104184,0.8179879909,0.0003578958,0.2975997632
4,us-east-1,t2.micro,0.9769894494229681,220.6010000229,99.6765355857,200.812083017,0.012,110.593,0.6616678163,0.2989685252,0.6023131919,0.0000359926,0.3317112289
5,us-east-1,t2.medium,0.9599505207375201,90.4006000519,98.4733047943,266.8082402088,0.047,110.593,0.2840501863,0.3094156516,0.8383454346,0.00014768,0.3474972758
6,us-east-1,t2.large,0.9560234701200281,88.600799942,98.3728529748,276.0181127865,0.094,110.593,0.2722069284,0.3022294626,0.8480063692,0.0002887948,0.3397732397
7,eu-central-1,m3.large,0.93781079177819,172.8008000374,98.8197120058,277.6380841969,0.158,25.263,0.50444113,0.2884750949,0.8104827576,0.0004612345,0.0737479008
8,eu-central-1,r4.large,0.9364836180255095,187.8010000229,96.8364247436,304.4219758638,0.16005,25.263,0.5056211753,0.2607150488,0.8196026496,0.0004309065,0.068016186
9,eu-central-1,c4.large,0.9326750625656504,147.0007999897,98.3738614144,275.5686680105,0.114,25.263,0.4475932222,0.299532204,0.8390612027,0.0003471112,0.0769216737
10,eu-central-1,t2.micro,0.9324039744721843,191.8012000561,99.6768765078,201.4085238193,0.014,25.263,0.6468308184,0.3361505329,0.6792305797,0.0000472136,0.0851970007
11,eu-central-1,t2.small,0.9241765390582514,219.2010000706,99.778701925,204.6447909681,0.027,25.263,0.6913703044,0.3147067372,0.6454593336,0.0000851593,0.0796806949
12,us-east-1,m3.medium,0.9175542952507482,351.4030000687,99.6248584579,208.730288558,0.067,110.593,0.8078585733,0.2290327516,0.4798608808,0.0001540298,0.2542479807
13,eu-central-1,t2.large,0.9170676593369519,113.2009999752,98.8015131685,277.2520983385,0.108,25.263,0.3578242369,0.3123079837,0.8763837822,0.0003413841,0.0798554226
14,us-east-1,c4.xlarge,0.91258884570133,70.8008000374,93.8648825117,371.1433072576,0.199,110.593,0.1749359743,0.2319231516,0.9170280002,0.000491693,0.273255305
15,eu-central-1,t2.medium,0.9058425851890445,93.0008000374,98.5661331809,267.5962384634,0.054,25.263,0.3089567301,0.3274452498,0.8889779311,0.0001793927,0.0839258788
16,us-east-1,r4.xlarge,0.8880486931702958,60.6012000084,91.6869672263,427.4608060254,0.266,110.593,0.1331869967,0.2015061055,0.9394569905,0.0005846046,0.2430570604
17,eu-central-1,m3.medium,0.8643041837657394,350.4025999546,99.6464805144,207.7152109979,0.079,25.263,0.8340667809,0.237189505,0.4944265751,0.0001880445,0.0601337692
18,eu-central-1,c4.xlarge,0.8563762346773971,69.4010000229,93.9463128773,370.752749601,0.227,25.263,0.1781632594,0.2411749298,0.9517804969,0.0005827446,0.064854086
19,eu-central-1,r4.xlarge,0.8441887969136693,71.0010000229,89.3098156349,428.0533848695,0.3201,25.263,0.1600138968,0.201276202,0.9646975413,0.0007214046,0.056934847
