-1,,,0.0,188.601199913,97.3949769699,304.007713997,0.012,177.806,0.458651801,0.2368509936,0.7393043396,0.0000291823,0.4323993812
0,us-east-1,c4.large,0.9894711448905026,152.0010000229,98.407745098,275.7294254013,0.1,107.013,0.4383019402,0.2837633016,0.7950785989,0.0002883546,0.3085769536
1,us-east-1,m3.large,0.989397201840964,173.0008000374,98.8878492505,277.171173946,0.133,107.013,0.4835826465,0.2764174954,0.774766185,0.0003717699,0.2991294245
2,us-east-1,r4.large,0.9858120474831835,159.2010000229,97.4175748447,303.5044618812,0.133,107.013,0.427932001,0.2618582655,0.8158194463,0.0003575038,0.287650751
3,us-east-1,t2.small,0.9809848918336135,182.4009999752,99.6382852272,204.2014002408,0.023,107.013,0.5876328584,0.3210000513,0.6578661988,0.000074098,0.3447588285
4,us-east-1,t2.micro,0.9775481344377581,188.601199913,99.6586577166,201.304291723,0.012,107.013,0.6040770655,0.3192000344,0.6447642214,0.0000384352,0.3427555023
5,us-east-1,t2.medium,0.9731951756726859,92.0010000229,98.4534745283,267.6543480014,0.047,107.013,0.2891342401,0.3094126209,0.8411651667,0.0001477083,0.3363128926
6,us-east-1,t2.large,0.969506610329623,89.2010000706,98.2373915109,275.9120822516,0.094,107.013,0.2750358883,0.3028980417,0.8507272854,0.0002898328,0.3299561159
7,us-east-1,c4.xlarge,0.9318148503124863,73.8006000042,93.4236709633,371.1560286026,0.199,107.013,0.1825812965,0.231128405,0.9182330345,0.0004923223,0.2647481494
8,eu-central-1,c4.large,0.9315589663356613,149.8010000706,98.4751895276,275.8557127081,0.114,26.599,0.4538557529,0.2983526897,0.8357667982,0.0003453886,0.0805876407
9,eu-central-1,m3.large,0.9313736808840141,150.6010001183,98.7918477693,277.8153844445,0.158,26.599,0.4534007227,0.2974236236,0.83639349,0.0004756762,0.0800791881
10,eu-central-1,r4.large,0.9285172140240552,155.2012000084,97.3949769699,304.007713997,0.16005,26.599,0.4360179208,0.2736187307,0.8540707891,0.00044964,0.0747264884
11,eu-central-1,t2.small,0.9226429550695845,180.8013999939,99.7186880174,204.6731830766,0.027,26.599,0.6193006178,0.3415672948,0.7010688454,0.0000924833,0.0911097875
12,eu-central-1,t2.large,0.9220990773815081,113.4010000229,98.7790328218,277.3616995824,0.108,26.599,0.3581506805,0.3119705983,0.8759824112,0.0003410929,0.0840067543
13,eu-central-1,t2.medium,0.9192100103458899,102.2009999752,98.6799762715,267.8798384085,0.054,26.599,0.33576287,0.3241951845,0.8800706783,0.0001774072,0.0873861957
14,eu-central-1,t2.micro,0.9184301036521589,188.2011999607,99.7102008045,201.3164906802,0.014,26.599,0.6395423806,0.3388336483,0.6841105568,0.0000475746,0.0903883067
15,us-east-1,r4.xlarge,0.9142631223457823,70.4007999897,92.96474241,426.3023531067,0.266,107.013,0.1548170721,0.2044370125,0.9374734682,0.0005849556,0.2353302709
16,us-east-1,m3.medium,0.8876281130682983,351.4022000313,99.631937642,208.5693206313,0.067,107.013,0.8096674923,0.2295624247,0.4805655707,0.000154375,0.2465691659
17,eu-central-1,c4.xlarge,0.871761459461967,69.6012000561,93.7039040644,371.6033920464,0.227,26.599,0.1782763655,0.2400129802,0.9518241366,0.0005814373,0.0681306219
18,eu-central-1,r4.xlarge,0.8522490783549082,60.0008000374,91.54162625,427.3132627041,0.3201,26.599,0.1357761496,0.2071500636,0.9669695982,0.0007243561,0.0601910275
19,eu-central-1,m3.medium,0.831458084827031,351.8026000023,99.659551979,208.6995683278,0.079,26.599,0.8339455616,0.2362422593,0.4947208426,0.0001872689,0.0630527403
