-1,,,0.0,188.000799942,93.7444766197,303.5801615578,0.012,177.67,0.4588663961,0.2288085484,0.74096884,0.0000292892,0.4336513069
0,ap-northeast-1,m3.large,0.9767394209859421,171.4007999897,98.6332094222,277.6006503556,0.193,265.829,0.3965381128,0.2281892892,0.6422329301,0.0004465082,0.6149990548
1,ap-northeast-1,r4.large,0.9767318498186343,148.2010001183,97.4809878747,303.5801615578,0.16,265.829,0.3362200352,0.2211527665,0.6887249918,0.0003629881,0.6030798419
2,ap-northeast-1,c4.large,0.9714659630195708,149.0012000084,98.5088177092,276.2306022364,0.126,265.829,0.3523030831,0.23291732,0.6531282486,0.0002979183,0.628534376
3,ap-southeast-2,r4.large,0.9605465813499395,155.4010000706,97.4723577182,303.5546506494,0.1596,312.471,0.3287602242,0.2062086741,0.6421882418,0.0003376435,0.6610513186
4,ap-southeast-2,m3.large,0.9512753346996121,150.6009999752,98.8054919484,277.8742156537,0.186,312.471,0.3307752415,0.2170132367,0.6103140803,0.0004085245,0.6863013559
5,ap-southeast-2,c4.large,0.9502661547911813,149.8006000996,98.3261635996,275.822107911,0.13,312.471,0.3301910529,0.2167309041,0.6079681401,0.0002865465,0.6887497675
6,ap-northeast-1,t2.small,0.9460443934503091,182.4012000084,99.6608383558,204.4092380333,0.032,265.829,0.4623301186,0.2526091233,0.5181136267,0.00008111,0.6737935556
7,ap-northeast-1,t2.large,0.9449544339642598,89.0007999897,98.5720603854,276.5878699294,0.128,265.829,0.2192353957,0.2428122519,0.6813180458,0.000315302,0.6548157547
8,ap-northeast-1,t2.micro,0.9439455248503802,184.6010000706,99.6771876896,201.0021376387,0.016,265.829,0.4687660712,0.2531150083,0.5104142574,0.0000406296,0.6750321824
9,ap-northeast-1,t2.medium,0.9422872061566713,88.401199913,98.4484297835,267.6646056276,0.064,265.829,0.2211300009,0.2462625098,0.6695460529,0.0001600919,0.6649544017
10,ap-northeast-1,c4.xlarge,0.9412703356405717,69.2012000561,93.7444766197,370.7910337674,0.252,265.829,0.146961444,0.1990835944,0.7874427854,0.0005351682,0.5645366504
11,ap-northeast-1,r4.xlarge,0.9341383057082641,62.2007999897,91.4137550131,428.5471829727,0.32,265.829,0.1204792114,0.1770629497,0.8300701386,0.0006198208,0.5148947972
12,ap-southeast-2,r4.xlarge,0.9308614830755072,67.2006000042,92.5118817233,427.8427505028,0.3192,312.471,0.1239867656,0.1706867051,0.7893804344,0.0005889319,0.5765167072
13,ap-southeast-2,c4.xlarge,0.9291133695926375,69.2009999752,92.9889498195,369.5626100576,0.261,312.471,0.139056988,0.1868580409,0.7426231334,0.0005244704,0.6278995407
14,ap-southeast-2,t2.large,0.9241695879524728,92.8007999897,98.4732283731,275.7178795077,0.128,312.471,0.2118058323,0.224752417,0.629290426,0.0002921435,0.7131746735
15,ap-southeast-2,t2.small,0.9208860046454581,182.4009999752,99.6862244675,204.6433842853,0.032,312.471,0.4267060616,0.2332044026,0.4787395494,0.0000748603,0.730989796
16,ap-southeast-2,t2.medium,0.9199141719024753,90.8007999897,98.3905843582,267.7318604756,0.064,312.471,0.2098387801,0.2273786156,0.6187228198,0.0001479027,0.7221140505
17,ap-southeast-2,t2.micro,0.919279112488214,188.000799942,99.6381586899,201.2733800304,0.016,312.471,0.4389701364,0.232648883,0.4699607827,0.000037359,0.7296002864
18,ap-northeast-1,m3.medium,0.9123074124890492,351.2047999859,99.6883100954,208.6646826487,0.096,265.829,0.7059644872,0.2003856631,0.4194414646,0.0001929717,0.5343487152
19,ap-southeast-2,m3.medium,0.9047775434997918,350.8033999443,99.6081635761,208.3151155169,0.093,312.471,0.6701532714,0.1902853185,0.3979524034,0.0001776615,0.5969254086
