-1,,,0.0,189.6007999897,94.2775883343,303.9249030737,0.012,179.209,0.460767953,0.2291134393,0.7385984418,0.0000291624,0.4355137958
0,us-east-1,m3.large,0.9897633154093577,172.4005999565,98.991596693,277.6238598512,0.133,109.957,0.4805865958,0.2759505157,0.7739085929,0.0003707529,0.3065178447
1,us-east-1,c4.large,0.9888936014246555,144.8008000374,98.53833557,275.7214815594,0.1,109.957,0.4201274796,0.2859007862,0.7999829497,0.0002901417,0.3190310915
2,us-east-1,r4.large,0.9845078181412001,147.6008000374,97.7248720207,303.494604122,0.133,109.957,0.4009238483,0.2654472859,0.8243737472,0.0003612641,0.2986730666
3,us-east-1,t2.small,0.9793483972438829,187.4009999752,99.7129870815,204.2750489197,0.023,109.957,0.5959588069,0.3170998704,0.6496204099,0.0000731429,0.349677123
4,us-east-1,t2.micro,0.9786020988651599,186.801199913,99.6138687108,201.2619706785,0.012,109.957,0.5985050001,0.3191596121,0.6448368417,0.0000384476,0.3522986701
5,us-east-1,t2.medium,0.9730664892514282,92.4006000519,98.5400348161,267.535638375,0.047,109.957,0.2894397286,0.3086711657,0.8380404728,0.0001472249,0.3444341727
6,us-east-1,t2.large,0.968790337354098,88.8007999897,98.4301061994,276.3729676848,0.094,109.957,0.2726895093,0.3022591842,0.8486861486,0.0002886552,0.3376559713
7,us-east-1,c4.xlarge,0.9378185708258168,82.2006000042,94.2026611302,371.0358439289,0.199,109.957,0.2021256069,0.2316378476,0.9123515539,0.0004893273,0.2703766804
8,eu-central-1,m3.large,0.9285825775294884,150.6010000706,98.8154823022,276.3567862809,0.158,25.436,0.4551868644,0.2986667388,0.8352798384,0.0004775501,0.0768795232
9,eu-central-1,c4.large,0.9279404818564527,144.8012000084,98.4266519792,275.6880305253,0.114,25.436,0.4420383841,0.3004695969,0.8416000111,0.0003480108,0.0776491378
10,eu-central-1,r4.large,0.9250227831672588,151.0009999752,97.5569,303.9249030737,0.16005,25.436,0.4265224403,0.2755624603,0.8584763767,0.0004520825,0.0718473705
11,eu-central-1,t2.small,0.9182949416904832,184.4009999275,99.7648364407,204.6536066844,0.027,25.436,0.6270299058,0.339236425,0.695896073,0.0000918097,0.0864915737
12,us-east-1,r4.xlarge,0.917752015221467,75.8011999607,93.0963144093,428.0896272498,0.266,109.957,0.165504769,0.2032670198,0.9346933149,0.0005807859,0.2400807361
13,eu-central-1,t2.micro,0.9149363891488188,189.6007999897,99.7525652239,201.2847040711,0.014,25.436,0.6425796136,0.3380732825,0.6821777512,0.0000474477,0.0862056228
14,eu-central-1,t2.medium,0.9107305641034739,93.0010000229,98.4787724075,267.697259502,0.054,25.436,0.3088795625,0.3270726135,0.8890894977,0.0001793475,0.0844793126
15,eu-central-1,t2.large,0.9077482342592584,91.6012000561,98.5557417645,276.52118042,0.108,25.436,0.2968578414,0.3193958676,0.896139796,0.0003500025,0.0824320648
16,us-east-1,m3.medium,0.8886656769223649,352.0012000084,99.6320802848,207.9855973809,0.067,109.957,0.8092945009,0.2290665335,0.4781847341,0.0001540413,0.252804807
17,eu-central-1,c4.xlarge,0.8767027461200653,80.0012000561,94.2775883343,370.894879062,0.227,25.436,0.2041946793,0.2406336643,0.9466703105,0.0005793937,0.0649227244
18,eu-central-1,r4.xlarge,0.8565533760696651,69.6010000229,91.6460313883,428.1703112885,0.3201,25.436,0.1567255417,0.206365913,0.964141664,0.000720792,0.0572760575
19,eu-central-1,m3.medium,0.8283322657185123,354.4032000065,99.6577696954,208.1565654692,0.079,25.436,0.8364769439,0.2352163486,0.4912996489,0.000186459,0.0600350887
