-1,ideal,,0.0,11.433466657,15.5545670393,33.4427869099,0.0026666667,88.0566666667,11.433466657,15.5545670393,33.4427869099,0.0026666667,88.0566666667
-1,antiIdeal,,0.0,58.3003999949,16.6293531248,71.2378770748,0.0533333333,105.0716666667,58.3003999949,16.6293531248,71.2378770748,0.0533333333,105.0716666667
0,ap-northeast-1,t2.large,0.8037762245245836,88.2010000706,98.4465128021,275.8783293008,0.128,264.17,14.7001666784,16.4077521337,45.9797215501,0.0213333333,88.0566666667
1,ap-northeast-1,t2.medium,0.7875430059323313,113.8012001038,98.7435367143,268.3429424451,0.064,264.17,18.966866684,16.457256119,44.7238237409,0.0106666667,88.0566666667
2,ap-northeast-1,t2.micro,0.7190422424337977,185.0012000084,99.6696595664,200.6567214592,0.016,264.17,30.8335333347,16.6116099277,33.4427869099,0.0026666667,88.0566666667
3,ap-northeast-1,c4.large,0.7177993350915516,145.8010000229,98.4326979871,275.6211708278,0.126,264.17,24.3001666705,16.4054496645,45.9368618046,0.021,88.0566666667
4,ap-northeast-1,t2.small,0.7172848005071127,185.0011999607,99.7761187486,203.8905472165,0.032,264.17,30.8335333268,16.6293531248,33.9817578694,0.0053333333,88.0566666667
5,ap-southeast-2,t2.medium,0.7124689310631993,88.6009999752,98.3817365657,267.2949324541,0.064,315.215,14.7668333292,16.3969560943,44.549155409,0.0106666667,105.0716666667
6,ap-southeast-2,t2.large,0.6966441211606894,92.4009999752,98.4155825212,277.0545676885,0.128,315.215,15.4001666625,16.4025970869,46.1757612814,0.0213333333,105.0716666667
7,ap-northeast-1,r4.large,0.6687115442775914,145.8009999752,97.3286267878,303.463737423,0.16,264.17,24.3001666625,16.221437798,50.5772895705,0.0266666667,88.0566666667
8,ap-northeast-1,m3.large,0.6633486186602703,172.8006000042,98.9345744293,276.4105382103,0.193,264.17,28.8001000007,16.4890957382,46.068423035,0.0321666667,88.0566666667
9,ap-southeast-2,t2.small,0.6511778406336608,178.8010000229,99.6098123477,204.7264646899,0.032,315.215,29.8001666705,16.6016353913,34.1210774483,0.0053333333,105.0716666667
10,ap-northeast-1,c4.xlarge,0.6418497346703759,69.4009999275,93.8654418109,370.2280183759,0.252,264.17,11.5668333213,15.6442403018,61.7046697293,0.042,88.0566666667
11,ap-southeast-2,t2.micro,0.6406717483408783,186.8009999752,99.6689856521,201.3588969455,0.016,315.215,31.1334999959,16.6114976087,33.5598161576,0.0026666667,105.0716666667
12,ap-southeast-2,r4.large,0.6255548794190047,123.2009999752,97.044202427,303.1918217105,0.1596,315.215,20.5334999959,16.1740337378,50.5319702851,0.0266,105.0716666667
13,ap-southeast-2,m3.large,0.6227513239719307,150.0007999897,98.7053417219,277.1832750623,0.186,315.215,25.0001333316,16.450890287,46.1972125104,0.031,105.0716666667
14,ap-southeast-2,c4.xlarge,0.5907183423386629,68.600799942,93.327402236,371.1736433,0.261,315.215,11.433466657,15.5545670393,61.8622738833,0.0435,105.0716666667
15,ap-southeast-2,c4.large,0.5887095738287758,171.2012000084,98.0895158623,276.3812741489,0.13,315.215,28.5335333347,16.3482526437,46.0635456915,0.0216666667,105.0716666667
16,ap-northeast-1,r4.xlarge,0.5531656098424974,87.800799942,94.5236764896,427.0183236726,0.32,264.17,14.633466657,15.7539460816,71.1697206121,0.0533333333,88.0566666667
17,ap-southeast-2,r4.xlarge,0.5305563162883732,68.8011999607,93.7154167554,427.427262449,0.3192,315.215,11.4668666601,15.6192361259,71.2378770748,0.0532,105.0716666667
18,ap-northeast-1,m3.medium,0.46517534822308737,346.2026000023,99.5929823003,208.4780336039,0.096,264.17,57.7004333337,16.5988303834,34.746338934,0.016,88.0566666667
19,ap-southeast-2,m3.medium,0.42248548958355253,349.8023999691,99.6140831503,208.4518863906,0.093,315.215,58.3003999949,16.6023471917,34.7419810651,0.0155,105.0716666667
