-1,ideal,,0.0,10.6668666681,15.2255596596,33.5178038446,0.0026666667,84.6556666667,10.6668666681,15.2255596596,33.5178038446,0.0026666667,84.6556666667
-1,antiIdeal,,0.0,58.4674666643,16.6320017494,71.3639689754,0.0533333333,105.227,58.4674666643,16.6320017494,71.3639689754,0.0533333333,105.227
0,ap-northeast-1,t2.medium,0.8205832105441341,91.6010000229,98.4642526414,267.1904979598,0.064,253.967,15.2668333371,16.4107087736,44.53174966,0.0106666667,84.6556666667
1,ap-northeast-1,t2.large,0.7866342200581319,103.8009999752,98.7008694862,276.3847170579,0.128,253.967,17.3001666625,16.4501449144,46.0641195097,0.0213333333,84.6556666667
2,ap-northeast-1,t2.small,0.7263468818302395,179.6011999607,99.7920104965,204.1972167221,0.032,253.967,29.9335333268,16.6320017494,34.0328694537,0.0053333333,84.6556666667
3,ap-northeast-1,t2.micro,0.7172530567140519,184.8009999275,99.7377496528,201.1068230677,0.016,253.967,30.8001666546,16.6229582755,33.5178038446,0.0026666667,84.6556666667
4,ap-northeast-1,m3.large,0.7102642385883178,148.600799942,98.6979017808,277.8458585377,0.193,253.967,24.7667999903,16.4496502968,46.3076430896,0.0321666667,84.6556666667
5,ap-northeast-1,c4.large,0.6910056130055403,160.0009999275,98.0096183831,276.418532036,0.126,253.967,26.6668333213,16.3349363972,46.0697553393,0.021,84.6556666667
6,ap-southeast-2,t2.medium,0.6830224732700696,89.0011999607,98.3958745038,267.5286775163,0.064,315.681,14.8335333268,16.3993124173,44.5881129194,0.0106666667,105.227
7,ap-northeast-1,r4.large,0.6781556896757733,142.2009999275,96.9664948635,303.9006054486,0.16,253.967,23.7001666546,16.1610824772,50.6501009081,0.0266666667,84.6556666667
8,ap-southeast-2,t2.large,0.64225014574892,116.2009999752,98.7523702897,278.6041227746,0.128,315.681,19.3668333292,16.4587283816,46.4340204624,0.0213333333,105.227
9,ap-northeast-1,c4.xlarge,0.6378680457735058,80.2009999752,93.9113273111,372.1765451513,0.252,253.967,13.3668333292,15.6518878852,62.0294241919,0.042,84.6556666667
10,ap-southeast-2,t2.small,0.6181750403622601,184.0007999897,99.6161921085,204.4406995813,0.032,315.681,30.6667999983,16.6026986847,34.0734499302,0.0053333333,105.227
11,ap-southeast-2,c4.large,0.6102422500598912,143.0009999752,98.2590916667,275.7510200889,0.13,315.681,23.8334999959,16.3765152778,45.9585033481,0.0216666667,105.227
12,ap-southeast-2,m3.large,0.5967029719203323,149.2009999752,98.7701700486,279.4030003596,0.186,315.681,24.8668333292,16.4616950081,46.5671667266,0.031,105.227
13,ap-southeast-2,t2.micro,0.5875287550961553,206.4012000084,99.6533821149,201.6000000065,0.016,315.681,34.4002000014,16.6088970191,33.6000000011,0.0026666667,105.227
14,ap-southeast-2,c4.xlarge,0.5776692459243016,69.4010000229,92.9494883363,370.9223371522,0.261,315.681,11.5668333371,15.4915813894,61.8203895254,0.0435,105.227
15,ap-northeast-1,r4.xlarge,0.5733773470721336,71.6010000229,92.2209549033,428.1838138524,0.32,253.967,11.9335000038,15.3701591506,71.3639689754,0.0533333333,84.6556666667
16,ap-southeast-2,r4.large,0.5671608974768507,148.4012000561,97.35664964,303.6142271346,0.1596,315.681,24.7335333427,16.2261082733,50.6023711891,0.0266,105.227
17,ap-southeast-2,r4.xlarge,0.5267656877656495,64.0012000084,91.3533579575,427.405203203,0.3192,315.681,10.6668666681,15.2255596596,71.2342005338,0.0532,105.227
18,ap-northeast-1,m3.medium,0.468231868243563,350.8047999859,99.598116716,207.670833563,0.096,253.967,58.4674666643,16.5996861193,34.6118055938,0.016,84.6556666667
19,ap-southeast-2,m3.medium,0.4139048960366311,350.2006000519,99.677814226,207.942388801,0.093,315.681,58.3667666753,16.6129690377,34.6570648002,0.0155,105.227
