-1,ideal,,0.0,11.4001666625,15.4804833535,33.478825832,0.0026666667,82.4013333333,11.4001666625,15.4804833535,33.478825832,0.0026666667,82.4013333333
-1,antiIdeal,,0.0,60.4335333427,16.6282603305,71.4637329502,0.0533333333,107.6023333333,60.4335333427,16.6282603305,71.4637329502,0.0533333333,107.6023333333
0,ap-northeast-1,t2.medium,0.8322980799144011,90.2007999897,98.5096416157,267.8467154581,0.064,247.204,15.033466665,16.4182736026,44.641119243,0.0106666667,82.4013333333
1,ap-northeast-1,t2.large,0.815674752149782,88.8008001328,98.5613448958,276.5735291118,0.128,247.204,14.8001333555,16.426890816,46.0955881853,0.0213333333,82.4013333333
2,ap-northeast-1,t2.micro,0.7394748019921856,183.4009999275,99.6721295839,200.8729549921,0.016,247.204,30.5668333213,16.6120215973,33.478825832,0.0026666667,82.4013333333
3,ap-northeast-1,t2.small,0.7333611948021242,185.6010001183,99.7695619829,204.7570176996,0.032,247.204,30.9335000197,16.6282603305,34.1261696166,0.0053333333,82.4013333333
4,ap-northeast-1,m3.large,0.7292094099670827,150.2006000519,98.8654468282,277.1479312864,0.193,247.204,25.033433342,16.4775744714,46.1913218811,0.0321666667,82.4013333333
5,ap-northeast-1,c4.large,0.7116680616257364,161.0008000374,98.4636333462,276.0307587595,0.126,247.204,26.8334666729,16.4106055577,46.0051264599,0.021,82.4013333333
6,ap-northeast-1,r4.large,0.7113562526826742,133.8008000374,97.0804811624,304.0741153019,0.16,247.204,22.3001333396,16.1800801937,50.679019217,0.0266666667,82.4013333333
7,ap-northeast-1,c4.xlarge,0.6627641511799617,70.6010000706,93.4354386491,370.7884589039,0.252,247.204,11.7668333451,15.5725731082,61.798076484,0.042,82.4013333333
8,ap-southeast-2,t2.medium,0.6541955090694109,90.8007999897,98.3914889871,267.8392293825,0.064,322.807,15.133466665,16.3985814978,44.6398715638,0.0106666667,107.6023333333
9,ap-southeast-2,t2.large,0.6464380188135348,90.2005999565,98.4278865743,276.6892893569,0.128,322.807,15.0334333261,16.4046477624,46.1148815595,0.0213333333,107.6023333333
10,ap-southeast-2,t2.small,0.6046631700063071,180.8008000374,99.7666662703,204.8714747499,0.032,322.807,30.1334666729,16.6277777117,34.1452457916,0.0053333333,107.6023333333
11,ap-southeast-2,t2.micro,0.5991745578397806,186.8006000042,99.7539707273,201.5910478711,0.016,322.807,31.133433334,16.6256617879,33.5985079785,0.0026666667,107.6023333333
12,ap-southeast-2,c4.large,0.5854996408910681,147.800799942,98.5796986874,275.9329417316,0.13,322.807,24.633466657,16.4299497812,45.9888236219,0.0216666667,107.6023333333
13,ap-southeast-2,m3.large,0.5823559635510744,149.4009999752,98.8380667638,276.9107191568,0.186,322.807,24.9001666625,16.4730111273,46.1517865261,0.031,107.6023333333
14,ap-northeast-1,r4.xlarge,0.5773882810414545,89.0009999752,94.1496302073,428.7823977014,0.32,247.204,14.8334999959,15.6916050345,71.4637329502,0.0533333333,82.4013333333
15,ap-southeast-2,c4.xlarge,0.5624688521383148,75.6012000084,92.8829001209,371.0765176671,0.261,322.807,12.6002000014,15.4804833535,61.8460862778,0.0435,107.6023333333
16,ap-southeast-2,r4.large,0.5590688628040629,144.4010000706,97.3872118609,304.0272249289,0.1596,322.807,24.0668333451,16.2312019768,50.6712041548,0.0266,107.6023333333
17,ap-southeast-2,r4.xlarge,0.5189368583962125,68.4009999752,92.9826013471,427.936118081,0.3192,322.807,11.4001666625,15.4971002245,71.3226863468,0.0532,107.6023333333
18,ap-northeast-1,m3.medium,0.488179897889669,348.8005999565,99.6912284464,208.3996093283,0.096,247.204,58.1334333261,16.6152047411,34.7332682214,0.016,82.4013333333
19,ap-southeast-2,m3.medium,0.3996757051530964,362.6012000561,99.6620752671,208.4546610704,0.093,322.807,60.4335333427,16.6103458779,34.7424435117,0.0155,107.6023333333
