-1,ideal,,0.0,10.5335333188,15.3238455128,33.5259869709,0.002,8.3776666667,10.5335333188,15.3238455128,33.5259869709,0.002,8.3776666667
-1,antiIdeal,,0.0,58.5338333289,16.6352412875,71.1892795733,0.05335,36.6096666667,58.5338333289,16.6352412875,71.1892795733,0.05335,36.6096666667
0,eu-central-1,t2.medium,0.8275904448981347,92.6006000042,98.554862959,267.1182155038,0.054,25.133,15.433433334,16.4258104932,44.519702584,0.009,8.3776666667
1,eu-central-1,t2.large,0.8078834526679283,94.6012000561,98.5743828518,276.0380549154,0.108,25.133,15.766866676,16.4290638086,46.0063424859,0.018,8.3776666667
2,eu-central-1,t2.small,0.7317319025016468,182.6009999752,99.8010743319,204.6595879939,0.027,25.133,30.4334999959,16.6335123887,34.1099313323,0.0045,8.3776666667
3,eu-central-1,m3.large,0.7234121528151581,150.2007999897,98.8581499721,277.1361011918,0.158,25.133,25.033466665,16.4763583287,46.1893501986,0.0263333333,8.3776666667
4,eu-central-1,c4.large,0.7226666305813279,151.4010000229,98.1250360203,276.2601824689,0.114,25.133,25.2335000038,16.3541726701,46.0433637448,0.019,8.3776666667
5,eu-central-1,r4.large,0.6923667126352177,144.000799942,97.3252898956,304.0028455215,0.16005,25.133,24.0001333237,16.2208816493,50.6671409202,0.026675,8.3776666667
6,eu-central-1,c4.xlarge,0.6576060467019134,76.000399971,93.0221796221,371.4458279221,0.227,25.133,12.6667333285,15.5036966037,61.907637987,0.0378333333,8.3776666667
7,us-east-1,t2.medium,0.6221593101015267,92.2009999752,98.4159860404,268.14856389,0.047,109.829,15.3668333292,16.4026643401,44.691427315,0.0078333333,36.6096666667
8,us-east-1,t2.large,0.6178807586497915,88.8009999752,98.429601249,276.2960303978,0.094,109.829,14.8001666625,16.4049335415,46.0493383996,0.0156666667,36.6096666667
9,eu-central-1,t2.micro,0.5947114811250163,264.4011999607,99.7305851598,201.1559218253,0.014,25.133,44.0668666601,16.6217641933,33.5259869709,0.0023333333,8.3776666667
10,eu-central-1,r4.xlarge,0.591781643460178,71.2009999752,93.9736237443,426.7843085248,0.3201,25.133,11.8668333292,15.662270624,71.1307180875,0.05335,8.3776666667
11,us-east-1,t2.small,0.571460813555425,184.6014000893,99.811447725,204.4139704268,0.023,109.829,30.7669000149,16.6352412875,34.0689950711,0.0038333333,36.6096666667
12,us-east-1,c4.xlarge,0.553259831862125,75.2008000374,94.2480979048,356.4169599936,0.199,109.829,12.5334666729,15.7080163175,59.4028266656,0.0331666667,36.6096666667
13,us-east-1,m3.large,0.5519858218679653,149.6006000042,98.7937483709,276.0440958316,0.133,109.829,24.933433334,16.4656247285,46.0073493053,0.0221666667,36.6096666667
14,us-east-1,c4.large,0.5297583774755492,166.2007999897,98.1239447101,276.0649286746,0.1,109.829,27.7001333316,16.353990785,46.0108214458,0.0166666667,36.6096666667
15,us-east-1,t2.micro,0.5238020431986935,225.600799942,99.7610483615,201.4689494818,0.012,109.829,37.6001333237,16.6268413936,33.578158247,0.002,36.6096666667
16,us-east-1,r4.large,0.5215618936825388,150.6010000229,97.475097656,303.2376022687,0.133,109.829,25.1001666705,16.2458496093,50.5396003781,0.0221666667,36.6096666667
17,us-east-1,r4.xlarge,0.5049867288784576,63.201199913,91.9430730769,427.13567744,0.266,109.829,10.5335333188,15.3238455128,71.1892795733,0.0443333333,36.6096666667
18,eu-central-1,m3.medium,0.4905421574542638,350.2017999649,99.6524980342,208.5551742017,0.079,25.133,58.3669666608,16.6087496724,34.7591957003,0.0131666667,8.3776666667
19,us-east-1,m3.medium,0.39602452599305715,351.2029999733,99.6358089598,207.9488355077,0.067,109.829,58.5338333289,16.60596816,34.6581392513,0.0111666667,36.6096666667
