-1,ideal,,0.0,27.0004615417,17.5013371161,38.7558943434,0.0006153846,52.6465384615,27.0004615417,17.5013371161,38.7558943434,0.0006153846,52.6465384615
-1,antiIdeal,,0.0,158.7701538343,19.1845885924,82.3668657527,0.0123076923,61.7055769231,158.7701538343,19.1845885924,82.3668657527,0.0123076923,61.7055769231
0,ap-southeast-2,r4.xlarge,0.5615049857440024,71.000399971,93.4025701868,427.8376837423,0.3192,320.869,27.3078461427,17.9620327282,82.2764776428,0.0122769231,61.7055769231
1,ap-southeast-2,c4.xlarge,0.5582676342426234,76.8006000996,94.2927251565,371.9095553654,0.261,320.869,29.538692346,18.1332163763,71.5210683395,0.0100384615,61.7055769231
2,ap-northeast-1,c4.xlarge,0.5552622410793808,70.2012000084,93.5314843081,370.7171079681,0.252,273.762,27.0004615417,17.9868239054,71.2917515323,0.0096923077,52.6465384615
3,ap-northeast-1,r4.xlarge,0.5523761364793258,74.0004000664,91.0069530039,428.3077019142,0.32,273.762,28.4616923332,17.5013371161,82.3668657527,0.0123076923,52.6465384615
4,ap-southeast-2,t2.medium,0.5508728980937925,88.600799942,98.3595614981,267.5307173042,0.064,320.869,34.0772307469,18.9153002881,51.4482148662,0.0024615385,61.7055769231
5,ap-southeast-2,t2.large,0.5492299518806592,91.0009999752,98.3554955973,276.6698775435,0.128,320.869,35.0003846058,18.9145183841,53.2057456814,0.0049230769,61.7055769231
6,ap-northeast-1,t2.large,0.5441497368447842,86.0009999752,98.4523312664,275.4614082519,0.128,273.762,33.0773076828,18.9331406281,52.9733477407,0.0049230769,52.6465384615
7,ap-northeast-1,t2.medium,0.5381459041174856,94.4006000042,98.535732574,267.8583527666,0.064,273.762,36.3079230785,18.9491793412,51.5112216859,0.0024615385,52.6465384615
8,ap-southeast-2,c4.large,0.5163650105236051,146.8006000042,98.3598636974,276.0675037688,0.13,320.869,56.4617692324,18.9153584033,53.0899045709,0.005,61.7055769231
9,ap-southeast-2,r4.large,0.5147711701527473,151.8012000084,97.2809341447,304.2897658958,0.1596,320.869,58.3850769263,18.7078719509,58.5172626723,0.0061384615,61.7055769231
10,ap-southeast-2,m3.large,0.5146937226410401,150.2006000042,98.7798590711,276.5667268038,0.186,320.869,57.7694615401,18.9961267444,53.1859090007,0.0071538462,61.7055769231
11,ap-northeast-1,r4.large,0.5076897265478097,148.2010000229,97.5219178881,303.2793834993,0.16,273.762,57.0003846242,18.7542149785,58.3229583653,0.0061538462,52.6465384615
12,ap-northeast-1,c4.large,0.506118026147919,149.0007999897,98.468352,275.5724520107,0.126,273.762,57.307999996,18.9362215385,52.9947023097,0.0048461538,52.6465384615
13,ap-northeast-1,m3.large,0.505745888461719,150.000799942,98.8206384106,277.9093032689,0.193,273.762,57.6926153623,19.0039689251,53.4440967825,0.0074230769,52.6465384615
14,ap-southeast-2,t2.micro,0.493451234317106,188.4006000996,99.7409819879,202.0830043927,0.016,320.869,72.4617692691,19.1809580746,38.8621162294,0.0006153846,61.7055769231
15,ap-northeast-1,t2.small,0.4856395670195217,183.8010000229,99.6929396711,204.4587315951,0.032,273.762,70.6926923165,19.1717191675,39.3189868452,0.0012307692,52.6465384615
16,ap-northeast-1,t2.micro,0.4853605028092376,184.000799942,99.7402119651,201.5306505858,0.016,273.762,70.7695384392,19.1808099933,38.7558943434,0.0006153846,52.6465384615
17,ap-southeast-2,t2.small,0.4839341999307407,211.6008000374,99.7598606805,204.7307544458,0.032,320.869,81.3849230913,19.1845885924,39.3712989319,0.0012307692,61.7055769231
18,ap-northeast-1,m3.medium,0.4333345740083958,351.0048000813,99.7412007979,208.7223093333,0.096,273.762,135.0018461851,19.1810001534,40.138905641,0.0036923077,52.6465384615
19,ap-southeast-2,m3.medium,0.42942843753908777,412.8023999691,99.6483801196,208.5919680227,0.093,320.869,158.7701538343,19.163150023,40.1138400044,0.0035769231,61.7055769231
