-1,ideal,,0.0,25.3079999777,17.6406089173,38.6584689976,0.0006153846,52.6811538462,25.3079999777,17.6406089173,38.6584689976,0.0006153846,52.6811538462
-1,antiIdeal,,0.0,136.0780000136,19.1871331248,82.2041498725,0.0123076923,62.6265384615,136.0780000136,19.1871331248,82.2041498725,0.0123076923,62.6265384615
0,ap-southeast-2,r4.xlarge,0.5480060684301287,69.4009999752,92.2494758551,427.4615793371,0.3192,325.658,26.6926922982,17.7402838183,82.2041498725,0.0122769231,62.6265384615
1,ap-southeast-2,c4.xlarge,0.5468804203412048,73.4008000374,92.7315205904,371.5098655745,0.261,325.658,28.2310769375,17.8329847289,71.4442049182,0.0100384615,62.6265384615
2,ap-northeast-1,r4.xlarge,0.5428148990711976,65.800799942,91.73116637,426.7953011996,0.32,273.942,25.3079999777,17.6406089173,82.0760194615,0.0123076923,52.6811538462
3,ap-southeast-2,t2.large,0.5382896226591047,91.000799942,98.4421922746,275.9681426232,0.128,325.658,35.00030767,18.931190822,53.0707966583,0.0049230769,62.6265384615
4,ap-southeast-2,t2.medium,0.5379016491564748,91.8007999897,98.4198856112,267.6664368178,0.064,325.658,35.307999996,18.9269010791,51.4743147727,0.0024615385,62.6265384615
5,ap-northeast-1,c4.xlarge,0.5374408021846774,76.4008000374,94.5073330669,371.9590242632,0.252,273.942,29.3849230913,18.1744871283,71.5305815891,0.0096923077,52.6811538462
6,ap-northeast-1,t2.large,0.5295685445063112,90.8010000706,98.4283996894,275.7242220491,0.128,273.942,34.9234615656,18.9285384018,53.0238888556,0.0049230769,52.6811538462
7,ap-northeast-1,t2.medium,0.5280937792455478,93.2009999752,98.458250815,267.8560981538,0.064,273.942,35.846538452,18.9342790029,51.5107881065,0.0024615385,52.6811538462
8,ap-southeast-2,r4.large,0.5095952682680909,146.4008000374,97.4388599534,303.3075109243,0.1596,325.658,56.3080000144,18.7382422987,58.3283674854,0.0061384615,62.6265384615
9,ap-southeast-2,c4.large,0.5095152973323922,145.6007999897,98.4062368994,276.0041478597,0.13,325.658,56.0003076883,18.9242763268,53.0777207422,0.005,62.6265384615
10,ap-southeast-2,m3.large,0.507292515855968,150.6010000706,98.7758866678,277.7120512089,0.186,325.658,57.9234615656,18.9953628207,53.406163694,0.0071538462,62.6265384615
11,ap-northeast-1,r4.large,0.5020449211220526,143.0009999752,97.4778306472,303.5343026759,0.16,273.942,55.0003846058,18.7457366629,58.3719812838,0.0061538462,52.6811538462
12,ap-northeast-1,c4.large,0.49938053364499246,147.2007999897,98.4600956557,276.0927601628,0.126,273.942,56.6156923037,18.9346337799,53.0947615698,0.0048461538,52.6811538462
13,ap-northeast-1,m3.large,0.4984314218237198,149.4009999275,98.7336194349,277.5086619171,0.193,273.942,57.461923049,18.9872345067,53.3670503687,0.0074230769,52.6811538462
14,ap-southeast-2,t2.small,0.4918397096213951,181.6009999752,99.6735367256,205.0191695973,0.032,325.658,69.846538452,19.1679878318,39.4267633841,0.0012307692,62.6265384615
15,ap-southeast-2,t2.micro,0.48897499577361525,188.2012000084,99.6678721471,201.0240387874,0.016,325.658,72.3850769263,19.1668984898,38.6584689976,0.0006153846,62.6265384615
16,ap-northeast-1,t2.micro,0.4784527520615418,188.6012000084,99.773092249,201.3661428124,0.016,273.942,72.5389230802,19.1871331248,38.7242582332,0.0006153846,52.6811538462
17,ap-northeast-1,t2.small,0.4677923218143655,217.200799942,99.7295211619,204.3282116488,0.032,273.942,83.5387692085,19.1787540696,39.2938868555,0.0012307692,52.6811538462
18,ap-southeast-2,m3.medium,0.44100519155800333,350.60260005,99.5708830688,208.0168403648,0.093,325.658,134.8471538654,19.148246744,40.0032385317,0.0035769231,62.6265384615
19,ap-northeast-1,m3.medium,0.43084118464096577,353.8028000355,99.6071684102,207.9145903853,0.096,273.942,136.0780000136,19.1552246943,39.9835750741,0.0036923077,52.6811538462
