-1,ideal,,0.0,24.4618461682,17.4988573771,38.6560031975,0.0006153846,53.4173076923,24.4618461682,17.4988573771,38.6560031975,0.0006153846,53.4173076923
-1,antiIdeal,,0.0,134.6163846346,19.1982363082,82.3341308418,0.0123076923,60.7965384615,134.6163846346,19.1982363082,82.3341308418,0.0123076923,60.7965384615
0,ap-southeast-2,r4.xlarge,0.5498175407126891,63.6008000374,90.994058361,427.8097359605,0.3192,316.142,24.4618461682,17.4988573771,82.2711030693,0.0122769231,60.7965384615
1,ap-southeast-2,c4.xlarge,0.548719490305684,68.2010000229,93.7127224362,370.711478748,0.261,316.142,26.231153855,18.0216773916,71.29066899,0.0100384615,60.7965384615
2,ap-northeast-1,r4.xlarge,0.5419313178776429,67.4009999752,92.3976276452,428.1374803772,0.32,277.77,25.9234615289,17.7687745472,82.3341308418,0.0123076923,53.4173076923
3,ap-southeast-2,t2.large,0.5377328546260072,89.6006000519,98.399628249,275.8561891912,0.128,316.142,34.4617692507,18.9230054325,53.0492671522,0.0049230769,60.7965384615
4,ap-southeast-2,t2.medium,0.5363631843621468,92.0009999275,98.4308961008,267.568819188,0.064,316.142,35.3849999721,18.9290184809,51.4555421515,0.0024615385,60.7965384615
5,ap-northeast-1,c4.xlarge,0.5353523800825931,80.2010000706,94.4323213716,370.8384808793,0.252,277.77,30.8465384887,18.1600618022,71.3150924768,0.0096923077,53.4173076923
6,ap-northeast-1,t2.medium,0.5293318217646545,92.0007999897,98.5360756876,267.7897032963,0.064,277.77,35.384923073,18.9492453245,51.4980198647,0.0024615385,53.4173076923
7,ap-northeast-1,t2.large,0.529272206594471,92.0009999752,98.4600242549,276.7711214646,0.128,277.77,35.3849999905,18.934620049,53.2252156663,0.0049230769,53.4173076923
8,ap-southeast-2,r4.large,0.5074082321747042,146.2009999275,97.3789378983,303.9254599192,0.1596,316.142,56.2311538183,18.7267188266,58.4472038306,0.0061384615,60.7965384615
9,ap-southeast-2,c4.large,0.5054926104999362,149.4010000229,98.5257801148,276.1440576899,0.13,316.142,57.4619230857,18.9472654067,53.1046264788,0.005,60.7965384615
10,ap-northeast-1,r4.large,0.5018702606356973,142.8012000084,97.4074728849,304.1474733391,0.16,277.77,54.9235384648,18.732206324,58.4898987191,0.0061538462,53.4173076923
11,ap-southeast-2,m3.large,0.49593470975958687,171.0010000229,98.7703254518,277.2574325597,0.186,316.142,65.7696153934,18.9942933561,53.3187370307,0.0071538462,60.7965384615
12,ap-northeast-1,m3.large,0.49285592736969785,161.0006000042,98.5143594367,277.3243301633,0.193,277.77,61.9233076939,18.9450691224,53.3316019545,0.0074230769,53.4173076923
13,ap-southeast-2,t2.micro,0.48633329816163995,188.0009999752,99.7021060893,201.0112166271,0.016,316.142,72.3080769135,19.1734819403,38.6560031975,0.0006153846,60.7965384615
14,ap-northeast-1,c4.large,0.4837296417975051,182.401199913,97.9450651225,276.7107553417,0.126,277.77,70.1543076589,18.8355894466,53.2136067965,0.0048461538,53.4173076923
15,ap-northeast-1,t2.small,0.47973376835548487,184.8009999752,99.7830514645,204.5868681297,0.032,277.77,71.0773076828,19.1890483586,39.3436284865,0.0012307692,53.4173076923
16,ap-northeast-1,t2.micro,0.4788123440587271,186.6012000561,99.7246646855,201.2577434632,0.016,277.77,71.7696923293,19.1778201318,38.7034122045,0.0006153846,53.4173076923
17,ap-southeast-2,t2.small,0.47372866871315633,220.8009999275,99.8308288025,204.6413758816,0.032,316.142,84.9234615106,19.1982363082,39.3541107465,0.0012307692,60.7965384615
18,ap-southeast-2,m3.medium,0.43701340442178405,350.00260005,99.6455731706,207.9472041293,0.093,316.142,134.6163846346,19.1626102251,39.9898469479,0.0035769231,60.7965384615
19,ap-northeast-1,m3.medium,0.42982786557467156,349.0034000397,99.6535695141,207.9793688937,0.096,277.77,134.2320769383,19.1641479835,39.9960324796,0.0036923077,53.4173076923
