-1,ideal,,0.0,24.7695384576,17.8020794982,38.6728872367,0.0004615385,5.0488461538,24.7695384576,17.8020794982,38.6728872367,0.0004615385,5.0488461538
-1,antiIdeal,,0.0,133.6934615282,19.1954394699,82.3724938095,0.0123115385,20.5413461538,133.6934615282,19.1954394699,82.3724938095,0.0123115385,20.5413461538
0,us-east-1,r4.xlarge,0.5559387388236057,64.4007999897,93.2369620861,427.4802165754,0.266,106.815,24.7695384576,17.9301850166,82.2077339568,0.0102307692,20.5413461538
1,eu-central-1,r4.xlarge,0.5558922473809724,68.8010000229,92.5708133905,428.3369678096,0.3201,26.254,26.4619230857,17.8020794982,82.3724938095,0.0123115385,5.0488461538
2,eu-central-1,c4.xlarge,0.5499010141145894,70.8009999752,93.7753865471,370.5444142569,0.227,26.254,27.2311538366,18.0337281821,71.2585412032,0.0087307692,5.0488461538
3,us-east-1,c4.xlarge,0.5438882217004462,76.0008000374,92.6120405708,371.0716950308,0.199,106.815,29.2310769375,17.8100078021,71.3599413521,0.0076538462,20.5413461538
4,eu-central-1,t2.large,0.5242476170912314,94.4010000706,98.5949446217,276.1827540154,0.108,26.254,36.3080769502,18.9605662734,53.1120680799,0.0041538462,5.0488461538
5,eu-central-1,t2.medium,0.5234283155098238,93.6010001183,98.541309476,267.7591279675,0.054,26.254,36.0003846609,18.9502518223,51.4921399937,0.0020769231,5.0488461538
6,us-east-1,t2.medium,0.5223341519198577,91.6010000229,98.4133018934,267.7644264542,0.047,106.815,35.231153855,18.9256349795,51.4931589335,0.0018076923,20.5413461538
7,us-east-1,t2.large,0.5123817459807154,112.4009999752,98.701330501,276.9618340934,0.094,106.815,43.2311538366,18.9810250963,53.2618911718,0.0036153846,20.5413461538
8,eu-central-1,r4.large,0.5010706766078092,150.0012000084,97.5095125828,304.2155947232,0.16005,26.254,57.692769234,18.7518293428,58.5029989852,0.0061557692,5.0488461538
9,us-east-1,r4.large,0.5003779817670321,148.6008000851,97.7082874631,304.214847149,0.133,106.815,57.1541538789,18.7900552814,58.502855221,0.0051153846,20.5413461538
10,eu-central-1,c4.large,0.4977012825146562,147.4009999752,98.6018194812,275.7328387436,0.114,26.254,56.6926922982,18.9618883618,53.0255459122,0.0043846154,5.0488461538
11,us-east-1,c4.large,0.4970028620573419,146.0008000374,98.3060482881,275.9887408892,0.1,106.815,56.1541538605,18.9050092862,53.0747578633,0.0038461538,20.5413461538
12,us-east-1,m3.large,0.4958892520810749,149.6012000084,98.8903972539,277.3801152232,0.133,106.815,57.5389230802,19.0173840873,53.3423298506,0.0051153846,20.5413461538
13,eu-central-1,m3.large,0.494769921749884,155.800799942,98.9957139631,277.9606242392,0.158,26.254,59.9233845931,19.0376373006,53.4539661998,0.0060769231,5.0488461538
14,eu-central-1,t2.small,0.47169822652489357,182.0010000229,99.6441805944,204.6304824248,0.027,26.254,70.0003846242,19.162342422,39.3520158509,0.0010384615,5.0488461538
15,eu-central-1,t2.micro,0.4702655510089375,184.2009999752,99.7623478673,201.1013734377,0.014,26.254,70.846538452,19.1850668976,38.6733410457,0.0005384615,5.0488461538
16,us-east-1,t2.small,0.45851445960240655,227.6010000229,99.7025953805,204.6656823853,0.023,106.815,87.5388461626,19.1735760347,39.3587850741,0.0008846154,20.5413461538
17,us-east-1,t2.micro,0.4560061957922321,235.4010001183,99.8162852435,201.0990136309,0.012,106.815,90.5388461993,19.1954394699,38.6728872367,0.0004615385,20.5413461538
18,us-east-1,m3.medium,0.43772925452400957,347.6029999733,99.6364617729,208.6771671741,0.067,106.815,133.6934615282,19.1608580333,40.1302244566,0.0025769231,20.5413461538
19,eu-central-1,m3.medium,0.4377159212196733,347.0024000645,99.6514297285,208.473481698,0.079,26.254,133.4624615633,19.1637364863,40.0910541727,0.0030384615,5.0488461538
