-1,ideal,,0.0,22.9234615473,17.5161883067,38.6363392048,0.0006153846,50.5798076923,22.9234615473,17.5161883067,38.6363392048,0.0006153846,50.5798076923
-1,antiIdeal,,0.0,136.6173076996,19.1866145534,82.0802833074,0.0123076923,61.9857692308,136.6173076996,19.1866145534,82.0802833074,0.0123076923,61.9857692308
0,ap-southeast-2,r4.xlarge,0.5558772621434993,59.6010000229,91.2593160656,425.3599343353,0.3192,322.326,22.9234615473,17.5498684741,81.7999873722,0.0122769231,61.9857692308
1,ap-southeast-2,c4.xlarge,0.5512403167414716,68.8006000519,93.4701136232,370.9792330627,0.261,322.326,26.4617692507,17.9750218506,71.3421602044,0.0100384615,61.9857692308
2,ap-northeast-1,r4.xlarge,0.5438454174244445,65.8008000851,91.0841791949,426.8174731984,0.32,263.015,25.3080000327,17.5161883067,82.0802833074,0.0123076923,50.5798076923
3,ap-northeast-1,c4.xlarge,0.5431531673398527,67.800799942,93.6719012788,371.5085653333,0.252,263.015,26.0772307469,18.013827169,71.4439548718,0.0096923077,50.5798076923
4,ap-southeast-2,t2.large,0.5400252816083441,88.4008001328,98.3315505092,276.392286119,0.128,322.326,34.0003077434,18.9099135595,53.1523627152,0.0049230769,61.9857692308
5,ap-southeast-2,t2.medium,0.538778867112502,90.4010000706,98.4166402532,266.7065702131,0.064,322.326,34.7696154118,18.9262769718,51.289725041,0.0024615385,61.9857692308
6,ap-northeast-1,t2.medium,0.5273445126445129,92.0007999897,98.309240429,267.8427991136,0.064,263.015,35.384923073,18.9056231594,51.5082305988,0.0024615385,50.5798076923
7,ap-northeast-1,t2.large,0.5137838505454786,114.4009999752,98.8890007275,276.3455755917,0.128,263.015,44.0003846058,19.0171155245,53.1433799215,0.0049230769,50.5798076923
8,ap-southeast-2,m3.large,0.5064340331646808,149.2010000229,98.6776073289,277.0927200432,0.186,322.326,57.3850000088,18.9764629479,53.2870615468,0.0071538462,61.9857692308
9,ap-northeast-1,r4.large,0.5031176366746467,135.6012000084,97.0802029304,303.7538771373,0.16,263.015,52.1543076955,18.6692697943,58.4142071418,0.0061538462,50.5798076923
10,ap-southeast-2,c4.large,0.5023417167587308,157.8006000519,98.2725371924,276.1186069505,0.13,322.326,60.6925384815,18.8985648447,53.0997321059,0.005,61.9857692308
11,ap-southeast-2,r4.large,0.5014062542920035,161.8010001183,97.0883007785,303.534663697,0.1596,322.326,62.2311538916,18.6708270728,58.372050711,0.0061384615,61.9857692308
12,ap-northeast-1,m3.large,0.49546223788156807,149.200799942,98.8565047506,277.8247014649,0.193,263.015,57.3849230546,19.0108662982,53.4278272048,0.0074230769,50.5798076923
13,ap-northeast-1,c4.large,0.4952424602039661,149.4007999897,98.3917534305,275.8920075359,0.126,263.015,57.4618461499,18.9214910443,53.0561552954,0.0048461538,50.5798076923
14,ap-southeast-2,t2.micro,0.48596832922235145,187.6008000374,99.6803506436,201.358852041,0.016,322.326,72.1541538605,19.1692982007,38.7228561617,0.0006153846,61.9857692308
15,ap-southeast-2,t2.small,0.47606573114024187,212.4010000229,99.6878333941,204.2627861596,0.032,322.326,81.6926923165,19.1707371912,39.2813050307,0.0012307692,61.9857692308
16,ap-northeast-1,t2.micro,0.4751085037532857,184.200799942,99.7703956779,200.9089638648,0.016,263.015,70.8464615162,19.1866145534,38.6363392048,0.0006153846,50.5798076923
17,ap-northeast-1,t2.small,0.47426232628807274,186.6008000374,99.5989748585,203.9555007865,0.032,263.015,71.7695384759,19.1536490113,39.2222116897,0.0012307692,50.5798076923
18,ap-southeast-2,m3.medium,0.4353867465473994,349.6058000088,99.5946254049,208.1815982443,0.093,322.326,134.4637692341,19.1528125779,40.0349227393,0.0035769231,61.9857692308
19,ap-northeast-1,m3.medium,0.42280407343454385,355.2050000191,99.5389739257,207.9321158319,0.096,263.015,136.6173076996,19.1421103703,39.9869453523,0.0036923077,50.5798076923
