-1,,,0.0,62.4008000374,96.953621706,304.5162380781,0.012,185.36,0.1665458936,0.2587663548,0.8127448518,0.0000320276,0.4947203692
0,ap-northeast-1,r4.xlarge,0.994594742033013,65.400399971,91.0832362106,427.4595229754,0.32,281.746,0.1247872196,0.1737913499,0.8156140539,0.0006105759,0.5375853967
1,ap-northeast-1,c4.xlarge,0.9925078656261117,71.2009999752,92.4720044844,370.0037752308,0.252,281.746,0.1484952382,0.192857577,0.7716717288,0.0005255657,0.5876032556
2,ap-southeast-2,r4.xlarge,0.9877199534235049,62.4008000374,91.6479016529,426.6670493886,0.3192,332.323,0.113031454,0.1660090187,0.7728554273,0.0005781919,0.6019626651
3,ap-southeast-2,c4.xlarge,0.9806362739193075,68.4011999607,93.1457430718,370.7594218698,0.261,332.323,0.1338229333,0.1822341796,0.7253690491,0.0005106312,0.6501704455
4,ap-northeast-1,r4.large,0.9718760289162116,135.8005999565,96.953621706,304.5162380781,0.16,281.746,0.3036952254,0.2168204854,0.6809994035,0.0003578131,0.6300775917
5,ap-northeast-1,t2.large,0.9705194434053228,93.4009999275,98.489269314,276.405088467,0.128,281.746,0.2237803068,0.2359713378,0.6622414701,0.0003066764,0.6750378087
6,ap-northeast-1,t2.medium,0.9664485641089683,93.0008000851,98.475670737,266.8006500892,0.064,281.746,0.2262866828,0.2396079695,0.6491711257,0.0001557228,0.6855356909
7,ap-northeast-1,c4.large,0.957994471646855,143.4006000042,98.3234780268,275.4842895497,0.126,281.746,0.3329467126,0.2282869024,0.6396178856,0.0002925461,0.6541562899
8,ap-northeast-1,m3.large,0.9561848552884984,150.0008000374,98.8292543046,276.6851526358,0.193,281.746,0.34576444,0.2278097301,0.6377825107,0.0004448812,0.6494481889
9,ap-southeast-2,r4.large,0.9541141556974119,144.6008000851,97.3738704442,304.1564714779,0.1596,332.323,0.2993472917,0.2015798279,0.6296536115,0.0003303981,0.6879629294
10,ap-southeast-2,t2.large,0.9489586253984336,87.4009999752,98.2961334017,275.1637017013,0.128,332.323,0.1937682052,0.2179227395,0.6100385194,0.0002837763,0.7367608069
11,ap-southeast-2,t2.medium,0.9448378866728324,89.0010000229,98.36616,267.5819042133,0.064,332.323,0.1991937669,0.2201539976,0.5988769502,0.0001432389,0.7437744541
12,ap-southeast-2,m3.large,0.9399893223628839,149.0010000229,98.6744242245,277.4312186577,0.186,332.323,0.3181454218,0.2106886283,0.5923683201,0.0003971453,0.709572694
13,ap-southeast-2,c4.large,0.9397816511874836,147.2009999752,98.3532098206,276.2081735278,0.13,332.323,0.3152185495,0.2106151191,0.5914765513,0.0002783841,0.7116417283
14,ap-northeast-1,t2.small,0.8904177553333248,185.8009999275,99.7359866621,204.7159016046,0.032,281.746,0.4563624426,0.2449704711,0.5028210232,0.0000785981,0.6920215327
15,ap-northeast-1,t2.micro,0.884962376920648,189.0009999752,99.7130463266,200.818594423,0.016,281.746,0.4647632902,0.2451995677,0.4938233697,0.0000393448,0.6928280696
16,ap-southeast-2,t2.small,0.8745223630034445,183.4005999565,99.7192349769,204.6130022959,0.032,332.323,0.4143815621,0.2253090359,0.4623095864,0.0000723019,0.750861905
17,ap-southeast-2,t2.micro,0.8700572672900732,186.6009999752,99.6585074057,201.3702823115,0.016,332.323,0.4217681896,0.2252548928,0.4551507195,0.0000361643,0.7511389011
18,ap-northeast-1,m3.medium,0.7781330401086082,349.4057999611,99.6669617221,208.5267859994,0.096,281.746,0.6920865273,0.1974156165,0.4130400216,0.0001901523,0.558069187
19,ap-southeast-2,m3.medium,0.773067821723143,362.4018000126,99.6596736955,208.5010866276,0.093,332.323,0.6670341308,0.1834328743,0.3837655914,0.0001711751,0.6116713092
