-1,,,0.0,65.800799942,94.5073330669,303.5343026759,0.012,182.987,0.1765685529,0.2535990907,0.8144978878,0.0000322006,0.4910236625
0,ap-northeast-1,r4.xlarge,0.9951052464633255,65.800799942,91.73116637,426.7953011996,0.32,273.942,0.1266470903,0.1765553811,0.8214548013,0.0006159054,0.5272573774
1,ap-northeast-1,c4.xlarge,0.9942659208341359,76.4008000374,94.5073330669,371.9590242632,0.252,273.942,0.1599454721,0.1978515931,0.778698151,0.0005275633,0.5734990012
2,ap-southeast-2,r4.xlarge,0.9892323891158985,69.4009999752,92.2494758551,427.4615793371,0.3192,325.658,0.1262664982,0.1678364618,0.777713243,0.0005807447,0.5924942767
3,ap-southeast-2,c4.xlarge,0.9822459751702618,73.4008000374,92.7315205904,371.5098655745,0.261,325.658,0.1444909974,0.1825439218,0.7313248766,0.0005137839,0.6410645281
4,ap-northeast-1,t2.large,0.97320678845808,90.8010000706,98.4283996894,275.7242220491,0.128,273.942,0.220874676,0.23942843,0.6707029455,0.0003113618,0.666367666
5,ap-northeast-1,r4.large,0.9723378482483133,143.0009999752,97.4778306472,303.5343026759,0.16,273.942,0.3220804255,0.2195488226,0.6836487673,0.0003603672,0.6169981744
6,ap-northeast-1,t2.medium,0.969716700787928,93.2009999752,98.458250815,267.8560981538,0.064,273.942,0.2293258059,0.2422615393,0.6590735678,0.0001574753,0.6740482392
7,ap-northeast-1,c4.large,0.9602030727213667,147.2007999897,98.4600956557,276.0927601628,0.126,273.942,0.3444446612,0.2303931384,0.6460472854,0.0002948355,0.6410145827
8,ap-northeast-1,m3.large,0.9600636477227312,149.4009999275,98.7336194349,277.5086619171,0.193,273.942,0.3481752926,0.23009623,0.6467269939,0.0004497817,0.6384149776
9,ap-southeast-2,r4.large,0.9561033074344149,146.4008000374,97.4388599534,303.3075109243,0.1596,325.658,0.3059485113,0.203627809,0.6338522836,0.0003335322,0.6805603539
10,ap-southeast-2,t2.large,0.9514888385901036,91.000799942,98.4421922746,275.9681426232,0.128,325.658,0.203390652,0.2200224799,0.6168005172,0.0002860854,0.7278594584
11,ap-southeast-2,t2.medium,0.9470765341738144,91.8007999897,98.4198856112,267.6664368178,0.064,325.658,0.2074562199,0.2224143736,0.6048865279,0.0001446305,0.735938877
12,ap-southeast-2,c4.large,0.9430972976121675,145.6007999897,98.4062368994,276.0041478597,0.13,325.658,0.3153965478,0.2131649511,0.5978727825,0.0002816025,0.7054316253
13,ap-southeast-2,m3.large,0.9427136348758004,150.6010000706,98.7758866678,277.7120512089,0.186,325.658,0.3243313174,0.2127217843,0.5980751481,0.0004005659,0.7013305895
14,ap-northeast-1,t2.micro,0.889717271308417,188.6012000084,99.773092249,201.3661428124,0.016,273.942,0.4698648152,0.2485661043,0.5016662963,0.000039861,0.6824755474
15,ap-southeast-2,t2.small,0.8791869505683264,181.6009999752,99.6735367256,205.0191695973,0.032,325.658,0.4155294965,0.2280675467,0.4691136741,0.0000732207,0.7451528615
16,ap-northeast-1,t2.small,0.8742214028386877,217.200799942,99.7295211619,204.3282116488,0.032,273.942,0.5208241907,0.2391406807,0.4899571065,0.0000767326,0.6568834944
17,ap-southeast-2,t2.micro,0.8725393968058216,188.2012000084,99.6678721471,201.0240387874,0.016,325.658,0.4297131502,0.2275681309,0.4589910849,0.0000365322,0.7435634048
18,ap-southeast-2,m3.medium,0.7840755872681576,350.60260005,99.5708830688,208.0168403648,0.093,325.658,0.6600348653,0.187449421,0.3916068141,0.0001750793,0.6130748435
19,ap-northeast-1,m3.medium,0.7779505361408915,353.8028000355,99.6071684102,207.9145903853,0.096,273.942,0.7028830288,0.1978847771,0.41305393,0.0001907186,0.5442274133
