-1,,,0.0,68.4009999752,97.0804811624,304.0741153019,0.012,177.775,0.1840171028,0.2611726274,0.8180412239,0.0000322832,0.4782626052
0,ap-northeast-1,r4.xlarge,0.9967601300086332,89.0009999752,94.1496302073,428.7823977014,0.32,247.204,0.1739609924,0.1840244841,0.83809633,0.0006254707,0.4831839326
1,ap-northeast-1,c4.xlarge,0.9960362625010182,70.6010000706,93.4354386491,370.7884589039,0.252,247.204,0.153224077,0.2027812472,0.8047155042,0.0005469111,0.5365023822
2,ap-southeast-2,r4.xlarge,0.9872415696104478,68.4009999752,92.9826013471,427.936118081,0.3192,322.807,0.1247457887,0.1695762919,0.780445148,0.0005821385,0.5887167413
3,ap-northeast-1,t2.large,0.9812204959944519,88.8008001328,98.5613448958,276.5735291118,0.128,247.204,0.2254069395,0.2501825554,0.7020386375,0.000324908,0.6274886823
4,ap-northeast-1,r4.large,0.9803177566301099,133.8008000374,97.0804811624,304.0741153019,0.16,247.204,0.3145876041,0.2282521178,0.7149280675,0.0003761862,0.5812171082
5,ap-southeast-2,c4.xlarge,0.9800601815977279,75.6012000084,92.8829001209,371.0765176671,0.261,322.807,0.1493485473,0.1834881748,0.733053693,0.0005155999,0.6376982973
6,ap-northeast-1,t2.medium,0.9780363084573644,90.2007999897,98.5096416157,267.8467154581,0.064,247.204,0.2323620847,0.2537661051,0.6899874634,0.0001648674,0.6368107244
7,ap-northeast-1,m3.large,0.9655545177671425,150.2006000519,98.8654468282,277.1479312864,0.193,247.204,0.3640165966,0.2396039927,0.6716780537,0.0004677425,0.5991078512
8,ap-northeast-1,c4.large,0.9604179665327791,161.0008000374,98.4636333462,276.0307587595,0.126,247.204,0.387174261,0.2367850623,0.663797975,0.0003030044,0.5944754684
9,ap-southeast-2,r4.large,0.9552571704808003,144.4010000706,97.3872118609,304.0272249289,0.1596,322.807,0.303098118,0.2044160402,0.638154027,0.0003350009,0.6775728293
10,ap-southeast-2,t2.large,0.9492975934094979,90.2005999565,98.4278865743,276.6892893569,0.128,322.807,0.2024117035,0.2208738767,0.6208955421,0.0002872342,0.7243844809
11,ap-southeast-2,t2.medium,0.9445651633983744,90.8007999897,98.3914889871,267.8392293825,0.064,322.807,0.2062228274,0.2234624701,0.6083048077,0.000145354,0.7331452174
12,ap-southeast-2,m3.large,0.9409011902297235,149.4009999752,98.8380667638,276.9107191568,0.186,322.807,0.3237357467,0.21417136,0.6000354646,0.0004030418,0.6994877223
13,ap-southeast-2,c4.large,0.9407435722019309,147.800799942,98.5796986874,275.9329417316,0.13,322.807,0.3210737127,0.2141487046,0.5994203962,0.0002824043,0.7012468269
14,ap-northeast-1,t2.small,0.9009408716657977,185.6010001183,99.7695619829,204.7570176996,0.032,247.204,0.4833671594,0.2598333508,0.5332558443,0.0000833387,0.6438020011
15,ap-northeast-1,t2.micro,0.8989124680826337,183.4009999275,99.6721295839,200.8729549921,0.016,247.204,0.4815844364,0.2617245618,0.5274632573,0.0000420137,0.6491218644
16,ap-southeast-2,t2.small,0.8775087749918408,180.8008000374,99.7666662703,204.8714747499,0.032,322.807,0.4160806345,0.2295951002,0.4714749779,0.0000736423,0.7428824505
17,ap-southeast-2,t2.micro,0.8718608743572361,186.8006000042,99.7539707273,201.5910478711,0.016,322.807,0.4289015524,0.229039055,0.4628610046,0.0000367366,0.7411776162
18,ap-northeast-1,m3.medium,0.7797826916318739,348.8005999565,99.6912284464,208.3996093283,0.096,247.204,0.7177811589,0.2051501216,0.428856238,0.0001975541,0.5087100585
19,ap-southeast-2,m3.medium,0.7768309421629664,362.6012000561,99.6620752671,208.4546610704,0.093,322.807,0.6744159318,0.1853653307,0.3877128495,0.0001729743,0.6004011671
