-1,,,0.0,60.2016000271,97.6249788936,302.9710930658,0.012,177.88,0.1628929627,0.2641528139,0.8197765333,0.0000324695,0.4813061479
0,us-east-1,t2.medium,0.9818846307026862,89.6009999275,98.2718341588,267.6101584635,0.047,108.53,0.2818259541,0.3090987093,0.8417259663,0.0001478312,0.3413641681
1,us-east-1,t2.large,0.9816216901679353,89.6010000229,98.3786080344,275.6111820918,0.094,108.53,0.2759280027,0.3029588153,0.8487499354,0.0002894748,0.3342202221
2,us-east-1,c4.xlarge,0.9720256730915287,69.600799942,93.5259444668,370.5088594208,0.199,108.53,0.172580299,0.2319044533,0.9187039488,0.0004934351,0.2691081118
3,us-east-1,r4.xlarge,0.9615328911046934,74.4010000706,92.9363331579,428.5920720932,0.266,108.53,0.1624946009,0.2029764701,0.9360613113,0.0005809541,0.2370336288
4,us-east-1,r4.large,0.9547314984306239,146.6012001038,97.6249788936,302.6011201092,0.133,108.53,0.3999340333,0.2663249109,0.8255081566,0.0003628294,0.2960742518
5,us-east-1,c4.large,0.950673038642939,147.6010000229,98.4065114277,276.0064440166,0.1,108.53,0.4271061368,0.2847543372,0.7986669875,0.0002893653,0.3140482044
6,us-east-1,m3.large,0.9492774122586776,150.0014000416,98.6887231788,277.7150226649,0.133,108.53,0.4309668113,0.2835411158,0.7978989377,0.0003821203,0.3118159431
7,eu-central-1,t2.medium,0.9081695605155397,89.4013999462,98.3484876679,267.2925495701,0.054,25.879,0.2983694506,0.3282295831,0.8920657978,0.0001802203,0.0863689273
8,eu-central-1,t2.large,0.908012732249745,90.4012000084,98.5031451027,275.5331208501,0.108,25.879,0.2941319631,0.3204926863,0.8964825436,0.0003513919,0.0842006641
9,eu-central-1,c4.xlarge,0.9049216202685755,69.6008000374,93.7395609837,369.9276703896,0.227,25.879,0.1790249486,0.2411138964,0.9515161053,0.0005838821,0.0665651349
10,eu-central-1,r4.xlarge,0.8980425264541333,60.2016000271,91.7359258693,425.6577915096,0.3201,25.879,0.136718015,0.2083325641,0.966670127,0.0007269481,0.058771287
11,us-east-1,t2.small,0.8833474544407262,185.6010000706,99.726339694,204.7630145902,0.023,108.53,0.5925792107,0.3184021403,0.6537588996,0.0000734335,0.3465101035
12,eu-central-1,r4.large,0.8826427152218466,148.2007999897,97.7028126306,302.9710930658,0.16005,25.879,0.4209119803,0.2774902993,0.8604822833,0.0004545654,0.0735001507
13,us-east-1,t2.micro,0.8821900425509461,184.2012000084,99.6609487968,201.2204518592,0.012,108.53,0.5941021664,0.3214353955,0.6489941779,0.0000387035,0.3500406518
14,eu-central-1,c4.large,0.8762008784137227,149.4007999897,98.3719335629,276.4098299682,0.114,25.879,0.4523772249,0.2978646856,0.8369534288,0.0003451856,0.0783601574
15,eu-central-1,m3.large,0.8753890547813739,150.8006000042,98.7771606309,277.0750910148,0.158,25.879,0.4548088971,0.2979081746,0.8356479785,0.000476522,0.0780500837
16,eu-central-1,t2.micro,0.7974322433944692,187.6009999752,99.7150930931,201.021540838,0.014,25.879,0.6389099598,0.3395982224,0.684616098,0.0000476796,0.0881357288
17,eu-central-1,t2.small,0.7703863227132882,213.6009999752,99.6951642687,204.522795665,0.027,25.879,0.6821013351,0.3183608909,0.6531115117,0.0000862203,0.0826405328
18,us-east-1,m3.medium,0.7062513482867147,351.203799963,99.618906052,208.4228506477,0.067,108.53,0.808944333,0.2294569407,0.4800702154,0.0001543243,0.2499822851
19,eu-central-1,m3.medium,0.6320692902482311,352.8009999752,99.7102263236,208.2978681125,0.079,25.879,0.8351204827,0.2360255565,0.4930649748,0.0001870021,0.0612585649
