-1,,,0.0,67.8009999275,95.0633943643,304.1912469204,0.012,182.131,0.1816357157,0.2546703985,0.8149141589,0.0000321474,0.487920452
0,ap-northeast-1,r4.xlarge,0.9964441356680652,82.2009999275,95.0633943643,427.7208768913,0.32,273.205,0.1572148304,0.1818150075,0.8180443689,0.0006120211,0.5225225699
1,ap-northeast-1,c4.xlarge,0.9935562473136661,71.2011999607,93.8654522831,371.7080918113,0.252,273.205,0.1495453054,0.1971474882,0.7807059452,0.0005292806,0.5738179298
2,ap-southeast-2,r4.xlarge,0.9891882073266183,78.6010001183,92.620906654,427.8824171524,0.3192,327.119,0.1423597021,0.1677521235,0.7749674093,0.0005781252,0.5924678224
3,ap-southeast-2,c4.xlarge,0.9803837788115615,67.8009999275,93.0547352089,370.2531132235,0.261,327.119,0.1336514409,0.1834323897,0.7298544582,0.0005144913,0.644827152
4,ap-northeast-1,t2.large,0.9732132654469077,92.0009999752,98.5107382551,276.3099920982,0.128,273.205,0.223690676,0.2395184144,0.6718184469,0.0003112184,0.6642689878
5,ap-northeast-1,t2.medium,0.9695824730432109,92.2009999752,98.4861717227,267.5371762119,0.064,273.205,0.2273847792,0.2428851793,0.6597963336,0.0001578359,0.673774239
6,ap-northeast-1,r4.large,0.9677403090541743,158.0010000229,97.6547622642,303.1518072755,0.16,273.205,0.3523835207,0.2177956401,0.6761077534,0.0003568418,0.6093185471
7,ap-northeast-1,m3.large,0.9605562659294953,149.8010000706,98.6460186932,277.7963343592,0.193,273.205,0.3492413363,0.2299802229,0.6476456297,0.0004499541,0.6369415373
8,ap-northeast-1,c4.large,0.9598828825587424,149.4012000084,98.5852391347,276.0040777488,0.126,273.205,0.3493782841,0.2305439426,0.6454421456,0.000294654,0.6388964352
9,ap-southeast-2,r4.large,0.9543820807739614,152.8008000851,97.479290212,304.1912469204,0.1596,327.119,0.3169694448,0.2022106984,0.6310132577,0.0003310737,0.6785745084
10,ap-southeast-2,t2.large,0.9506534726119267,90.6009999752,98.3737016213,277.07392939,0.128,327.119,0.2017530708,0.2190615599,0.6169966788,0.0002850343,0.7284385688
11,ap-southeast-2,t2.medium,0.9456794889877885,93.2007999897,98.4124932423,267.8193039056,0.064,327.119,0.2099279882,0.2216669463,0.6032434022,0.0001441553,0.7368116324
12,ap-southeast-2,m3.large,0.9420305052995332,150.0010000229,98.7288741722,277.2820130755,0.186,327.119,0.322646309,0.2123619632,0.5964228109,0.0004000788,0.7036202288
13,ap-southeast-2,c4.large,0.9415271382420329,149.2010000706,98.2434763885,276.0821099305,0.13,327.119,0.3216697607,0.2118079338,0.5952189744,0.0002802734,0.7052519112
14,ap-northeast-1,t2.micro,0.8932820042655706,183.8012000084,99.6703392428,201.1549679426,0.016,273.205,0.4612048859,0.250098734,0.5047499909,0.0000401482,0.6855422099
15,ap-southeast-2,t2.small,0.8775771934041816,183.8008000374,99.6294915615,204.6375640146,0.032,327.119,0.4188206766,0.2270223582,0.4663007071,0.0000729173,0.7453950194
16,ap-southeast-2,t2.micro,0.8723188214813976,189.6009999752,99.6003925776,201.6983795867,0.016,327.119,0.430958275,0.2263891719,0.4584553127,0.0000363676,0.7435332091
17,ap-northeast-1,t2.small,0.8667166061284362,230.6009999752,99.7273970586,204.6409460224,0.032,273.205,0.5440742026,0.2352943137,0.4828247039,0.0000755,0.6445930093
18,ap-northeast-1,m3.medium,0.784805975230915,347.8055999756,99.5971265799,208.2297580113,0.096,273.205,0.697162108,0.199638369,0.4173880382,0.0001924281,0.5476282548
19,ap-southeast-2,m3.medium,0.7418592540149639,420.4012000084,99.7275390245,207.5713730808,0.093,327.119,0.7244254822,0.1718481549,0.3576821189,0.0001602554,0.5636837842
