-1,,,0.0,150.0007999897,94.5236764896,371.1736433,0.292,112.968,0.3516394757,0.2215871918,0.8701240615,0.0006845212,0.2648253095
0,ap-northeast-1,r4.xlarge,0.951590953850333,87.800799942,94.5236764896,427.0183236726,0.32,264.17,0.1693575829,0.1823252338,0.8236689323,0.000617243,0.5095533605
1,ap-northeast-1,c4.xlarge,0.9313220648963261,69.4009999275,93.8654418109,370.2280183759,0.252,264.17,0.1478016553,0.199902994,0.7884657857,0.0005366784,0.5625965521
2,ap-northeast-1,r4.large,0.9270314819404429,145.8009999752,97.3286267878,303.463737423,0.16,264.17,0.3322191334,0.2217709896,0.6914661756,0.0003645727,0.6019322808
3,ap-southeast-2,r4.xlarge,0.9203312561433482,68.8011999607,93.7154167554,427.427262449,0.3192,315.215,0.1265508931,0.1723773669,0.7861970699,0.000587127,0.5797971519
4,ap-northeast-1,m3.large,0.9120105516922578,172.8006000042,98.9345744293,276.4105382103,0.193,264.17,0.4008477895,0.2294998134,0.6411931048,0.0004477046,0.6127985698
5,ap-northeast-1,c4.large,0.9108083816185402,145.8010000229,98.4326979871,275.6211708278,0.126,264.17,0.346850656,0.2341646893,0.6556840069,0.0002997454,0.6284424508
6,ap-southeast-2,c4.xlarge,0.9015093931609081,68.600799942,93.327402236,371.1736433,0.261,315.215,0.1370518808,0.1864511203,0.7415372117,0.0005214304,0.6297420531
7,ap-northeast-1,t2.medium,0.9008046472791746,113.8012001038,98.7435367143,268.3429424451,0.064,264.17,0.2805891359,0.2434628424,0.6616284738,0.0001577989,0.6513396341
8,ap-northeast-1,t2.large,0.8976990618779555,88.2010000706,98.4465128021,275.8783293008,0.128,264.17,0.2182191956,0.2435677466,0.6825540194,0.0003166864,0.6535862956
9,ap-southeast-2,r4.large,0.8869784869954573,123.2009999752,97.044202427,303.1918217105,0.1596,315.215,0.2651588649,0.2088630008,0.6525433989,0.0003434985,0.6784202369
10,ap-southeast-2,c4.large,0.8760405088745689,171.2012000084,98.0895158623,276.3812741489,0.13,315.215,0.3694983491,0.2117036222,0.5965053078,0.0002805751,0.6803189586
11,ap-southeast-2,m3.large,0.8745648331109721,150.0007999897,98.7053417219,277.1832750623,0.186,315.215,0.328555852,0.2162002979,0.6071313427,0.0004074071,0.6904345371
12,ap-southeast-2,t2.large,0.8593707222503844,92.4009999752,98.4155825212,277.0545676885,0.128,315.215,0.2096002831,0.2232436225,0.6284641491,0.0002903522,0.7150263878
13,ap-southeast-2,t2.medium,0.850303824692621,88.6009999752,98.3817365657,267.2949324541,0.064,315.215,0.2041605089,0.2266979538,0.61591934,0.0001474732,0.7263400506
14,ap-northeast-1,t2.small,0.8482412379951066,185.0011999607,99.7761187486,203.8905472165,0.032,264.17,0.4690903312,0.2529930217,0.5169862917,0.0000811394,0.669831292
15,ap-northeast-1,t2.micro,0.844664285141781,185.0012000084,99.6696595664,200.6567214592,0.016,264.17,0.4711080641,0.2538101394,0.5109750617,0.0000407442,0.6727124867
16,ap-southeast-2,t2.small,0.809761122884146,178.8010000229,99.6098123477,204.7264646899,0.032,315.215,0.4177806308,0.2327450642,0.4783572326,0.0000747702,0.7365211688
17,ap-southeast-2,t2.micro,0.8060729031541272,186.8009999752,99.6689856521,201.3588969455,0.016,315.215,0.4346155728,0.2318921916,0.4684863161,0.000037226,0.7333865867
18,ap-northeast-1,m3.medium,0.8015987114707382,346.2026000023,99.5929823003,208.4780336039,0.096,264.17,0.7022727875,0.2020245986,0.422898181,0.0001947362,0.5358694656
19,ap-southeast-2,m3.medium,0.7815741708846253,349.8023999691,99.6140831503,208.4518863906,0.093,315.215,0.6669289336,0.1899229801,0.3974317909,0.0001773127,0.6009850242
