-1,,,0.0,148.600799942,93.914182488,371.5738383891,0.292,113.904,0.3483798276,0.2201724803,0.8711179872,0.000684565,0.2670366236
0,us-east-1,r4.large,0.9949573278119148,154.6009999752,97.624209239,303.8385584807,0.133,109.938,0.4164191013,0.2629516334,0.8183917276,0.0003582366,0.296118933
1,us-east-1,t2.large,0.9916027240441538,91.4010000706,98.5077288188,276.4044147338,0.094,109.938,0.2800187312,0.3017911097,0.8468005105,0.0002879811,0.3368092171
2,us-east-1,c4.large,0.9907219269952408,148.6009999752,98.4692851991,276.227468753,0.1,109.938,0.4286769421,0.284059408,0.7968475761,0.0002884751,0.317143799
3,us-east-1,t2.medium,0.9902563494003692,89.4007999897,98.4209359219,267.8290452505,0.047,109.938,0.2806162235,0.3089291299,0.8406767639,0.0001475262,0.3450795338
4,us-east-1,m3.large,0.9897762098894443,152.6007999897,98.8159471946,276.4027962932,0.133,109.938,0.4377271436,0.2834482015,0.792846476,0.0003815033,0.3153512086
5,us-east-1,c4.xlarge,0.9845580778060603,72.6008000374,93.8863351311,371.5738383891,0.199,109.938,0.1791443875,0.2316670063,0.9168682389,0.0004910377,0.2712749124
6,us-east-1,r4.xlarge,0.9795035082306969,72.600799942,93.914182488,427.655289773,0.266,109.938,0.1587813392,0.205394702,0.9353020861,0.0005817544,0.2404395391
7,eu-central-1,t2.large,0.9785357513055767,107.2012000561,98.7840411689,277.0266338149,0.108,26.073,0.3412702132,0.3144745653,0.8819018662,0.0003438132,0.0830022263
8,eu-central-1,t2.medium,0.9764474960300886,89.4005999565,98.4734942613,267.7731378012,0.054,26.073,0.2978832774,0.3281142098,0.892221528,0.0001799283,0.0868753755
9,eu-central-1,r4.large,0.9753493353538117,157.0012000084,97.4264450387,303.5270066747,0.16005,26.073,0.4406431572,0.2734392879,0.8518858359,0.0004492,0.0731770779
10,eu-central-1,m3.large,0.9734408834766769,148.600799942,98.8943761611,276.583006098,0.158,26.073,0.4500157009,0.2994870958,0.8375910183,0.0004784798,0.0789582517
11,eu-central-1,c4.large,0.9705842210611846,158.000799942,98.5816591854,276.1337675559,0.114,26.073,0.4729370289,0.2950802592,0.8265393824,0.0003412313,0.0780431945
12,eu-central-1,c4.xlarge,0.9617316556205882,68.8010000229,93.2186498026,371.0916633113,0.227,26.073,0.1765799775,0.2392486603,0.952418679,0.0005826028,0.0669171924
13,eu-central-1,r4.xlarge,0.9512287509166534,60.000799942,91.9488522563,426.1334245854,0.3201,26.073,0.1361110861,0.2085848548,0.966678499,0.000726143,0.0591462839
14,us-east-1,t2.small,0.9392178506371476,183.6007999897,99.6694013062,204.2552866172,0.023,109.938,0.5881444819,0.3192797003,0.6543088033,0.0000736779,0.3521739995
15,us-east-1,t2.micro,0.9371019413059654,183.2010000229,99.6792033393,201.4062780624,0.012,109.938,0.590819124,0.3214631994,0.6495307381,0.0000386997,0.354547589
16,eu-central-1,t2.micro,0.9170498849115982,188.0006000042,99.7000444346,200.9922682208,0.014,26.073,0.6397316607,0.3392610183,0.6839399317,0.0000476394,0.0887216508
17,eu-central-1,t2.small,0.9000574314679076,211.8012000084,99.780982136,204.1986153965,0.027,26.073,0.6793775861,0.3200593896,0.6549913901,0.0000866057,0.0836322542
18,us-east-1,m3.medium,0.817191662243685,350.4035999775,99.5756988893,207.6329008293,0.067,109.938,0.8083697097,0.229717899,0.4790023498,0.0001545668,0.2536233907
19,eu-central-1,m3.medium,0.7883590635643131,354.0013999462,99.7497451699,208.6087959648,0.079,26.073,0.8356333711,0.2354629553,0.4924287628,0.0001864824,0.0615462789
